abseil 20230802.1-4 Failed [GCC_ERROR] #1077527  RECHECK
aioredis 1.3.1-2 Failed [UNKNOWN] #1058292  RECHECK
alligator 24.08.3-1 Failed [UNKNOWN] #1087385  RECHECK
alot 0.10-2 Failed [UNKNOWN] #1090088  RECHECK
alpine 2.26+dfsg-2 Failed [UNKNOWN] #1089250  RECHECK
antlr4 4.9.2-2 Failed [MISSING_DEP] #1088120  RECHECK RECHECK_GUESS
ants 2.4.3+dfsg-1 Failed [BUILDDEPS] NNN
apt-setup 1:0.190 Failed [UNKNOWN] NNN
apt-transport-in-toto 0.1.1-5 Failed [PYTHON_TRACEBACK/PYIMPORT] #1090090  RECHECK
arch-test 0.21-1 Failed [BUILDDEPS] #1089980  RECHECK
arduino-builder 1.3.25-4 Failed [UNKNOWN] #1085522  RECHECK
arduino-core-avr 1.8.6+dfsg-1 Failed [GCC_ERROR/LD_ERROR] #1086256  RECHECK
arm-trusted-firmware 2.10.0+dfsg-1 Failed [GCC_ERROR] NNN
astroplan 0.10-1 Failed [PYTHON_TRACEBACK/PYIMPORT] #1091018: astroplan: FTBFS: ModuleNotFoundError: No module named 'six'  RECHECK
audioread 3.0.1-1 Failed [UNKNOWN] #1090092  RECHECK
b4 0.14.2-2 Failed [UNKNOWN] #1090192  RECHECK
babeltrace2 2.0.6-2 Failed [GCC_ERROR] #1091134
backward-cpp 1.6-1 Failed [SEGMENTATION_FAULT] #976582
bctoolbox 5.2.0-2.1 Failed [GCC_ERROR] #1074774  RECHECK
bgoffice 4.1-7 Failed [UNKNOWN] #1090193  RECHECK
binutils-avr 2.43.1-1 Failed [GCC_ERROR] #1090195  RECHECK
binutils-m68hc1x 1:3.5.1 Failed [GCC_ERROR] #1090194  RECHECK
biobambam2 2.0.185+ds-2 Failed [BUILDDEPS] NNN
black 24.10.0-1 Failed [GCC_ERROR/PYTHON_TRACEBACK] #1091135
blastem 0.6.3.4-2 Failed [GCC_ERROR] #976494
bmagic 6.3.0-1 Failed [GCC_ERROR] #976517
bornagain 22~git20241125114253.51de53a+ds3-1 Failed [UNKNOWN] #1091129
bpftop 0.5.2.9.ga1b99d7-2 Failed [BUILDDEPS] #1091008: bpftop: FTBFS: unsatisfiable build-dependencies: librust-libbpf-rs-0.24+default-dev, librust-libbpf-rs-0.24-dev  RECHECK
brasero 3.12.3-2 Failed [GCC_ERROR] #1074854  RECHECK
cachelib 0.13.0-2 Failed [PYTHON_TRACEBACK] #1090196  RECHECK
calligra 1:3.2.1+dfsg-9 Failed [UNKNOWN] #1091140
calligraplan 1:3.3.0-2 Failed [UNKNOWN] #1091122
cam2ip 1.6-3 Failed [UNKNOWN] #1090199  RECHECK
camitk 5.2.0-2 Failed [BUILDDEPS] NNN
caribou 0.4.21-9 Failed [GCC_ERROR] #1074863  RECHECK
carl9170fw 1.9.9-399-gcd480b9-1.2 Failed [GCC_ERROR] NNN
cbmc 6.1.1-2 Failed [MISSING_DEP] #1091116
cdk 1:2.9-2 Failed [MISSING_DEP] #1090200  RECHECK RECHECK_GUESS
cdlclient 0.10.1-2 Failed [BUILDDEPS] #1091014: cdlclient: FTBFS: unsatisfiable build-dependencies: python3-pylsp (< 1.11~), python3-qtconsole (< 5.6~), python3-spyder-kernels (< 2.6~)  RECHECK
cifs-utils 2:7.0-2.1 Failed [GCC_ERROR] #1090201  RECHECK
clementine 1.4.0~rc1+git867-g9ef681b0e+dfsg-1 Failed [GCC_ERROR] #1088037  RECHECK
compton-conf 0.16.0-4 Failed [UNKNOWN] #1090202  RECHECK
consensuscore 1.1.1+dfsg-7 Failed [GCC_ERROR] TODO
consfigurator 1.4.4-1 Failed [UNKNOWN] #1090203  RECHECK
cpptraj 5.1.0+dfsg-4 Failed [SEGMENTATION_FAULT] NNN
cross-toolchain-base-mipsen 30 Failed [BUILDDEPS] #1091012: cross-toolchain-base-mipsen: FTBFS: build-dependency not installable: linux-source-6.9 (>= 6.9.9)  RECHECK
cross-toolchain-base-ports 69 Failed [UNKNOWN] TODO
csound 1:6.18.1+dfsg-3 Failed [UNKNOWN] #1090775  RECHECK RECHECK_GUESS
dask 2024.5.2+dfsg-1 Failed [UNKNOWN] #1091016: dask: FTBFS: Handler <function update_and_remove_templates at 0x7f63b290a480> for event 'html-page-context' threw an exception (exception: 'generate_nav_html')  RECHECK
dask.distributed 2024.5.2+ds.1-8 Failed [PYTHON_TRACEBACK] #1090205  RECHECK
datalab 0.17.0-3 Failed [BUILDDEPS] #1091013: datalab: FTBFS: unsatisfiable build-dependencies: python3-pylsp (< 1.11~), python3-qtconsole (< 5.6~), python3-spyder-kernels (< 2.6~)  RECHECK
davfs2 1.7.0-1 Failed [CONFIGURE_ERROR] #1090207  RECHECK
dbus-deviation 0.6.1+git20240205+f5e6774af579-2 Failed [UNKNOWN] #1090039  RECHECK
dcontainers 0.9.0-2 Failed [BUILDDEPS] #1091020: dcontainers: FTBFS: build-dependency not installable: libllvm16t64  RECHECK
debian-installer 20240914 Failed [UNKNOWN] let's ignore it  RECHECK
deblur 1.1.1-3 Failed [BUILDDEPS] NNN
deepin-deb-installer 5.12.4-2 Failed [GCC_ERROR] #1090206  RECHECK
device-tree-compiler 1.7.0-2 Failed [GCC_ERROR/PYTHON_TRACEBACK] #1091118
diceware 0.10-2 Failed [UNKNOWN] #1090096  RECHECK
dioptas 0.6.0-2 Failed [BUILDDEPS] TODO
directfb 1.7.7-13 Failed [GCC_ERROR] #1074913  RECHECK
dlang-libevent 2.0.16.1~really2.0.2-0.2 Failed [BUILDDEPS] #1091010: dlang-libevent: FTBFS: build-dependency not installable: libllvm16t64  RECHECK
dlang-openssl 2.0.0+1.1.0h-0.2 Failed [BUILDDEPS] #1091022: dlang-openssl: FTBFS: build-dependency not installable: libllvm16t64  RECHECK
dynare 6.2-1 Failed [UNKNOWN] #1090208  RECHECK
editorconfig-core 0.12.9+~0.15.1-1 Failed [UNKNOWN] #1062397  RECHECK
editorconfig-emacs 0.11.0-1 Failed [UNKNOWN] #1090210  RECHECK
edk2 2024.11-2 Failed [GCC_ERROR] TODO
elan 3.1.1-3 Failed [BUILDDEPS] #1091017: elan: FTBFS: build-dependency not installable: librust-pulldown-cmark-escape-0.10+simd-dev  RECHECK RECHECK_GUESS
elastix 5.1.0-1 Failed [BUILDDEPS] TODO
elixir-earmark-parser 1.4.41-1 Failed [UNKNOWN] #1090209  RECHECK
elixir-ex-doc 0.35.1+dfsg-1 Failed [UNKNOWN] #1090211  RECHECK
elixir-makeup 1.2.1-1 Failed [UNKNOWN] #1090215  RECHECK
elixir-makeup-c 0.1.1-3 Failed [UNKNOWN] #1090212  RECHECK
elixir-makeup-elixir 1.0.0-1 Failed [UNKNOWN] #1090213  RECHECK
elixir-makeup-erlang 1.0.1-1 Failed [UNKNOWN] #1090214  RECHECK
elk 3.99.8-8 Failed [GCC_ERROR] #1088716  RECHECK
emscripten 3.1.66~dfsg-2 Failed [UNKNOWN] #1091015: emscripten: FTBFS: make[1]: *** [debian/rules:209: execute_after_dh_auto_build-indep] Error 2  RECHECK
erlang 1:27.1.2+dfsg-1 Failed [UNKNOWN] #1090217  RECHECK RECHECK_GUESS
erlang-bbmustache 1.6.1+dfsg-1 Failed [UNKNOWN] #1090216  RECHECK
etlcpp 20.37.2+dfsg-1.1 Failed [GCC_ERROR] NNN
ezquake 3.6.4-3 Failed [GCC_ERROR] #1088891  RECHECK
fai 6.2.3 Failed [UNKNOWN] #1089253  RECHECK
fasttrack-archive-keyring 2020.12.19 Failed [UNKNOWN] #1090219  RECHECK
field3d 1.7.3-4.1 Failed [GCC_ERROR] #1078975  RECHECK
firebird3.0 3.0.11.33703.ds4-4 Failed [GCC_ERROR/LD_ERROR] #1079525  RECHECK
flask-sqlalchemy 3.1.1-2 Failed [UNKNOWN] #1090220  RECHECK
fontmake 3.10.0-1 Failed [PYTHON_TRACEBACK] #1088717  RECHECK
fonts-arapey 0+git20200408-3 Failed [PYTHON_TRACEBACK] #1087299  RECHECK
forge 1.0.1-3.1 Failed [GCC_ERROR] #1090222  RECHECK
fortunes-eo 20020729b-1.1 Failed [UNKNOWN] #1090224  RECHECK
fpdf2 2.8.1-1 Failed [UNKNOWN] #1090223  RECHECK
freesas 2024.9.0-1 Failed [UNKNOWN] #1088040  RECHECK
freezegun 1.5.1-1.1 Failed [UNKNOWN] #1090225  RECHECK
fuse-umfuse-ext2 0.4-1.5 Failed [BUILDDEPS] TODO
fuse-umfuse-iso9660 0.3-2 Failed [BUILDDEPS] TODO
gauche 0.9.15-p2+20241205-2 Failed [UNKNOWN] #1091021
gcc-12-cross-mipsen 5+c1 Failed [UNKNOWN] #1089258  RECHECK
gcc-12-cross-ports 17 Failed [UNKNOWN] #1089259
gcc-13-cross 15 Failed [UNKNOWN] #1090003
gcc-13-cross-mipsen 4+c1 Failed [UNKNOWN] #1089260
gcc-13-cross-ports 19 Failed [UNKNOWN] #1089261
gcc-14-cross 7 Failed [UNKNOWN] #1090004
gcc-14-cross-mipsen 3+c1 Failed [UNKNOWN] #1089262  RECHECK
gcc-14-cross-ports 8 Failed [UNKNOWN] #1089263  RECHECK
gcin 2.9.4+dfsg1-1 Failed [UNKNOWN] NNN
gdl 3.40.0-2 Failed [GCC_ERROR] #1074981  RECHECK
getdns 1.6.0-3.1 Failed [GCC_ERROR] #1074989  RECHECK
gfxboot 4.5.73-2 Failed [UNKNOWN] TODO
gimagereader 3.4.2-2 Failed [GCC_ERROR] #1091007  RECHECK RECHECK_GUESS
git-buildpackage 0.9.35 Failed [UNKNOWN] #1090227  RECHECK
gkl 0.8.11+dfsg-2 Failed [GCC_ERROR] TODO
globjects 1.1.0-3 Failed [GCC_ERROR] #1090229  RECHECK
gnucash 1:5.8-1 Failed [GCC_ERROR] #1091123
gnumeric 1.12.57-1 Failed [UNKNOWN] #1091009: gnumeric: FTBFS: failed tests  RECHECK
golang-github-flowstack-go-jsonschema 0.1.2-2 Failed [UNKNOWN] #1090230  RECHECK
golang-github-iovisor-gobpf 0.2.0-6 Failed [UNKNOWN] #1090231  RECHECK
golang-github-linuxkit-virtsock 0.0~git20220523.1a23e78+ds-1 Failed [UNKNOWN] TODO
golang-golang-x-arch 0.12.0-1 Failed [UNKNOWN] NNN
golang-golang-x-net 1:0.27.0-1 Failed [UNKNOWN] #1089192  RECHECK
golang-golang-x-tools 1:0.23.0+ds-1 Failed [UNKNOWN] #1082974  RECHECK
golang-google-cloud 0.56.0-5 Failed [UNKNOWN] #976507
golang-mvdan-editorconfig 0.2.0+git20231228.1925077-1 Failed [UNKNOWN] #1090232  RECHECK
gprolog 1.4.5.0-3 Failed [CONFIGURE_ERROR] TODO
gpsshogi 0.7.0-3.2 Failed [BUILDDEPS] TODO
gtk-layer-shell 0.8.2-1 Failed [UNKNOWN] #1077394  RECHECK
gubbins 3.4-1 Failed [BUILDDEPS] TODO
guiqwt 4.4.4-1 Failed [BUILDDEPS] #1091081: guiqwt: FTBFS: unsatisfiable build-dependencies: python3-pylsp (< 1.11~), python3-qtconsole (< 5.6~), python3-spyder-kernels (< 2.6~)  RECHECK
gvars3 0.0~git20220105194034.62f5a78-4.1 Failed [GCC_ERROR/LD_ERROR] TODO
hackage-tracker 0.1.1 Failed [UNKNOWN] #1091077: hackage-tracker: FTBFS: Can't exec "dh_buildinfo": No such file or directory at /usr/share/perl5/Debian/Debhelper/SequencerUtil.pm line 534.  RECHECK
hippomocks 5.0-2 Failed [UNKNOWN] #888883
hkl 5.1.2-2 Failed [UNKNOWN] #1087738  RECHECK
hpsockd 0.17+nmu1 Failed [GCC_ERROR] #1075070  RECHECK
httpcomponents-client 4.5.14-1 Failed [UNKNOWN] #1067795  RECHECK RECHECK_GUESS
hyperkitty 1.3.12-1 Failed [PYTHON_TRACEBACK] #1088312  RECHECK
importlib-resources 6.4.5-1 Failed [UNKNOWN] #1090233  RECHECK
in-toto 2.0.0-1 Failed [PYTHON_TRACEBACK/PYIMPORT] #1090235  RECHECK
ipxe 1.0.0+git-20190125.36a4c85-5.2 Failed [BUILDDEPS] TODO
isbg 2.3.1-4 Failed [UNKNOWN] #1090236  RECHECK
itkadaptivedenoising 0.0+git20240907.9a7adca-1 Failed [BUILDDEPS] TODO
itkgenericlabelinterpolator 1.2.1-2 Failed [BUILDDEPS] TODO
jarchivelib 1.2.0-2 Failed [UNKNOWN] #1086277  RECHECK
jax-maven-plugin 0.1.8+dfsg-2 Failed [UNKNOWN] #1091120
jayway-jsonpath 2.0.0-5 Failed [UNKNOWN] #1091132
jctools 2.0.2-1 Failed [UNKNOWN] #976534
jgmenu 4.4.1-2 Failed [GCC_ERROR] #1091058: jgmenu: FTBFS: jgmenu-applet.c:7:10: fatal error: libxfce4util/libxfce4util.h: No such file or directory  RECHECK RECHECK_GUESS
jruby 9.4.8.0+ds-1 Failed [MISSING_DEP] #1091127
jupyter-console 6.6.3-1 Failed [UNKNOWN] #1090099  RECHECK
kaidan 0.9.2-1 Failed [UNKNOWN] #1090237  RECHECK
kf5-messagelib 4:22.12.3-3 Failed [BUILDDEPS] #1091126
kickoff 0.1.1 Failed [UNKNOWN] #1091059: kickoff: FTBFS: Can't exec "dh_buildinfo": No such file or directory at /usr/share/perl5/Debian/Debhelper/SequencerUtil.pm line 534.  RECHECK
kitchen 1.2.6-6 Failed [UNKNOWN] #1090102  RECHECK
klepto 0.2.6-1 Failed [UNKNOWN] #1090103  RECHECK
kodi 2:21.1+dfsg-5 Failed [SEGMENTATION_FAULT] #1091112
lavacli 1.2-1 Failed [UNKNOWN] #1088041  RECHECK
ldns 1.8.4-1 Failed [GCC_ERROR] #1091117
leaktracer 2.4-6.3 Failed [UNKNOWN] #1089906  RECHECK
libamplsolver 0~20190702-3 Failed [GCC_ERROR] #1091063: libamplsolver: FTBFS: asl.h:22:10: fatal error: arith.h: No such file or directory  RECHECK
libatomic-queue 1.6.5-1 Failed [BUILDDEPS] TODO
libcddb 1.3.2-7 Failed [GCC_ERROR] #1075157  RECHECK
libcommons-fileupload-java 1.5-1 Failed [MISSING_DEP] #1069839  RECHECK RECHECK_GUESS
libcrypt-xxhash-perl 0.07-1 Failed [GCC_ERROR] TODO
libei 1.3.0-1 Failed [UNKNOWN] #1084287  RECHECK
libept 1.2.1+nmu1 Failed [GCC_ERROR] #1088400  RECHECK
libfm 1.3.2-4.1 Failed [GCC_ERROR] #1075167  RECHECK
libftdi1 1.5-7 Failed [GCC_ERROR] #1091128
libjavaewah-java 1.2.3-1 Failed [BUILD_TIMEOUT] #1086360  RECHECK
libjpeg 0.0~git20220805.54ec643-1 Failed [UNKNOWN] #1091050: libjpeg: FTBFS: dpkg-buildpackage: error: dpkg-source -b . subprocess returned exit status 2  RECHECK
libkf5calendarsupport 4:22.12.3-1 Failed [BUILDDEPS] #1091124
libkf5gravatar 4:22.12.3-1 Failed [BUILDDEPS] #1091056: libkf5gravatar: FTBFS: unsatisfiable build-dependencies: akonadi-contacts-data (= 4:22.12.3-1), akonadi-contacts-data (= 4:22.12.3-1)  RECHECK
libkf5ksieve 4:22.12.3-2 Failed [BUILDDEPS] #1091113
libkf5mailcommon 4:22.12.3-2 Failed [BUILDDEPS] #1091114
libkf5mailimporter 4:22.12.3-1 Failed [BUILDDEPS] #1091078: libkf5mailimporter: FTBFS: unsatisfiable build-dependencies: akonadi-contacts-data (= 4:22.12.3-1), akonadi-mime-data (= 4:22.12.3-1), akonadi-contacts-data (= 4:22.12.3-1)  RECHECK
libkf5pimcommon 4:22.12.3-1 Failed [BUILDDEPS] #1091107
libkf5sane 22.12.3-1 Failed [UNKNOWN] #1090243  RECHECK
liblo 0.32-1 Failed [UNKNOWN] #1090774  RECHECK
libmmmulti 0.1-3 Failed [BUILDDEPS] TODO
libmpc 2:0.1~r495-2 Failed [GCC_ERROR] #1075188  RECHECK
libosl 0.8.0-4 Failed [GCC_ERROR] #976483
libphp-swiftmailer 6.3.0-6 Failed [UNKNOWN] #1082439  RECHECK
libqapt 3.0.5-2 Failed [GCC_ERROR] #1089202  RECHECK RECHECK_GUESS
librnd 4.3.1-2 Failed [GCC_ERROR] #1091019: librnd: FTBFS: librnd_includes.c:4:10: fatal error: librnd/core/global_typedefs.h: No such file or directory  RECHECK RECHECK_GUESS
libsbml 5.20.2+dfsg-8 Failed [UNKNOWN] #1091136
libschedule-cron-perl 1.05-1 Failed [UNKNOWN] #1091076: libschedule-cron-perl: FTBFS: dh_auto_test: error: make -j8 test TEST_VERBOSE=1 "TEST_FILES=t/after_job.t t/callbackreschedule.t t/delete_entry.t t/dst_back.t t/entry.t t/execution_time.t t/load_crontab.t t/nofork.t t/pod.t t/pod_coverage.t t/pretty_print_args.t t/process_name.t t/same_time_with_reschedule.t t/sighandler.t t/startup.t t/timeshift.t" returned exit code 2  RECHECK
libselinux 3.7-3 Failed [GCC_ERROR] #1091131
libsemanage 3.7-2 Failed [GCC_ERROR] #1091109
libslf4j-java 1.7.32-1 Failed [BUILD_TIMEOUT] #1060960  RECHECK
libsmbios 2.4.3-1 Failed [GCC_ERROR] TODO
libsvm 3.24+ds-6 Failed [UNKNOWN] #1057522  RECHECK
libthrust 2.1.1-1 Failed [GCC_ERROR/SEGMENTATION_FAULT] NNN
libunwind 1.7.2-1 Failed [GCC_ERROR] #1082284
libxmltok 1.2-4.1 Failed [GCC_ERROR] #1075221  RECHECK
linux 6.12.6-1 Failed [GCC_ERROR] #1090999
lmfit-py 1.2.2-3 Failed [UNKNOWN] #1090242  RECHECK
lua-struct 0.3-1 Failed [UNKNOWN] TODO
lxpanel 0.10.1-4 Failed [GCC_ERROR] #1075243  RECHECK RECHECK_GUESS
lxqt-branding-debian 0.14.0.4 Failed [UNKNOWN] #1090245  RECHECK
lxterminal 0.4.0-2 Failed [GCC_ERROR] #1075245  RECHECK
m2crypto 0.42.0-2 Failed [UNKNOWN] #1091133
mariadb 1:11.4.4-2 Failed [UNKNOWN] TODO
massif-visualizer 0.7.0-4 Failed [UNKNOWN] #1086477  RECHECK
matchbox-window-manager 1.2.2+git20200512-1 Failed [GCC_ERROR] #1066655  RECHECK
mate-panel 1.27.1-4 Failed [UNKNOWN] #1074747  RECHECK
mate-settings-daemon 1.26.1-1.1 Failed [GCC_ERROR] #1075259  RECHECK RECHECK_GUESS
maven-debian-helper 2.6.6 Failed [GCC_ERROR] #1091111
md-toc 8.2.0-1 Failed [UNKNOWN] #1085947  RECHECK
mdbook 0.4.40+ds-1 Failed [BUILDDEPS] #1091061: mdbook: FTBFS: build-dependency not installable: librust-pulldown-cmark-escape-0.10+simd-dev  RECHECK RECHECK_GUESS
med-fichier 4.1.0+repack-7 Failed [GCC_ERROR] #1091139
meli 0.8.10+dfsg-1 Failed [UNKNOWN] #1091073: meli: FTBFS: Could not create log file in XDG_DATA_DIR: Os { code: 13, kind: PermissionDenied, message: \"Permission denied\" }  RECHECK
memkind 1.14.0-3.1 Failed [UNKNOWN] #1089267  RECHECK
meson 1.6.1-1 Failed [GCC_ERROR/LD_ERROR/PYTHON_TRACEBACK] NNN
minimac4 4.1.6-1 Failed [BUILDDEPS] TODO
mit-scheme 12.1-4 Failed [BUILDDEPS] TODO
mochiweb 3.2.2-1 Failed [UNKNOWN] #1090246  RECHECK
muffin 6.2.0-3 Failed [UNKNOWN] #1088720  RECHECK
mupen64plus-core 2.6.0-1 Failed [UNKNOWN] TODO
neochat 24.08.1-4 Failed [BUILDDEPS] #1091038: neochat: FTBFS: build-dependency not installable: libquotient-dev (>= 0.8.2~)  RECHECK
netsniff-ng 0.6.8-3 Failed [UNKNOWN] #1089269  RECHECK
nfs-ganesha 5.9-5 Failed [UNKNOWN] NNN
node-inwasm 0.0.13~git20230419+dfsg-3 Failed [GCC_ERROR] #1091032: node-inwasm: FTBFS: wasm-ld-18: error: unknown argument: --no-growable-memory  RECHECK
node-kew 0.7.0-2 Failed [UNKNOWN] #1082975  RECHECK
node-quickjs-emscripten 0.23.0+dfsg-4 Failed [GCC_ERROR] #1084307  RECHECK
node-sixel 0.16.0-2 Failed [GCC_ERROR] #1084308  RECHECK
node-yarnpkg 4.0.2+dfsg-3 Failed [GCC_ERROR] #1084310  RECHECK
nose 1.3.7-14 Failed [UNKNOWN] #1090111  RECHECK
nose2 0.14.0-2 Failed [PYTHON_TRACEBACK] #1090249  RECHECK
ntldd 0.2-3 Failed [GCC_ERROR] TODO
o2 1.1~ds-4 Failed [UNKNOWN] #1090773  RECHECK
oaklisp 1.3.7-4 Failed [BUILDDEPS] TODO
ocrmypdf 16.3.1+dfsg1-1 Failed [UNKNOWN] #1090112  RECHECK
octave-control 4.1.0-1 Failed [UNKNOWN] NNN
ompl 1.6.0+ds1-1 Failed [UNKNOWN] NNN
onetbb 2021.12.0-1 Failed [UNKNOWN] #1091039: onetbb: FTBFS: make[1]: *** [debian/rules:50: override_dh_auto_build-indep] Error 2  RECHECK
open-adventure 1.20-1 Failed [UNKNOWN] #1091064: open-adventure: FTBFS: failing tests  RECHECK
open-ath9k-htc-firmware 1.4.0-108-gd856466+dfsg1-1.5 Failed [GCC_ERROR] #1090253  RECHECK
open-build-service 2.9.4-10 Failed [UNKNOWN] #1088953
openhpi 3.8.0-2.2 Failed [GCC_ERROR] #1075341  RECHECK
openqa 4.6.1712926289.b0d689b52-2 Failed [UNKNOWN] NNN
openstructure 2.9.0-2 Failed [BUILD_TIMEOUT] #976491
openturns 1.23-5 Failed [GCC_ERROR] NNN
ortp 1:5.2.0-2 Failed [GCC_ERROR] #1052747  RECHECK
osmo-libasn1c 0.9.37-1 Failed [GCC_ERROR] #1090257  RECHECK
pandas 2.2.3+dfsg-5 Failed [PYTHON_TRACEBACK/PYIMPORT] #1088988  RECHECK
parallel-hashmap 1.4.1+ds-1 Failed [GCC_ERROR] TODO
parcimonie 0.12.0-2 Failed [UNKNOWN] #1091033: parcimonie: FTBFS: Can't locate Module/Pluggable/Object.pm in @INC  RECHECK
pathos 0.3.3-1 Failed [UNKNOWN] #1090113  RECHECK
pentobi 25.1-1 Failed [UNKNOWN] #1088893  RECHECK
pep8 1.7.1-11 Failed [PYTHON_TRACEBACK] #1042213  RECHECK
pesign 116-8 Failed [GCC_ERROR] #1075379  RECHECK
pgloader 3.6.10-4 Failed [UNKNOWN] #1090258  RECHECK
php-easyrdf 1.0.0-3 Failed [BUILD_TIMEOUT] #1082446  RECHECK
php-nesbot-carbon 2.69.0-4 Failed [UNKNOWN] #1082457  RECHECK
php-net-publicsuffix 0.2-1.1 Failed [UNKNOWN] #1082458  RECHECK
php-opis-closure 3.6.3-2 Failed [UNKNOWN] #1082460  RECHECK
phpmyadmin 4:5.2.2-really5.2.2+20241130+dfsg-1 Failed [UNKNOWN] #1082486  RECHECK
picolibc 1.8.8-2 Failed [UNKNOWN] TODO
plastimatch 1.9.4+dfsg.1-3 Failed [BUILDDEPS] TODO
plotpy 2.6.2-1 Failed [BUILDDEPS] #1091079: plotpy: FTBFS: unsatisfiable build-dependencies: python3-pylsp (< 1.11~), python3-qtconsole (< 5.6~), python3-spyder-kernels (< 2.6~)  RECHECK
plplot 5.15.0+dfsg2-11 Failed [GCC_ERROR] #1091121
poezio 0.14-4 Failed [UNKNOWN] #1090114  RECHECK
polib 1.2.0-1 Failed [PYTHON_TRACEBACK] #1074675  RECHECK
pomegranate-clojure 1.2.1-3 Failed [UNKNOWN] #1091055: pomegranate-clojure: FTBFS: make[1]: *** [debian/rules:14: override_dh_auto_test] Error 1  RECHECK
ppft 1.7.6.9+dfsg-1 Failed [UNKNOWN] #1090116  RECHECK
probabel 0.5.0+dfsg-6 Failed [UNKNOWN] TODO
psortb 3.0.6+dfsg-4 Failed [BUILDDEPS] TODO
puppetdb 8.4.1-3 Failed [PYTHON_TRACEBACK] TODO
pv 1.9.15-1 Failed [UNKNOWN] TODO
pyina 0.3.0-1 Failed [UNKNOWN] #1090118  RECHECK
pylint 3.3.1-2 Failed [UNKNOWN] #1091029: pylint: FTBFS: dh_auto_test: error: pybuild --test --test-pytest -i python{version} -p "3.13 3.12" returned exit code 13  RECHECK
pyopencl 2024.1-1 Failed [PYTHON_TRACEBACK] #1090265  RECHECK
pyqso 1.1.0-6 Failed [UNKNOWN] #1090120  RECHECK
pyregion 2.3.0-1 Failed [UNKNOWN] #1090121  RECHECK
pysmi 0.3.4-1 Failed [UNKNOWN] #1090123  RECHECK
pystaticconfiguration 0.11.1-2 Failed [UNKNOWN] #1090125  RECHECK
pyswarms 1.3.0-8 Failed [UNKNOWN] #1090124  RECHECK
pyte 0.8.0-2 Failed [UNKNOWN] #1090126  RECHECK
python-adb-shell 0.4.4-2 Failed [UNKNOWN] #1082192  RECHECK
python-aioopenssl 0.6.0-1 Failed [UNKNOWN] #1090130  RECHECK
python-anyqt 0.2.0-2 Failed [UNKNOWN] #1090131  RECHECK
python-argon2 21.1.0-2 Failed [UNKNOWN] #1090133  RECHECK
python-babel 2.16.0-1 Failed [UNKNOWN] #1090266  RECHECK
python-beartype 0.19.0-1 Failed [UNKNOWN] #1089017  RECHECK
python-blessed 1.20.0-1 Failed [PYTHON_TRACEBACK] #1090132  RECHECK
python-cai 1.0.2-4 Failed [UNKNOWN] #1090135  RECHECK
python-cattrs 23.2.3-1 Failed [UNKNOWN] #1073406  RECHECK
python-cffi 1.17.1-2 Failed [UNKNOWN] #1090267  RECHECK
python-chameleon 4.5.4-1 Failed [UNKNOWN] #1090134  RECHECK
python-contextily 1.5.2+dfsg1-2 Failed [UNKNOWN] #1091031: python-contextily: FTBFS: Handler <function update_and_remove_templates at 0x7f7d157baa20> for event 'html-page-context' threw an exception (exception: 'generate_nav_html')  RECHECK
python-django 3:4.2.17-1 Failed [PYTHON_TRACEBACK] #1082209  RECHECK
python-ebooklib 0.18-3 Failed [UNKNOWN] #1090139  RECHECK
python-ewmh 0.1.6-3 Failed [UNKNOWN] #1090141  RECHECK
python-executing 2.1.0-0.1 Failed [UNKNOWN] #1090272  RECHECK
python-flask-marshmallow 1.2.1-1 Failed [UNKNOWN] #1090273  RECHECK
python-foobot-async 1.0.1-2 Failed [UNKNOWN] #1090274  RECHECK
python-gplearn 0.4.2-2 Failed [UNKNOWN] #1090144  RECHECK
python-hjson 3.1.0-2 Failed [PYTHON_TRACEBACK] #1090275  RECHECK
python-inline-snapshot 0.14.0-2 Failed [UNKNOWN] #1090276  RECHECK
python-josepy 1.14.0-2 Failed [UNKNOWN] #1090148  RECHECK
python-libusb1 3.1.0+ds-1 Failed [PYTHON_TRACEBACK] #1090277  RECHECK
python-maturin 1.7.4-2 Failed [UNKNOWN] #1088724  RECHECK
python-miio 0.5.12-2 Failed [UNKNOWN] #1090278  RECHECK
python-mt-940 4.30.0-2 Failed [UNKNOWN] #1090151  RECHECK
python-muranoclient 2.8.0-2 Failed [BUILDDEPS] #1089669  RECHECK
python-nox 2024.04.15-2 Failed [UNKNOWN] #1090281  RECHECK
python-passlib 1.7.4-4 Failed [UNKNOWN] #1090282  RECHECK
python-peachpy 0.0~git20211013.257881e-1.1 Failed [PYTHON_TRACEBACK] TODO
python-pook 1.1.1-2 Failed [UNKNOWN] #1090154  RECHECK
python-pybedtools 0.10.0-2 Failed [UNKNOWN] #1090283  RECHECK
python-pyfakefs 5.7.1-1 Failed [PYTHON_TRACEBACK] #1090285  RECHECK
python-soxr 0.5.0-1 Failed [UNKNOWN] #1087770  RECHECK
python-urllib3 2.2.3-4 Failed [UNKNOWN] #1091035: python-urllib3: FTBFS: dh_auto_test: error: pybuild --test -i python{version} -p "3.13 3.12" returned exit code 13  RECHECK
python-xrt 1.6.0+ds1-1 Failed [BUILDDEPS] #1091052: python-xrt: FTBFS: unsatisfiable build-dependencies: python3-pylsp (< 1.11~), python3-qtconsole (< 5.6~), python3-spyder-kernels (< 2.6~)  RECHECK
qemu 1:9.2.0+ds-2 Failed [BUILDDEPS] TODO
qlipper 1:5.1.2-2 Failed [UNKNOWN] #1090287  RECHECK
qt6-connectivity 6.7.2-5 Failed [UNKNOWN] #1090289  RECHECK
qt6-webengine 6.7.2+dfsg-9 Failed [GCC_ERROR] NNN
qtnetworkauth-everywhere-src 5.15.15-2 Failed [GCC_ERROR] #1090290  RECHECK
r-bioc-biovizbase 1.52.0-1 Failed [BUILDDEPS] #1091048: r-bioc-biovizbase: FTBFS: build-dependency not installable: r-api-bioc-3.20  RECHECK
r-bioc-cummerbund 2.46.0-1 Failed [BUILDDEPS] #1091045: r-bioc-cummerbund: FTBFS: build-dependency not installable: r-api-bioc-3.20  RECHECK
r-bioc-edaseq 2.38.0+dfsg-1 Failed [BUILDDEPS] #1091041: r-bioc-edaseq: FTBFS: build-dependency not installable: r-api-bioc-3.20  RECHECK
r-bioc-ensembldb 2.28.1+dfsg-1 Failed [BUILDDEPS] #1091051: r-bioc-ensembldb: FTBFS: build-dependency not installable: r-api-bioc-3.20  RECHECK
r-bioc-genomicfeatures 1.56.0+dfsg-1 Failed [BUILDDEPS] #1091053: r-bioc-genomicfeatures: FTBFS: build-dependency not installable: r-api-bioc-3.20  RECHECK
r-bioc-genomicfiles 1.40.0+dfsg-1 Failed [BUILDDEPS] #1091066: r-bioc-genomicfiles: FTBFS: build-dependency not installable: r-api-bioc-3.20  RECHECK
r-bioc-gviz 1.48.0+dfsg-1 Failed [BUILDDEPS] #1091065: r-bioc-gviz: FTBFS: build-dependency not installable: r-api-bioc-3.20  RECHECK
r-bioc-ioniser 2.28.0+dfsg-1 Failed [BUILDDEPS] #1091054: r-bioc-ioniser: FTBFS: build-dependency not installable: r-api-bioc-3.20  RECHECK
r-bioc-mutationalpatterns 3.14.0+dfsg-1 Failed [BUILDDEPS] #1091044: r-bioc-mutationalpatterns: FTBFS: build-dependency not installable: r-api-bioc-3.20  RECHECK
r-bioc-purecn 2.10.0+dfsg-1 Failed [BUILDDEPS] #1091060: r-bioc-purecn: FTBFS: build-dependency not installable: r-api-bioc-3.20  RECHECK
r-bioc-qtlizer 1.18.0+dfsg-1 Failed [BUILDDEPS] #1091069: r-bioc-qtlizer: FTBFS: build-dependency not installable: r-api-bioc-3.20  RECHECK
r-bioc-rhdf5 2.48.0+dfsg-3 Failed [GCC_ERROR] #1087826  RECHECK
r-bioc-structuralvariantannotation 1.20.0+ds-1 Failed [BUILDDEPS] #1091026: r-bioc-structuralvariantannotation: FTBFS: build-dependency not installable: r-api-bioc-3.20  RECHECK
r-bioc-titancna 1.42.0-1 Failed [BUILDDEPS] #1091043: r-bioc-titancna: FTBFS: build-dependency not installable: r-api-bioc-3.20  RECHECK
r-bioc-variantannotation 1.50.0-1 Failed [BUILDDEPS] #1091080: r-bioc-variantannotation: FTBFS: build-dependency not installable: r-api-bioc-3.20  RECHECK
rapmap 0.15.0+dfsg-4 Failed [GCC_ERROR/LD_ERROR] TODO
recommonmark 0.7.1+ds-5 Failed [PYTHON_TRACEBACK] #1057939  RECHECK
reqwest 2.0.5+dfsg-1 Failed [UNKNOWN] #1089900  RECHECK
rhsrvany 1.1-3 Failed [CONFIGURE_ERROR] TODO
rich 13.7.1-1 Failed [UNKNOWN] #1082290  RECHECK
rocm-smi-lib 5.7.0-1 Failed [GCC_ERROR] #1075450  RECHECK
ros-image-transport-plugins 1.15.0-3 Failed [UNKNOWN] #1089193  RECHECK
rst2pdf 0.102-2 Failed [PYTHON_TRACEBACK] #1089526  RECHECK
ruby-bunny 2.19.0-2 Failed [RUBY_TEST_FAILED] #1090295  RECHECK
ruby-fakefs 2.5.0-3 Failed [RUBY_TEST_FAILED] #1091072: ruby-fakefs: FTBFS: ERROR: Test "ruby3.1" failed  RECHECK
ruby-fakeredis 0.8.0-7 Failed [RUBY_TEST_FAILED] #1084361  RECHECK
runit 2.1.2-60 Failed [BUILDDEPS] #1090770  RECHECK
rust-allocator-api2 0.2.16-1 Failed [UNKNOWN] #1086315  RECHECK
rust-async-std 1.13.0-1 Failed [UNKNOWN] #1090294  RECHECK
rust-criterion-cycles-per-byte 0.5.0-1 Failed [UNKNOWN] TODO
rust-cursive 0.20.0-3 Failed [BUILDDEPS] #1091074: rust-cursive: FTBFS: build-dependency not installable: librust-pulldown-cmark-escape-0.10+simd-dev  RECHECK
rust-libbpf-cargo 0.24.4-1 Failed [BUILDDEPS] #1091046: rust-libbpf-cargo: FTBFS: unsatisfiable build-dependencies: librust-libbpf-rs-0.24+default-dev, librust-libbpf-rs-0.24-dev  RECHECK
rust-mach-o-sys 0.1.1-3 Failed [UNKNOWN] TODO
rust-ripasso-cursive 0.6.5-3 Failed [BUILDDEPS] #1091034: rust-ripasso-cursive: FTBFS: build-dependency not installable: librust-pulldown-cmark-escape-0.10+simd-dev  RECHECK
rust-ruma-push-gateway-api 0.6.0-1 Failed [BUILDDEPS] #1091070: rust-ruma-push-gateway-api: FTBFS: build-dependency not installable: librust-pulldown-cmark-escape-0.10+simd-dev  RECHECK
rust-rust-ini 0.21.1-1 Failed [BUILDDEPS] #1091036: rust-rust-ini: FTBFS: build-dependency not installable: librust-trim-in-place-0.1+default-dev (>= 0.1.7-~~)  RECHECK
rust-rustls-webpki 0.101.7-3 Failed [BUILDDEPS] #1086452  RECHECK
rust-virtiofsd 1.10.1-1 Failed [BUILDDEPS] #1090064  RECHECK
rust-wasm-bindgen 0.2.87-1 Failed [UNKNOWN] #1086316  RECHECK
rustup 1.26.0-8 Failed [BUILDDEPS] #1091030: rustup: FTBFS: build-dependency not installable: librust-pulldown-cmark-0.9-dev  RECHECK
sagenb-export 3.4-1 Failed [UNKNOWN] TODO
sardana 3.5.0-2 Failed [BUILDDEPS] #1091057: sardana: FTBFS: unsatisfiable build-dependencies: python3-pylsp (< 1.11~), python3-qtconsole (< 5.6~), python3-spyder-kernels (< 2.6~)  RECHECK
scala 2.11.12-5 Failed [UNKNOWN] #1091067: scala: FTBFS: make[1]: *** [debian/rules:13: override_dh_auto_build] Error 1  RECHECK
sccache 0.9.0-1 Failed [UNKNOWN] #1090040  RECHECK
scmutils 0~20230125+dfsg-1 Failed [BUILDDEPS] TODO
seabios 1.16.3-2 Failed [GCC_ERROR] TODO
shovill 1.1.0-9 Failed [BUILDDEPS] TODO
sight 24.1.0-1 Failed [BUILDDEPS] TODO
simplemonitor 1.13.0-1 Failed [UNKNOWN] #1090168  RECHECK
siscone 3.0.5-2 Failed [UNKNOWN] #1086318  RECHECK
smuxi 1.2.1-2 Failed [BUILDDEPS] TODO
specutils 1.19.0-2 Failed [PYTHON_TRACEBACK] #1091138
sphinx-copybutton 0.5.2-2 Failed [UNKNOWN] #1085947  RECHECK
sphinx-mdinclude 0.6.2-1 Failed [UNKNOWN] #1090306  RECHECK
sphinxcontrib-openapi 0.8.4-3 Failed [PYTHON_TRACEBACK] #1090307  RECHECK
spring 106.0+dfsg-4 Failed [UNKNOWN] #976576
spyder 5.5.1+ds-2 Failed [BUILDDEPS] #1088068  RECHECK
spyder-unittest 0.6.0-1 Failed [BUILDDEPS] #1091071: spyder-unittest: FTBFS: unsatisfiable build-dependencies: python3-pylsp (< 1.11~), python3-qtconsole (< 5.6~), python3-spyder-kernels (< 2.6~)  RECHECK
sqlalchemy-i18n 1.1.0-2 Failed [UNKNOWN] #1090170  RECHECK
stactools 0.5.3-2 Failed [UNKNOWN] #1091130
startup-notification 0.12-7 Failed [GCC_ERROR] #1075540  RECHECK
steam-installer 1:1.0.0.81~ds-2 Failed [UNKNOWN] TODO
stumpwm 2:22.11-3 Failed [UNKNOWN] #1090308  RECHECK
swift-im 5.0~alpha2.145.g12d031cf8+dfsg-4 Failed [GCC_ERROR] #1088140  RECHECK
symmetrize 0.5.5+ds2-3 Failed [PYTHON_TRACEBACK] #1090172  RECHECK
syslinux 3:6.04~git20190206.bf6db5b4+dfsg1-3 Failed [GCC_ERROR] #1091027: syslinux: FTBFS: debug.c:91:5: error: implicit declaration of function ‘printf’ [-Wimplicit-function-declaration]  RECHECK
tarantool 2.6.0-1.4 Failed [GCC_ERROR] #976587
taurus 5.1.8-1 Failed [BUILDDEPS] #1091075: taurus: FTBFS: unsatisfiable build-dependencies: python3-pylsp (< 1.11~), python3-qtconsole (< 5.6~), python3-spyder-kernels (< 2.6~)  RECHECK
taurus-pyqtgraph 0.8.0-1 Failed [BUILDDEPS] #1091042: taurus-pyqtgraph: FTBFS: unsatisfiable build-dependencies: python3-pylsp (< 1.11~), python3-qtconsole (< 5.6~), python3-spyder-kernels (< 2.6~)  RECHECK
tcp-wrappers 7.6.q-34 Failed [UNKNOWN] #1091028: tcp-wrappers: FTBFS: make[3]: *** [Makefile:745: config-check] Error 1  RECHECK
telepathy-glib 0.24.2-1 Failed [GCC_ERROR] #1075558  RECHECK
tellico 4.0.1-1 Failed [BUILDDEPS] #1091068: tellico: FTBFS: The following packages have unmet dependencies: libksanecore6-1 : Breaks: libksanecore1 but 23.08.1-2+b1 is to be installed  RECHECK
threeb 0.0~git20220106110332.a3144e0-6 Failed [BUILDDEPS] TODO
tinyarray 1.2.3-4 Failed [UNKNOWN] TODO
traildb 0.6+dfsg1-1 Failed [GCC_ERROR] #862919
twig-i18n-extension 4.1.3-1 Failed [UNKNOWN] #1090840  RECHECK
u-boot 2024.01+dfsg-5 Failed [GCC_ERROR] #1091125
ufoai-maps 2.5-2.1 Failed [UNKNOWN] #976545
uglifyjs 2.8.29-8 Failed [UNKNOWN] #1091037: uglifyjs: FTBFS: make[1]: *** [debian/rules:26: override_dh_auto_test] Error 1  RECHECK
unicycler 0.5.1+dfsg-1.1 Failed [BUILDDEPS] TODO
uw-imap 8:2007f~dfsg-7 Failed [GCC_ERROR] #1075612  RECHECK
vala-panel-appmenu 0.7.6+dfsg1-7 Failed [UNKNOWN] #1091049: vala-panel-appmenu: FTBFS: Package 'libxfce4ui-2', required by 'libxfce4panel-2.0', not found  RECHECK
vitables 3.0.2-4 Failed [SEGMENTATION_FAULT] #1090311  RECHECK RECHECK_GUESS
vmm 0.7.0-0.2 Failed [UNKNOWN] #1090310  RECHECK
vte 1:0.28.2-6.1 Failed [GCC_ERROR] #1075629  RECHECK
wabt 1.0.34+dsfg2+~cs1.0.32-1 Failed [UNKNOWN] #1084389  RECHECK
wasi-libc 0.0~git20240708.3f43ea9-2 Failed [UNKNOWN] TODO
wayvnc 0.8.0-1 Failed [UNKNOWN] #1089194  RECHECK
win32-loader 0.10.6 Failed [BUILDDEPS] #1089276  RECHECK
wine 9.0~repack-6 Failed [GCC_ERROR] #1073346  RECHECK RECHECK_VERSION RECHECK_GUESS
workrave 1.10.52-5 Failed [CONFIGURE_ERROR] #1091108
x2goclient 4.1.2.3-3 Failed [UNKNOWN] #1089277  RECHECK
x2gokdriveclient 0.0.0.1-1 Failed [UNKNOWN] #1089278
xarray-datatree 0.0.14-2 Failed [UNKNOWN] #1090313  RECHECK
xawtv 3.107-2.1 Failed [GCC_ERROR] #1088044  RECHECK
xen 4.17.3+36-g54dacb5c02-1 Failed [GCC_ERROR] #1073913  RECHECK
xenium 0.0.2+ds-8 Failed [GCC_ERROR] TODO
xkeycaps 2.47-8 Failed [GCC_ERROR] #1088728  RECHECK
xmbmon 2.05-10 Failed [GCC_ERROR] TODO
yoyo 8.2.0+dfsg1-2 Failed [UNKNOWN] #1090178  RECHECK
zurl 1.12.0-1.1 Failed [UNKNOWN] #1005629
zziplib 0.13.72+dfsg.1-1.3 Failed [GCC_ERROR] #1075709  RECHECK
