acl2 3.1-1 Failed 523.646626s UNKNOWN #494328: acl2: FTBFS in lenny: Initialization FAILED: acl2-status.txt should contain :INITIALIZED.
afnix 1.5.2-2 Failed 171.325408s GCC_ERROR #494334: afnix: FTBFS in lenny: Relatif.cpp:45: error: assuming signed overflow does not occur when assuming that (X + c) < X is always false
apt-dpkg-ref 5.2 Failed 29.704401s APT_GET_FAILED TODO NEWFAIL
asterisk-oh323 0.7.3+cvs20070811-3 Failed 132.891345s HEADER_NO_SUCH_FILE/NO_SUCH_FILE/GCC_ERROR #494217: asterisk-oh323: FTBFS: asteriskaudio.cxx:35:19: error: oh323.h: No such file or directory RECHECK
atlas 3.6.0-21.5 Failed 1310.546814s NO_SUCH_FILE/GCC_ERROR #486974: atlas: FTBFS: FlagCheck.c:1: error: bad value (ultrasparc) for -mtune= switch  RECHECK
avr-libc 1:1.6.2.cvs20080610-1 Failed 426.803331s NO_SUCH_FILE #493454 RECHECK RECHECK_TIME(426/855)
azureus 3.0.3.4-3 Failed 31.665374s APT_GET_FAILED TODO NEWFAIL
blender 2.46+dfsg-3 Failed 15.163417s APT_GET_FAILED TODO NEWFAIL
bzr 1.5-1 Failed 153.795183s UNKNOWN #494246: bzr: FTBFS: doc/en/user-reference/bzr_man.txt:2344: (WARNING/2) Option list ends without a blank line; unexpected unindent. RECHECK
came 1.9-3.1 Failed 107.570987s BDEPUNSAT sbuild-conflicts  RECHECK RECHECK_TIME(107/273)
cecil-flowanalysis 0.1~svn.68457-5 Failed 49.707217s APT_GET_FAILED TODO NEWFAIL
checkpolicy 2.0.12-1 Failed 41.038961s GCC_ERROR #494326: checkpolicy: FTBFS in lenny: policy_parse.y:2736: error: too few arguments to function 'role_set_expand'
clp 1.7.4-1 Failed 206.836628s GCC_ERROR #494330: clp: FTBFS in lenny: ClpFactorization.hpp:264: error: 'increasingRows' was not declared in this scope
debian-edu-doc 1.2~20080715 Failed 932.285566s NO_SUCH_FILE #458879: debian-edu-doc: FTBFS: Invalid table entry row=1/column=1 (@colstart)  RECHECK RECHECK_TIME(932/6531)
debian-faq 4.0.2 Failed 629.943321s UNKNOWN #479915
dom4j 1.6.1+dfsg-3 Failed 21.548971s APT_GET_FAILED TODO NEWFAIL
dovecot 1:1.0.15-2 Failed 50.784169s BDEPUNSAT sbuild-conflicts  RECHECK
dvdauthor 0.6.14-2 Failed 27.983958s APT_GET_FAILED #494229: dvdauthor: FTBFS: Nonexistent build-dependency: libdvdread3-dev RECHECK RECHECK_TIME(27/12)
eclipse 3.2.2-5 Failed 39.281372s APT_GET_FAILED #480794  RECHECK RECHECK_VERSION
ed 0.7-1 Failed 59.810632s UNKNOWN #494329: ed: FTBFS in lenny: *** Output e1.o of script e1.ed is incorrect ***
emile 0.11-2 Failed 20.81263s APT_GET_FAILED not for us  RECHECK RECHECK_TIME(20/44)
etherboot 5.4.3+dfsg-0.1 Failed 118.153793s NO_SUCH_FILE #474918
fireflier 1.1.7-4 Failed 215.030202s UNKNOWN #486981: fireflier: FTBFS: netfilter.h:44: error: field 'in' has incomplete type  RECHECK
freetalk 0.69-2 Failed 29.525814s APT_GET_FAILED TODO NEWFAIL
fslview 3.0+4.0.2-3 Failed 211.8913s UNKNOWN #494340: fslview: FTBFS in lenny: CMake errors
gcc-avr 1:4.3.0-4 Failed 104.803148s BDEPUNSAT TODO NEWFAIL
gcj-4.2 4.2.3-4 Failed 33.869661s APT_GET_FAILED TODO NEWFAIL
gem 1:0.90.0.1-2 Failed 43.157184s APT_GET_FAILED #484190: gem: FTBFS: Nonexistent build-dependency: xlibs-static-dev  RECHECK
gerris 0.6.0-3.1 Failed 64.522246s UNKNOWN #494243: gerris: FTBFS: checking for GTS - version >= 0.7.3... no RECHECK
glide 2002.04.10-16 Failed 367.69694s DPKGSHLIB #456875: glide: FTBFS: dpkg-shlibdeps: failure: couldn't find library libglide.so.2 needed by debian/glide2-bin/usr/lib/glide2/bin/test05 (its RPATH is '').  RECHECK
gluezilla 1.9-1 Failed 22.183807s APT_GET_FAILED #480801  RECHECK
gnugk 2:2.2.6-7 Failed 112.885543s BDEPUNSAT TODO NEWFAIL
gnuift 0.1.14-7 Failed 874.515173s LD_ERROR/NO_SUCH_FILE/GCC_ERROR #494233: gnuift: FTBFS: perl-compile-test-program.cc:71: error: 'my_perl' was not declared in this scope RECHECK RECHECK_TIME(874/509)
gtk-doc 1.10-1 Failed 143.434458s BDEPUNSAT #473951: gtk-doc: FTBFS: Unsatisfiable build-dependency: openjade(still installed)  RECHECK
gtkpbbuttons 0.6.9-2 Failed 135.904734s APT_GET_FAILED TODO NEWFAIL
gtkrsync 1.0.2 Failed 42.90998s APT_GET_FAILED TODO NEWFAIL
guile-1.8 1.8.4+1-2 Failed 276.825482s GCC_ERROR #494337: guile-1.8: FTBFS in lenny: <stdout>:1536: error: 'input' defined but not used
hildon-icons 2.1.debian-1 Failed 76.483132s UNKNOWN #494226: hildon-icons: FTBFS: Something wrong ? Directory x/hildon missing RECHECK
hpodder 0.99.2 Failed 166.219768s NO_SUCH_FILE #420977
icedove 2.0.0.14-1 Failed 675.156589s LD_ERROR/NO_SUCH_FILE #489093
iceowl 0.7-2 Failed 1188.380284s LD_ERROR/NO_SUCH_FILE #489092: iceowl: FTBFS: nsFontMetricsPS.cpp:728: undefined reference to `FcPatternGetString'  RECHECK RECHECK_VERSION
insight 6.6-1 Failed 569.181066s UNKNOWN #494339: insight: FTBFS in lenny: configure: error: /bin/sh '../.././itcl/itk/configure' failed for itk
java-access-bridge 1.23.0-2 Failed 58.712269s APT_GET_FAILED TODO NEWFAIL
kaya 0.2.0-6 Failed 271.593063s GCC_ERROR #494325: kaya: FTBFS in lenny: Heap.cc:177: error: 'strchr' was not declared in this scope
kdeartwork 4:3.5.9-2 Failed 1088.154748s NO_SUCH_FILE #494220: kdeartwork: FTBFS: cp: cannot stat `./debian/tmp/usr/share/applnk/System/ScreenSavers/flurry.desktop': No such file or directory RECHECK
kdebindings 4:3.5.9-1 Failed 1903.006211s NO_SUCH_FILE/GCC_ERROR #484191
kdegames 4:3.5.9-2 Failed 1828.893629s NO_SUCH_FILE #483349: kdegames: FTBFS: cp: cannot stat `/build/user-kdegames_3.5.9-1-amd64-olYSUt/kdegames-3.5.9-1/debian/t mp////usr/share/doc/kde/HTML/en/kdegames-apidocs': No such file or directory  RECHECK RECHECK_TIME(1828/1452)
kpogre 1.6.2-1 Failed 1983.2567s LD_ERROR #493438
kxneur 0.8.0+svn20080310-2 Failed 270.800772s GCC_ERROR #494331: kxneur: FTBFS in lenny: kxneur.cpp:173: error: 'struct _xneur_config' has no member named 'get_library_api_version'
latex-cjk-chinese-arphic 1.17 Failed 29.551902s APT_GET_FAILED TODO NEWFAIL
libavg 0.7.0-8 Failed 44.938402s APT_GET_FAILED TODO NEWFAIL
libcobra-java 0.98.2-1 Failed 38.609088s APT_GET_FAILED TODO NEWFAIL
libgearman-client-async-perl 0.94-2 Failed 100.107253s NO_SUCH_FILE #475197: libgearman-client-async-perl: FTBFS: Failed 1/12 test scripts, 91.67% okay. 3/35 subtests failed, 91.43% okay.  RECHECK RECHECK_VERSION
libhamcrest-java 1.1-1 Failed 47.410464s APT_GET_FAILED TODO NEWFAIL
libpam-blue 0.9.0-1 Failed 38.631033s APT_GET_FAILED TODO NEWFAIL
libperldoc-search-perl 0.01-1 Failed 107.192725s NO_SUCH_FILE #493435
libprojectm 1.01-6 Failed 85.854811s HEADER_NO_SUCH_FILE/NO_SUCH_FILE/GCC_ERROR #486963
libsendmail-milter-perl 0.18-7 Failed 1.761801s NO_SUCH_FILE TODO NEWFAIL
libthread-pool-simple-perl 0.23-1 Unknown 0s  libthread-pool-simple-perl: FTBFS: t/3 Test returned status 0 (wstat 15, 0xf)  RECHECK RECHECK_VERSION RECHECK_GUESS
lprng-doc 3.8.A~rc2-2.1 Failed 400.502558s UNKNOWN #493425
lprof 1.11.4.dfsg+1.11.4.1-4 Failed 251.068938s GCC_ERROR #494232: lprof: FTBFS: src/liblprof/lcmsprf.h:107: error: 'BOOL' does not name a type RECHECK RECHECK_TIME(251/131)
m68k-vme-tftplilo 1.1.3-1 Failed 38.824678s APT_GET_FAILED not for us.  RECHECK
maxima 5.13.0-3.1 Failed 458.153615s NO_SUCH_FILE #474909
monodevelop 1.0+dfsg-2 Failed 28.940498s APT_GET_FAILED #480797  RECHECK
monodevelop-boo 1.0-2 Failed 49.187705s APT_GET_FAILED #480797  RECHECK
monodevelop-database 1.0+dfsg-2 Failed 29.834297s APT_GET_FAILED #480797  RECHECK
monodevelop-java 1.0-1 Failed 47.996073s APT_GET_FAILED #480797  RECHECK
monotone 0.38-1 Failed 64.835569s GCC_ERROR #494333: monotone: FTBFS in lenny: ./boost/circular_buffer_base.hpp:502: error: declaration of 'typedef class boost::reverse_iterator<boost::cb_details::cb_iterator<boost::circul ar_buffer<T, Alloc>, boost::cb_details::cb_nonconst_traits<Alloc> > > boost::circular_buffer<T, Alloc>::reverse_iterator'
mono-tools 1.9-1 Failed 52.828797s APT_GET_FAILED #487037: mono-tools: FTBFS: Nonexistent build-dependency: libnunit2.2.6-cil  RECHECK
mozilla-traybiff 1.2.3-4 Failed 34.361387s APT_GET_FAILED TODO NEWFAIL
mrd6 0.9.5-rev3.dfsg-0.2 Failed 148.012019s GCC_ERROR #455280
mrwtoppm 0.1.1-2 Failed 215.628668s GCC_ERROR #494213: mrwtoppm: FTBFS: MRI_GenMRIStFConverter.c:64: error: expected '=', ',', ';', 'asm' or '__attribute__' before 'cmsAdaptMatrixToD50' RECHECK
mysql-dfsg-5.0 5.0.51a-6 Failed 6230.817149s UNKNOWN #494238: mysql-dfsg-5.0: FTBFS: failed test: rpl_ndb_innodb_trans RECHECK RECHECK_VERSION RECHECK_TIME(6230/5094)
mysql-gui-tools 5.0r12-1 Failed 251.04329s BDEPUNSAT sbuild-conflicts  RECHECK RECHECK_TIME(251/141)
naist-jdic 0.4.3-2 Failed 82.164503s BDEPUNSAT TODO NEWFAIL
ogle 0.9.2-5.1 Failed 17.735043s APT_GET_FAILED TODO NEWFAIL
ogmtools 1:1.5-2.1 Failed 36.52817s APT_GET_FAILED #494239: ogmtools: FTBFS: Nonexistent build-dependency: libdvdread3-dev RECHECK
openbios-sparc 1.0~alpha2+20080106-2 Failed 94.361621s UNKNOWN Must be built on SPARC  RECHECK
openhackware 0.4.1-4 Failed 21.977212s UNKNOWN only for PPC
openldap 2.4.10-3 Failed 1121.044612s UNKNOWN #494219: openldap: FTBFS: test failed - master and R2 slave databases differ RECHECK RECHECK_TIME(1121/906)
palo 1.14 Failed 30.146858s UNKNOWN #464262: palo: FTBFS: /usr/include/linux/elf.h:396: error: expected declaration specifiers or '...' before 'loff_t'  RECHECK RECHECK_VERSION RECHECK_GUESS RECHECK_TIME(30/78)
partconf 1.26 Failed 37.351588s APT_GET_FAILED TODO NEWFAIL
partman-base 120 Failed 24.517324s APT_GET_FAILED TODO NEWFAIL
pdftk 1.41-3 Failed 304.916712s NO_SUCH_FILE #494327: pdftk: FTBFS in lenny: gcj-4.2: libgcj.spec: No such file or directory
perlipq 1.25-1.1 Failed 69.753822s HEADER_NO_SUCH_FILE/NO_SUCH_FILE/GCC_ERROR #494224: perlipq: FTBFS: IPQueue.xs:11:20: error: libipq.h: No such file or directory RECHECK
pperl 0.25-5 Failed 105.226599s NO_SUCH_FILE #483350: pperl: FTBFS: pperl: perl script failed to start: No such file or directory  RECHECK RECHECK_TIME(105/154)
proll 18-4 Failed 57.438953s APT_GET_FAILED TODO NEWFAIL
python2.5 2.5.2-6 Failed 30.897316s APT_GET_FAILED TODO NEWFAIL
python-axiom 0.5.27-1 Failed 156.23106s PYTHON_TRACEBACK #470337  RECHECK
refcard 0.3.2-1 Failed 740.986201s UNKNOWN #494227: refcard: FTBFS: /bin/sh: line 17: 29301 Segmentation fault xmlroff --backend cairo -o refcard-en-a4.s.pdf refcard-en-a4.fo RECHECK RECHECK_VERSION
refpolicy 2:0.0.20080702-4 Failed 127.546669s UNKNOWN #494234: refpolicy: FTBFS: libsepol.expand_module: Error while indexing out symbols RECHECK
rubyluabridge 0.6.0-2 Failed 29.744531s APT_GET_FAILED TODO NEWFAIL
serpentine 0.9-5 Failed 14.644746s APT_GET_FAILED TODO NEWFAIL
shaperd 0.2.1-5.2 Failed 87.746597s HEADER_NO_SUCH_FILE/NO_SUCH_FILE/GCC_ERROR #494216: shaperd: FTBFS: packet.hpp:10:21: error: libipq.h: No such file or directory RECHECK RECHECK_TIME(87/28)
shogun 0.6.3-1 Failed 1152.175237s UNKNOWN #494335: shogun: FTBFS in lenny: swig error : Unrecognized option -octave
stumpwm 1:20080721-2 Failed 48.242999s APT_GET_FAILED TODO NEWFAIL
sugar-hulahop 0.4.1-1 Failed 190.704948s LD_ERROR/NO_SUCH_FILE #494225: sugar-hulahop: FTBFS: ld: cannot find -lpyxpcom RECHECK
swig1.3 1.3.33-3 Failed 142.324561s BDEPUNSAT TODO NEWFAIL
t38modem 0.8.4-2 Failed 188.553534s BDEPUNSAT sbuild-conflicts  RECHECK
transfig 1:3.2.5-rel-3.1 Failed 100.302569s BDEPUNSAT sbuild-conflicts  RECHECK RECHECK_TIME(100/141)
ttf-fifthhorseman-dkg-handwriting 0.13-1 Failed 136.395965s UNKNOWN #487016: ttf-fifthhorseman-dkg-handwriting: FTBFS: make: *** [dkg.ttf] Segmentation fault  RECHECK
tulip 3.0.0~B6-2 Failed 474.780976s HEADER_NO_SUCH_FILE/NO_SUCH_FILE/GCC_ERROR #476008: tulip: FTBFS: ../../../../software/tulip/src/viewGl.cpp:190: error: 'icon' is not a member of 'Ui_TulipData'  RECHECK RECHECK_VERSION RECHECK_TIME(474/682)
tzdata 2008e-2 Failed 47.328657s APT_GET_FAILED TODO NEWFAIL
vdr-plugin-bitstreamout 0.85-24 Failed 111.307622s NO_SUCH_FILE #494338: vdr-plugin-bitstreamout: FTBFS in lenny: sh: /usr/share/vdr-dev/patchlevel.sh: No such file or directory
vdr-plugin-xineliboutput 1.0.1-4 Failed 216.054888s NO_SUCH_FILE #494336: vdr-plugin-xineliboutput: FTBFS in lenny: sh: /usr/share/vdr-dev/patchlevel.sh: No such file or directory
vpim 0.619.1-2 Failed 19.579196s UNKNOWN #493403
wammu 0.28-1 Failed 142.445153s UNKNOWN #493395
washngo 2.12-1 Failed 89.730949s BDEPUNSAT TODO NEWFAIL
win32-loader 0.6.7 Failed 42.38933s APT_GET_FAILED TODO NEWFAIL
wmii2-doc 1-6 Failed 140.83239s NO_SUCH_FILE #493396
wmii-doc 1:1-8 Failed 100.223364s NO_SUCH_FILE #493399
writer2latex 0.5-8 Unknown 0s  TODO NEWFAIL
wxwidgets2.6 2.6.3.2.2-2 Failed 4065.004817s HEADER_NO_SUCH_FILE/NO_SUCH_FILE #483341: wxwidgets2.6: FTBFS: mv: cannot stat `debian/python-wxgtk2.6-dbg/usr/lib/python2.4/site-packages/wx-2.6-g tk2-unicode-dbg': No such file or directory  RECHECK RECHECK_TIME(4065/2548)
wxwidgets2.8 2.8.7.1-1 Failed 5004.983266s HEADER_NO_SUCH_FILE/NO_SUCH_FILE/GCC_ERROR #489077: wxwidgets2.8: FTBFS: ../../../../contrib/src/mmedia/../../include/wx/mmedia/vidbase.h:19: 23: error: calling fdopen: Bad file descriptor  RECHECK
xemacs21-packages 2007.04.27-1 Failed 154.26989s APT_GET_FAILED TODO NEWFAIL
xindy 2.3-2 Failed 23.624213s APT_GET_FAILED TODO NEWFAIL
xsp 1.9.1-2 Failed 22.150122s APT_GET_FAILED TODO NEWFAIL
