argouml 0.19.6-2.1 Failed 401.938071s NO_SUCH_FILE
aspectj 1.1.1-2 Failed 73.722315s APT_GET_FAILED
babel 0.10.2-2.1 Failed 644.361594s UNKNOWN
batik 1.6-3 Failed 64.812641s APT_GET_FAILED
classworlds 1.0.1-1.1 Failed 57.834066s APT_GET_FAILED
fop 1:0.20.5-8 Failed 69.405391s APT_GET_FAILED
forrest 0.5.1-4 Failed 22.683066s APT_GET_FAILED
freemind 0.7.1-6 Failed 61.352194s APT_GET_FAILED
groovy 0.1.0beta10-3 Failed 78.392188s APT_GET_FAILED
jbidwatcher 1.0.dfsg-2 Failed 32.746358s APT_GET_FAILED
jetty 5.1.10-2 Failed 24.735197s APT_GET_FAILED
jswat 1.7-2 Failed 295.02523s UNKNOWN
jswat2 2.37-1 Failed 77.469816s APT_GET_FAILED
libdbd-informix-perl 2003.04-3 Failed 82.215294s UNKNOWN
libdbus-java 1.12-1 Failed 32.080411s APT_GET_FAILED
libjazzy-java 0.5.1-1 Failed 70.185397s APT_GET_FAILED
libjcalendar-java 1.2.2-6.1 Failed 77.253174s APT_GET_FAILED
libxerces2-java-doc 2.6.1-2 Failed 83.513769s APT_GET_FAILED
mockobjects 0.09-1.1 Failed 89.317139s APT_GET_FAILED
ogre-contrib 1.0.6-1.1 Failed 265.834969s PYTHON_TRACEBACK/NO_SUCH_FILE
pja 2.5-4 Failed 75.569196s APT_GET_FAILED
python-lame 0.0.20040331-1 Failed 23.9896s APT_GET_FAILED
quake2 1:0.3-1.1 Failed 26.132598s APT_GET_FAILED
statcvs 20030713-4 Failed 83.602358s APT_GET_FAILED
tuxguitar 0.9.1-1 Failed 35.538117s APT_GET_FAILED
xserver-xorg-video-ivtvdev 0.10.6-1 Failed 98.025413s GCC_ERROR
