4g8 1.0-1 Failed 60.175101s HEADER_NO_SUCH_FILE/NO_SUCH_FILE/GCC_ERROR TODO
9base 1:2-7 Failed 51.510508s NO_SUCH_FILE TODO
advi 1.6.0-13 Failed 27.949965s APT_GET_FAILED/NO_SUCH_FILE TODO
af 2.4.3-3.1 Failed 93.525814s NO_SUCH_FILE TODO
airport-utils 1-6 Failed 11.778212s APT_GET_FAILED/NO_SUCH_FILE TODO
anon-proxy 00.02.39-8.3 Failed 130.019755s NO_SUCH_FILE/GCC_ERROR TODO
ant 1.7.0-3 Failed 149.45352s NO_SUCH_FILE TODO
apertium 1.0.3-3 Failed 6.286264s APT_GET_FAILED/NO_SUCH_FILE TODO
apertium-es-pt 0.9-1 Failed 33.112384s APT_GET_FAILED/NO_SUCH_FILE TODO
apertium-fr-ca 0.7-1 Failed 29.537145s APT_GET_FAILED/NO_SUCH_FILE TODO
approx 2.9.0 Failed 30.462959s APT_GET_FAILED/NO_SUCH_FILE TODO
apt-howto 2.0.2-2 Failed 331.220886s NO_SUCH_FILE TODO
aqsis 1.2.0-2 Failed 419.195612s NO_SUCH_FILE TODO
ara 1.0.18 Failed 289.460016s NO_SUCH_FILE TODO
asio 0.3.8~rc3-1 Failed 227.260255s NO_SUCH_FILE TODO
asm 1.5.3-4 Failed 32.288495s APT_GET_FAILED/NO_SUCH_FILE TODO
asterisk-chan-misdn 0.1.1-1 Failed 43.891835s TOO_MANY_ARGS/HEADER_NO_SUCH_FILE/NO_SUCH_FILE/GCC_ERROR TODO
athcool 0.3.11-1 Failed 77.209127s LD_ERROR/NO_SUCH_FILE TODO
avalon-framework 4.2.0-3 Failed 39.088381s APT_GET_FAILED/NO_SUCH_FILE TODO
avr-libc 1:1.4.6-1 Failed 241.067308s NO_SUCH_FILE TODO
bacula-doc 2.2.0-1 Failed 210.999089s NO_SUCH_FILE TODO
bayonne 2.3.2-1 Failed 19.534971s NO_SUCH_FILE TODO
beast 0.6.6-9 Failed 125.730788s NO_SUCH_FILE TODO
belpic 2.5.9-9 Failed 7.637033s APT_GET_FAILED/NO_SUCH_FILE TODO
bibletime 1.6.4.dfsg-1 Failed 63.870035s NO_SUCH_FILE TODO
biew 5.6.2-2 Failed 110.911547s NO_SUCH_FILE TODO
bigloo 2.8c-6 Failed 251.33368s NO_SUCH_FILE TODO
bmp-alarm 0.6.0-1 Failed 22.08717s APT_GET_FAILED/NO_SUCH_FILE TODO
bogl 0.1.18-1.5 Failed 39.594438s BUILDDEP_UNSAT/NO_SUCH_FILE TODO
bootchart 0.9-4 Failed 30.487465s APT_GET_FAILED/NO_SUCH_FILE TODO
botan 1.6.3-1 Failed 58.290486s NO_SUCH_FILE/GCC_ERROR TODO
brutalchess 0.5+dfsg-1 Failed 109.980401s NO_SUCH_FILE/GCC_ERROR TODO
buoy 1.6-2 Failed 46.651365s APT_GET_FAILED/NO_SUCH_FILE TODO
cairo-ocaml 20070306-3 Failed 67.968992s NO_SUCH_FILE/GCC_ERROR TODO
cameleon 1.9.13-2 Failed 43.107733s NO_SUCH_FILE TODO
camomile 0.7.1-1 Failed 22.908164s NO_SUCH_FILE TODO
capisuite 0.4.5-6 Failed 22.992189s APT_GET_FAILED/NO_SUCH_FILE TODO
cappuccino 0.5.1-2 Failed 60.545338s APT_GET_FAILED/NO_SUCH_FILE TODO
cdbs 0.4.49 Failed 6.754055s APT_GET_FAILED/NO_SUCH_FILE TODO
cduce 0.4.1-1 Failed 6.795826s APT_GET_FAILED/NO_SUCH_FILE TODO
cegui-mk2 0.5.0-2 Failed 241.93688s NO_SUCH_FILE/GCC_ERROR TODO
charva 1.1.1-4 Failed 34.239001s APT_GET_FAILED/NO_SUCH_FILE TODO
checkstyle 4.1+dfsg-1 Failed 6.838454s APT_GET_FAILED/NO_SUCH_FILE TODO
cksfv 1.3.5-1 Failed 70.449933s NO_SUCH_FILE TODO
clamfs 0.9.1-2 Failed 23.559953s HEADER_NO_SUCH_FILE/NO_SUCH_FILE/GCC_ERROR TODO
classpath 2:0.95-2 Failed 8.813866s APT_GET_FAILED/NO_SUCH_FILE TODO
claws-mail-extra-plugins 2.10.0-3 Failed 9.128644s APT_GET_FAILED/NO_SUCH_FILE TODO
coco-java 20061206-1 Failed 42.807758s APT_GET_FAILED/NO_SUCH_FILE TODO
commons-configuration 1.4-2 Failed 13.414257s APT_GET_FAILED/NO_SUCH_FILE TODO
complearn-gui 0.9.7-1 Failed 128.339804s HEADER_NO_SUCH_FILE/NO_SUCH_FILE/GCC_ERROR TODO
complearn-mpi 0.9.6-1 Failed 252.296889s NO_SUCH_FILE TODO
concurrent-dfsg 1.3.4-2 Failed 42.194195s APT_GET_FAILED/NO_SUCH_FILE TODO
coq 8.1.pl1+dfsg-1 Failed 100.855568s NO_SUCH_FILE TODO
coq-float 1:8.1-1.0-1 Failed 30.054707s NO_SUCH_FILE TODO
cortado 0.2.2-2 Failed 24.32531s APT_GET_FAILED/NO_SUCH_FILE TODO
crypt++el 2.92-1 Failed 58.138542s NO_SUCH_FILE TODO
cvs2html 1.96-1 Failed 96.475895s BUILDDEP_UNSAT/NO_SUCH_FILE TODO
cynthiune.app 0.9.5-5 Failed 30.734241s NO_SUCH_FILE/GCC_ERROR TODO
cyrus-imapd-2.2 2.2.13-13 Failed 37.026567s NO_SUCH_FILE TODO
cyrus-sasl2-heimdal 2.1.22.dfsg1-14 Failed 216.953588s NO_SUCH_FILE TODO
dag2html 1.01-2 Failed 84.111603s NO_SUCH_FILE TODO
dak 1.0-8.4 Failed 6.363156s APT_GET_FAILED/NO_SUCH_FILE TODO
dcgui 0.80-5 Failed 64.647077s NO_SUCH_FILE TODO
dctc 0.85.9-4 Failed 60.964074s NO_SUCH_FILE TODO
debian-history 2.9 Failed 229.203529s APT_GET_FAILED/NO_SUCH_FILE TODO
debian-installer 20070308 Failed 255.440498s NO_SUCH_FILE TODO
debian-med 0.13 Failed 75.721252s NO_SUCH_FILE TODO
debian-reference 1.11 Failed 449.3714s APT_GET_FAILED/NO_SUCH_FILE TODO
debian-xcontrol 0.0.1 Failed 147.861709s NO_SUCH_FILE TODO
debmake 3.8.3 Failed 52.342478s NO_SUCH_FILE TODO
defrag 0.73pjm1-8 Failed 40.715656s NO_SUCH_FILE/GCC_ERROR TODO
diacanvas2 0.14.4-4 Failed 128.94562s PYTHON_TRACEBACK/NO_SUCH_FILE TODO
dict-jargon 4.4.4-6 Failed 118.013014s NO_SUCH_FILE TODO
drac 1.12-5 Failed 90.226913s LD_ERROR/NO_SUCH_FILE TODO
dresden-ocl 1.1.debian-1 Failed 15.671483s APT_GET_FAILED/NO_SUCH_FILE TODO
dsniff 2.4b1+debian-17 Failed 40.573403s LD_ERROR/NO_SUCH_FILE TODO
efibootmgr 0.5.3-2 Failed 200.764109s LD_ERROR/NO_SUCH_FILE TODO
emile 0.10-1 Failed 63.418581s APT_GET_FAILED/NO_SUCH_FILE TODO
empathy 0.8-1 Failed 17.732504s APT_GET_FAILED/NO_SUCH_FILE TODO
enigmail 2:0.95.0+1-3 Failed 221.54648s LD_ERROR/NO_SUCH_FILE TODO
epplets 0.8.cvs.2005032801-3.2 Failed 24.125799s APT_GET_FAILED/NO_SUCH_FILE TODO
eric 3.9.5-1 Failed 58.816304s PYTHON_TRACEBACK/NO_SUCH_FILE TODO
exim4 4.67-8 Failed 35.926428s LD_ERROR/NO_SUCH_FILE TODO
flac 1.1.4-3 Failed 101.073441s NO_SUCH_FILE/GCC_ERROR TODO
floppybackup 1.3-3.1 Failed 47.35592s NO_SUCH_FILE TODO
freeglut 2.4.0-5.1 Failed 92.206864s NO_SUCH_FILE TODO
freehdl 0.0.4-1 Failed 472.816431s NO_SUCH_FILE TODO
freej 0.8.1-4 Failed 45.710589s HEADER_NO_SUCH_FILE/NO_SUCH_FILE/GCC_ERROR TODO
freetennis 0.4.8-3 Failed 49.501563s APT_GET_FAILED/NO_SUCH_FILE TODO
f-spot 0.3.5-1.2 Failed 128.720939s COMPIL_FAILED/NO_SUCH_FILE TODO
ftjam 2.5.2-1 Failed 71.976844s NO_SUCH_FILE TODO
gabber 0.8.8-9.1 Failed 236.67157s NO_SUCH_FILE TODO
gaim-galago 0.5.0-2 Failed 26.715773s APT_GET_FAILED/NO_SUCH_FILE TODO
gaim-xmms-remote 1.9~b3-1 Failed 9.395825s APT_GET_FAILED/NO_SUCH_FILE TODO
galago-gtk-sharp 0.5.0-1 Failed 47.535622s NO_SUCH_FILE TODO
gatos 0.0.5-16 Failed 84.838158s NO_SUCH_FILE/GCC_ERROR TODO
gauche-gtk 0.4.1-7 Failed 32.536479s NO_SUCH_FILE TODO
gcc-4.0 4.0.4-1 Failed 660.473632s NO_SUCH_FILE TODO
gcc-h8300-hms 1:3.4.6-2 Failed 307.150701s NO_SUCH_FILE TODO
gclcvs 2.7.0-78 Failed 440.297351s NO_SUCH_FILE TODO
gdome2-xslt 0.0.7-5 Failed 117.849986s NO_SUCH_FILE TODO
geneweb 5.00-5 Failed 236.986585s NO_SUCH_FILE TODO
geomview 1.8.1-16 Failed 146.345013s LD_ERROR/NO_SUCH_FILE TODO
gfpoken 0.30-1 Failed 329.895395s NO_SUCH_FILE TODO
ghc6 6.6.1-2 Failed 2241.771872s LD_ERROR/NO_SUCH_FILE TODO
ghc-cvs 20060905-1 Failed 2359.696521s LD_ERROR/NO_SUCH_FILE TODO
glcpu 1.0.1-6.2 Failed 19.017513s HEADER_NO_SUCH_FILE/NO_SUCH_FILE/GCC_ERROR TODO
gnat-gps 4.0.1-5 Failed 1527.611872s NO_SUCH_FILE TODO
gnome-main-menu 0.9.8.svn.20070430-1 Failed 861.788089s NO_SUCH_FILE TODO
gnome-subtitles 0.6-2 Failed 422.506263s NO_SUCH_FILE TODO
gnome-vfs2 1:2.18.1-3 Failed 29.324856s BUILDDEP_UNSAT/NO_SUCH_FILE TODO
gnomoradio 0.15.1-5 Failed 145.145956s NO_SUCH_FILE/GCC_ERROR TODO
gnue-appserver 0.4.3-1 Failed 48.478226s NO_SUCH_FILE TODO
gnue-designer 0.5.7-1 Failed 218.604094s NO_SUCH_FILE TODO
gnue-forms 0.5.13-1 Failed 126.600604s NO_SUCH_FILE TODO
gnue-navigator 0.0.9-1 Failed 17.400679s NO_SUCH_FILE TODO
gnue-reports 0.1.8-1 Failed 223.170029s NO_SUCH_FILE TODO
gnustep-back 0.12.0-1 Failed 26.798922s NO_SUCH_FILE TODO
gnustep-dl2 0.10.1-2 Failed 6.786247s APT_GET_FAILED/NO_SUCH_FILE TODO
gpib 3.2.06-3.2 Failed 6.628913s APT_GET_FAILED/NO_SUCH_FILE TODO
grass 6.2.2-1 Failed 76.12895s NO_SUCH_FILE TODO
grouch.app 0.0.20061002-1 Failed 21.484105s APT_GET_FAILED/NO_SUCH_FILE TODO
gst-editor 0.8.0-1 Failed 6.497166s APT_GET_FAILED/NO_SUCH_FILE TODO
gtk+2.0 2.10.13-1 Failed 426.487119s NO_SUCH_FILE/GCC_ERROR TODO
guifications 2.14-3 Failed 150.289976s NO_SUCH_FILE TODO
guile-gnome-platform 2.7.99-4 Failed 70.742672s NO_SUCH_FILE TODO
guile-lib 0.1.5-1 Failed 103.171288s NO_SUCH_FILE TODO
gutenprint 5.0.1-3 Failed 181.550807s NO_SUCH_FILE TODO
g-wrap 1.9.6-3.2 Failed 236.635885s NO_SUCH_FILE TODO
gxmms2 0.6.4-1 Failed 130.408427s NO_SUCH_FILE/GCC_ERROR TODO
happs 0.8.8+darcs20070523-2 Failed 29.747409s LD_ERROR/NO_SUCH_FILE TODO
haskell98-report 20030706-3 Failed 719.469382s NO_SUCH_FILE TODO
haskell98-tutorial 200006-2-1 Failed 436.938567s NO_SUCH_FILE TODO
haskell-arrows 0.2.1-2 Failed 53.200382s LD_ERROR/NO_SUCH_FILE TODO
haskell-binary 0.3-2 Failed 57.962662s LD_ERROR/NO_SUCH_FILE TODO
haskell-cgi 3001.1.1-2 Failed 61.914063s LD_ERROR/NO_SUCH_FILE TODO
haskell-edison 1.2.1-4 Failed 33.455462s LD_ERROR/NO_SUCH_FILE TODO
haskell-haskell-src 1.0-3 Failed 73.637838s NO_SUCH_FILE TODO
haskell-hlist 2.0+darcs20070316-2 Failed 89.562246s LD_ERROR/NO_SUCH_FILE TODO
haskell-xhtml 3000.0.2-2 Failed 79.052034s LD_ERROR/NO_SUCH_FILE TODO
haxe 1:1.15-1 Failed 257.668008s NO_SUCH_FILE TODO
hdbc-missingh 1.0.1.1 Failed 43.426982s APT_GET_FAILED/NO_SUCH_FILE TODO
helix-player 1.0.8-2 Failed 247.651654s NO_SUCH_FILE/GCC_ERROR TODO
hmake 3.12-1 Failed 17.650026s NO_SUCH_FILE TODO
hpsockd 0.14 Failed 124.208086s LD_ERROR/NO_SUCH_FILE TODO
hwtools 0.8-6.1 Failed 78.166007s HEADER_NO_SUCH_FILE/NO_SUCH_FILE/GCC_ERROR TODO
iceape 1.1.4-1 Failed 451.183078s LD_ERROR/NO_SUCH_FILE TODO
iceowl 0.5-2 Failed 262.401864s LD_ERROR/NO_SUCH_FILE TODO
iceweasel 2.0.0.6-1 Failed 2244.339894s LD_ERROR/NO_SUCH_FILE TODO
ikiwiki 2.6.1 Failed 413.765026s NO_SUCH_FILE TODO
ikvm 0.34.0.2-1 Failed 11.106481s APT_GET_FAILED/NO_SUCH_FILE TODO
ilf 1.5.0-1 Failed 6.543572s APT_GET_FAILED/NO_SUCH_FILE TODO
illuminator 0.10.0-4 Failed 340.522878s NO_SUCH_FILE TODO
inkscape 0.45.1-1 Failed 968.700669s NO_SUCH_FILE TODO
installation-guide 20070319 Failed 133.772955s APT_GET_FAILED/NO_SUCH_FILE TODO
ipsec-tools 1:0.6.7-1 Failed 51.869313s NO_SUCH_FILE TODO
ircii-pana 1:1.1-5 Failed 39.662245s LD_ERROR/NO_SUCH_FILE TODO
ivtools 1.1.3-5.3 Failed 90.997538s NO_SUCH_FILE/GCC_ERROR TODO
jama 1.0.2-2 Failed 60.318308s APT_GET_FAILED/NO_SUCH_FILE TODO
japitools 0.9.5+cvs20060115-1 Failed 69.590209s APT_GET_FAILED/NO_SUCH_FILE TODO
jargs 1.0.0-1 Failed 43.758598s APT_GET_FAILED/NO_SUCH_FILE TODO
java-snmp 1.4-5 Failed 25.345375s APT_GET_FAILED/NO_SUCH_FILE TODO
javax-servletapi2.3 4.0-8 Failed 59.905752s APT_GET_FAILED/NO_SUCH_FILE TODO
jaxme 0.5.2+dfsg-1 Failed 135.467948s NO_SUCH_FILE TODO
jcifs 1.2.7-1 Failed 42.821369s APT_GET_FAILED/NO_SUCH_FILE TODO
jericho-html 2.3-1 Failed 6.61774s APT_GET_FAILED/NO_SUCH_FILE TODO
jexcelapi 2.6.3-1 Failed 43.242771s APT_GET_FAILED/NO_SUCH_FILE TODO
jflex 1.4.1-3 Failed 34.845767s APT_GET_FAILED/NO_SUCH_FILE TODO
jlgui 3.0-3 Failed 42.949952s APT_GET_FAILED/NO_SUCH_FILE TODO
jline 0.9.5-3 Failed 47.89827s APT_GET_FAILED/NO_SUCH_FILE TODO
jmagick 6.2.4-1-1 Failed 83.739182s APT_GET_FAILED/NO_SUCH_FILE TODO
jmock 1.0.1-2 Failed 28.834219s APT_GET_FAILED/NO_SUCH_FILE TODO
jmp 0.51-1 Failed 9.415335s APT_GET_FAILED/NO_SUCH_FILE TODO
john 1.6-40.1 Failed 54.605103s NO_SUCH_FILE/GCC_ERROR TODO
jruby1.0 1.0.0-2 Failed 77.371974s NO_SUCH_FILE TODO
jsch 0.1.34-1 Failed 73.892856s NO_SUCH_FILE TODO
jspwiki 2.2.33.ds1-2 Failed 116.168869s NO_SUCH_FILE TODO
jts 1.7-1 Failed 7.256422s APT_GET_FAILED/NO_SUCH_FILE TODO
jzlib 1.0.5-1.1 Failed 7.702131s APT_GET_FAILED/NO_SUCH_FILE TODO
kaffe 2:1.1.7-4 Failed 9.49496s APT_GET_FAILED/NO_SUCH_FILE TODO
kdc2tiff 0.35-5 Failed 51.745699s NO_SUCH_FILE TODO
kdeaddons 4:3.5.7-2 Failed 470.476915s NO_SUCH_FILE TODO
kdeedu 4:3.5.7-1 Failed 12.307098s APT_GET_FAILED/NO_SUCH_FILE TODO
kimwitu-doc 10a+1-2 Failed 30.846189s NO_SUCH_FILE TODO
kolab-cyrus-imapd 2.2.13-3 Failed 127.532813s NO_SUCH_FILE TODO
ktechlab 0.3-7 Failed 486.305515s NO_SUCH_FILE TODO
ktoon 0.8-1 Failed 592.61341s NO_SUCH_FILE/GCC_ERROR TODO
kunststoff 2.0.2-2 Failed 6.727249s APT_GET_FAILED/NO_SUCH_FILE TODO
kxstitch 0.7-2 Failed 153.490716s NO_SUCH_FILE/GCC_ERROR TODO
lablgtksourceview 0.2.1-2 Failed 263.674183s NO_SUCH_FILE TODO
lcd4linux 0.10.1~rc2-1 Failed 79.580283s LD_ERROR/NO_SUCH_FILE TODO
ldaptor 0.0.43-0.5 Failed 6.924399s APT_GET_FAILED/NO_SUCH_FILE TODO
libajaxtags-java 1.2~beta3-1 Failed 22.967701s APT_GET_FAILED/NO_SUCH_FILE TODO
libaopalliance-java 20070526-1 Failed 28.299992s APT_GET_FAILED/NO_SUCH_FILE TODO
libapache2-mod-xmlrpc2 2.2.1-2 Failed 293.067394s NO_SUCH_FILE TODO
libapache-csacek 2.1.9-4 Failed 61.331402s APT_GET_FAILED/NO_SUCH_FILE TODO
libapache-mod-auth-curdir 1.3.31-3-2 Failed 19.336156s APT_GET_FAILED/NO_SUCH_FILE TODO
libapache-mod-auth-plain 1.3.31-3-2 Failed 54.6953s APT_GET_FAILED/NO_SUCH_FILE TODO
libapache-mod-auth-useragent 1.0-9 Failed 66.332156s APT_GET_FAILED/NO_SUCH_FILE TODO
libapache-mod-cgi-debug 0.7-11.1 Failed 45.423344s APT_GET_FAILED/NO_SUCH_FILE TODO
libapache-mod-choke 0.06-2.1 Failed 22.425343s APT_GET_FAILED/NO_SUCH_FILE TODO
libapache-mod-filter 1.4-10.1 Failed 80.226561s APT_GET_FAILED/NO_SUCH_FILE TODO
libapache-mod-geoip 1.2.9-1 Failed 21.143628s APT_GET_FAILED/NO_SUCH_FILE TODO
libapache-mod-index-rss 0.10-11.1 Failed 33.38197s APT_GET_FAILED/NO_SUCH_FILE TODO
libapache-mod-iptos 1.1-1 Failed 33.99695s APT_GET_FAILED/NO_SUCH_FILE TODO
libapache-mod-layout 3.2.1-2 Failed 51.799344s APT_GET_FAILED/NO_SUCH_FILE TODO
libapache-mod-ldap 1.8-2.1 Failed 29.333407s APT_GET_FAILED/NO_SUCH_FILE TODO
libapache-mod-limitipconn 0.04-3 Failed 67.860012s APT_GET_FAILED/NO_SUCH_FILE TODO
libapache-mod-lisp 2.43-2 Failed 49.848551s APT_GET_FAILED/NO_SUCH_FILE TODO
libapache-mod-mp3 0.39-5.1 Failed 44.607115s APT_GET_FAILED/NO_SUCH_FILE TODO
libapache-mod-random 1.4-10.1 Failed 58.226371s APT_GET_FAILED/NO_SUCH_FILE TODO
libapache-mod-relocate 1.0-11.1 Failed 47.444707s APT_GET_FAILED/NO_SUCH_FILE TODO
libapache-mod-repository 0.3-11 Failed 43.431936s APT_GET_FAILED/NO_SUCH_FILE TODO
libapache-mod-rpaf 0.5-2.1 Failed 44.838887s APT_GET_FAILED/NO_SUCH_FILE TODO
libapache-mod-text2html 1.0-9.1 Failed 70.608251s APT_GET_FAILED/NO_SUCH_FILE TODO
libapache-mod-trigger 1.1-7.1 Failed 30.249734s APT_GET_FAILED/NO_SUCH_FILE TODO
libapache-mod-tsunami 3.0-1.1 Failed 61.179318s APT_GET_FAILED/NO_SUCH_FILE TODO
libapache-requestnotes-perl 0.06-7 Failed 23.855785s APT_GET_FAILED/NO_SUCH_FILE TODO
libapache-template-perl 0.09-4 Failed 55.587843s APT_GET_FAILED/NO_SUCH_FILE TODO
libaudio-flac-decoder-perl 0.2-2 Failed 56.306081s NO_SUCH_FILE/GCC_ERROR TODO
libauthen-passphrase-perl 0.005-1 Failed 21.477122s APT_GET_FAILED/NO_SUCH_FILE TODO
libbasicplayer-java 3.0-1 Failed 42.481072s APT_GET_FAILED/NO_SUCH_FILE TODO
libccaudio 1.2.0-1 Failed 60.0968s HEADER_NO_SUCH_FILE/NO_SUCH_FILE/GCC_ERROR TODO
libccrtp 1.5.1-2 Failed 50.946021s HEADER_NO_SUCH_FILE/NO_SUCH_FILE/GCC_ERROR TODO
libccscript 2.5.9-1 Failed 73.334502s HEADER_NO_SUCH_FILE/NO_SUCH_FILE/GCC_ERROR TODO
libccscript3 1.1.6-2 Failed 107.832264s HEADER_NO_SUCH_FILE/NO_SUCH_FILE/GCC_ERROR TODO
libclass-dbi-perl 3.0.16-1 Failed 311.092442s NO_SUCH_FILE TODO
libclass-trait-perl 0.22-2 Failed 72.753784s BUILDDEP_UNSAT/NO_SUCH_FILE TODO
libcommons-attributes-java 2.2-1 Failed 7.034859s APT_GET_FAILED/NO_SUCH_FILE TODO
libcommons-cli-java 1.0-8 Failed 6.647288s APT_GET_FAILED/NO_SUCH_FILE TODO
libcommons-codec-java 1.3-4 Failed 62.8957s APT_GET_FAILED/NO_SUCH_FILE TODO
libcommons-collections-java 2.1.1-6 Failed 20.951166s APT_GET_FAILED/NO_SUCH_FILE TODO
libcommons-el-java 1.0-3 Failed 23.411789s APT_GET_FAILED/NO_SUCH_FILE TODO
libcommons-jxpath-java 1.2-7 Failed 13.533559s APT_GET_FAILED/NO_SUCH_FILE TODO
libcommons-lang-java 2.3-1 Failed 30.580714s APT_GET_FAILED/NO_SUCH_FILE TODO
libcommons-launcher-java 1.1-3 Failed 55.312305s APT_GET_FAILED/NO_SUCH_FILE TODO
libcommons-modeler-java 2.0.1-2 Failed 132.219051s NO_SUCH_FILE TODO
libcvs-perl 0.07-1 Failed 156.969382s NO_SUCH_FILE TODO
libdb3-ruby 0.5.8-1 Failed 6.640597s APT_GET_FAILED/NO_SUCH_FILE TODO
libdb4.2-ruby 0.5.8-1 Failed 125.4484s HEADER_NO_SUCH_FILE/NO_SUCH_FILE/GCC_ERROR TODO
libdb4.3-ruby 0.5.8-1.1 Failed 115.217376s HEADER_NO_SUCH_FILE/NO_SUCH_FILE/GCC_ERROR TODO
libdbi-drivers 0.7.1-3.1 Failed 19.872812s APT_GET_FAILED/NO_SUCH_FILE TODO
libdbix-class-perl 0.08006-2 Failed 129.618526s NO_SUCH_FILE TODO
libdc1394 1.1.0-3 Failed 90.337072s NO_SUCH_FILE/GCC_ERROR TODO
libemail-mime-modifier-perl 1.441-1 Failed 56.759115s NO_SUCH_FILE TODO
libfreemarker-java 2.3.10-3 Failed 81.806641s APT_GET_FAILED/NO_SUCH_FILE TODO
libgcr410 2.4.0-7 Failed 114.743154s NO_SUCH_FILE/GCC_ERROR TODO
libgearman-client-async-perl 0.94-1 Failed 32.931745s NO_SUCH_FILE TODO
libgetenv-java 1.0-6 Failed 177.53366s NO_SUCH_FILE TODO
libgetopt-java 1.0.11-2 Failed 68.461979s APT_GET_FAILED/NO_SUCH_FILE TODO
libgnu-regexp-java 1.1.4-3.1 Failed 30.980969s APT_GET_FAILED/NO_SUCH_FILE TODO
libgstreamer-perl 0.09-1 Failed 138.845066s NO_SUCH_FILE TODO
libgtk2-perl 1:1.140-1 Failed 461.909873s NO_SUCH_FILE TODO
libhtml-embperl-perl 1.3.6-3 Failed 26.194402s APT_GET_FAILED/NO_SUCH_FILE TODO
libi18n-java 0.1.3a-2 Failed 25.969114s APT_GET_FAILED/NO_SUCH_FILE TODO
libibtk 0.0.14-11 Failed 82.227418s NO_SUCH_FILE/GCC_ERROR TODO
libimage-size-ruby 1:0.1.1-1 Failed 71.380311s NO_SUCH_FILE TODO
libinotify-ruby 0.0.1-1 Failed 282.705275s HEADER_NO_SUCH_FILE/NO_SUCH_FILE/GCC_ERROR TODO
libipod 0.1.2-2 Failed 51.546123s NO_SUCH_FILE/GCC_ERROR TODO
libitext-java 1.4.5-2 Failed 55.60607s APT_GET_FAILED/NO_SUCH_FILE TODO
libjakarta-poi-java 3.0.1-1 Failed 227.378962s NO_SUCH_FILE TODO
libjamon-java 2.5-1 Failed 8.089002s APT_GET_FAILED/NO_SUCH_FILE TODO
libjcalendar-java 1.3.2-0.1 Failed 6.892777s APT_GET_FAILED/NO_SUCH_FILE TODO
libjdo-api-java 2.0-1 Failed 17.180406s APT_GET_FAILED/NO_SUCH_FILE TODO
libjdom-java 0.99.b10-6 Failed 31.719266s APT_GET_FAILED/NO_SUCH_FILE TODO
libjflac-java 1.2-1 Failed 40.310985s APT_GET_FAILED/NO_SUCH_FILE TODO
libjgoodies-animation-java 1.2.0-2 Failed 40.081489s APT_GET_FAILED/NO_SUCH_FILE TODO
libjgoodies-binding-java 1.5.0-1 Failed 43.613093s APT_GET_FAILED/NO_SUCH_FILE TODO
libjlayer-java 1.0-1 Failed 8.255445s APT_GET_FAILED/NO_SUCH_FILE TODO
libjmac-java 1.74-1 Failed 17.848063s APT_GET_FAILED/NO_SUCH_FILE TODO
libjorbis-java 0.0.16-1 Failed 22.777848s APT_GET_FAILED/NO_SUCH_FILE TODO
libjspeex-java 0.9.7-1 Failed 51.69358s APT_GET_FAILED/NO_SUCH_FILE TODO
libkjdsp-java 1.2-1 Failed 54.515454s APT_GET_FAILED/NO_SUCH_FILE TODO
liblaf-plugin-java 0.2-2 Failed 41.581334s APT_GET_FAILED/NO_SUCH_FILE TODO
liblinux-aio-perl 1.9-1 Failed 120.781247s TOO_MANY_ARGS/NO_SUCH_FILE/GCC_ERROR TODO
libmail-box-perl 2.073-1 Failed 129.369884s BUILDDEP_UNSAT/NO_SUCH_FILE TODO
libmarc-lint-perl 1.42-2 Failed 63.340836s NO_SUCH_FILE TODO
libmatthew-java 0.4-1 Failed 238.632226s NO_SUCH_FILE/JAVA_TB TODO
libmesh 0.6.0~rc2.dfsg-2 Failed 17.370005s APT_GET_FAILED/NO_SUCH_FILE TODO
libmp3spi-java 1.9.4-1 Failed 35.04603s APT_GET_FAILED/NO_SUCH_FILE TODO
libnachocalendar-java 0.23-3 Failed 6.822987s APT_GET_FAILED/NO_SUCH_FILE TODO
libnss-db 2.2.3pre1-2 Failed 160.786661s NO_SUCH_FILE TODO
libnsuml-java 0.4.20-12.1 Failed 48.365566s APT_GET_FAILED/NO_SUCH_FILE TODO
libpam-ccreds 4-1 Failed 71.5503s LD_ERROR/NO_SUCH_FILE TODO
libpam-chroot 0.9-1 Failed 75.994461s NO_SUCH_FILE TODO
libperldoc-search-perl 0.01-1 Failed 50.354205s NO_SUCH_FILE TODO
libqdwizard-java 1.9-1 Failed 10.770066s APT_GET_FAILED/NO_SUCH_FILE TODO
librelaxng-datatype-java 1.0-2.1 Failed 57.376648s APT_GET_FAILED/NO_SUCH_FILE TODO
libsaxon-java 1:6.5.5-1 Failed 8.053608s APT_GET_FAILED/NO_SUCH_FILE TODO
libsdl1.2 1.2.11-9 Failed 196.690623s NO_SUCH_FILE/GCC_ERROR TODO
libtest-base-perl 0.47-1 Failed 165.178611s BUILDDEP_UNSAT/NO_SUCH_FILE TODO
libticables3 3.9.6-9 Failed 22.011402s APT_GET_FAILED/NO_SUCH_FILE TODO
libticalcs4 4.6.1-2 Failed 9.854238s APT_GET_FAILED/NO_SUCH_FILE TODO
libtritonus-java 20070428-3 Failed 39.866273s APT_GET_FAILED/NO_SUCH_FILE TODO
libvldocking-java 2.1.4-1 Failed 18.93467s APT_GET_FAILED/NO_SUCH_FILE TODO
libvorbisspi-java 1.0.2-1 Failed 33.977758s APT_GET_FAILED/NO_SUCH_FILE TODO
libwn6 6.0-17 Failed 90.743661s NO_SUCH_FILE TODO
libwww-mechanize-perl 1.30-2 Failed 173.92033s NO_SUCH_FILE TODO
libwww-perl 5.805-1 Failed 72.026064s NO_SUCH_FILE TODO
libxml-filter-sort-perl 1.01-1 Failed 145.661715s NO_SUCH_FILE TODO
libxpp2-java 2.1.10-4 Failed 8.577795s APT_GET_FAILED/NO_SUCH_FILE TODO
libxpp3-java 1.1.3.4.O-3 Failed 8.808856s APT_GET_FAILED/NO_SUCH_FILE TODO
libxt-java 0.20050823-2 Failed 22.512069s APT_GET_FAILED/NO_SUCH_FILE TODO
libzrtpcpp 0.9.0-6 Failed 78.520904s HEADER_NO_SUCH_FILE/NO_SUCH_FILE/GCC_ERROR TODO
linesrv 2.1.21-4.1 Failed 74.305629s NO_SUCH_FILE/GCC_ERROR TODO
linphone 1.7.1-3 Failed 204.492751s HEADER_NO_SUCH_FILE/NO_SUCH_FILE/GCC_ERROR TODO
linux-igd 0.cvs20060201-2 Failed 110.384351s HEADER_NO_SUCH_FILE/NO_SUCH_FILE/GCC_ERROR TODO
linux-kernel-di-i386-2.6 1.53 Failed 54.415411s APT_GET_FAILED/NO_SUCH_FILE TODO
linux-latest-2.6 9 Failed 48.800832s APT_GET_FAILED/NO_SUCH_FILE TODO
linux-modules-di-i386-2.6 1.06 Failed 54.134426s APT_GET_FAILED/NO_SUCH_FILE TODO
linux-modules-extra-2.6 2.6.21-4 Failed 8.424975s APT_GET_FAILED/NO_SUCH_FILE TODO
liquidsoap 0.3.3-3 Failed 30.70647s APT_GET_FAILED/NO_SUCH_FILE TODO
lmms 0.2.1-1.1 Failed 47.709623s NO_SUCH_FILE TODO
localepurge 0.5.9 Failed 69.118414s NO_SUCH_FILE TODO
logapp 0.7-1 Failed 22.73927s NO_SUCH_FILE TODO
loop-aes 3.2a-4 Failed 6.700578s APT_GET_FAILED/NO_SUCH_FILE TODO
lprng 3.8.28dfsg.1-1.1 Failed 8.500666s APT_GET_FAILED/NO_SUCH_FILE TODO
lua-logging 1.1.3-1 Failed 196.341529s NO_SUCH_FILE TODO
lxmusserv 0.94-3 Failed 70.975703s HEADER_NO_SUCH_FILE/NO_SUCH_FILE/GCC_ERROR TODO
m68k-vme-tftplilo 1.1.3-1 Failed 55.801853s APT_GET_FAILED/NO_SUCH_FILE TODO
maint-guide 1.2.11 Failed 346.52707s NO_SUCH_FILE TODO
mas 0.6.2-2.3 Failed 56.875428s NO_SUCH_FILE/GCC_ERROR TODO
maypole 2.10-1 Failed 6.354059s APT_GET_FAILED/NO_SUCH_FILE TODO
maypole-authentication-usersessioncookie 1.8-2 Failed 23.667978s APT_GET_FAILED/NO_SUCH_FILE TODO
mbr 1.1.9-2 Failed 97.68873s NO_SUCH_FILE TODO
mctools-lite 970129-17 Failed 82.154356s NO_SUCH_FILE/GCC_ERROR TODO
mercury 0.11.0.rotd.20040511-5 Failed 45.515334s NO_SUCH_FILE/GCC_ERROR TODO
misdn-kernel 0.0.0+cvs20061029-4 Failed 74.780495s APT_GET_FAILED/NO_SUCH_FILE TODO
missinglib 0.4.10.debian-3 Failed 42.65284s APT_GET_FAILED/NO_SUCH_FILE TODO
missingpy 0.9.0 Failed 123.439303s NO_SUCH_FILE TODO
mldonkey 2.9.0-1 Failed 62.283936s NO_SUCH_FILE TODO
mlgmp 20021123-11 Failed 102.060593s NO_SUCH_FILE TODO
mmorph 2.3.4.2-9 Failed 104.959421s LD_ERROR/NO_SUCH_FILE TODO
modconf 0.3.3 Failed 7.293031s APT_GET_FAILED/NO_SUCH_FILE TODO
mod-ruby 1.2.6-1.1 Failed 23.76925s APT_GET_FAILED/NO_SUCH_FILE TODO
modxslt 2005072700-2.2 Failed 6.730263s APT_GET_FAILED/NO_SUCH_FILE TODO
monodevelop 0.14+dfsg-1 Failed 83.474495s NO_SUCH_FILE TODO
monodoc 1.2.5-1 Failed 69.203437s NO_SUCH_FILE TODO
monotone-viz 0.15-1 Failed 270.498132s NO_SUCH_FILE TODO
muine 0.8.7-1.1 Failed 1285.56776s NO_SUCH_FILE/GCC_ERROR TODO
multi-gnome-terminal 1.6.2-13.1 Failed 155.491864s NO_SUCH_FILE TODO
mysql-ocaml 1.0.4-2 Failed 59.543913s NO_SUCH_FILE TODO
nc6 1.0-2 Failed 73.810129s NO_SUCH_FILE TODO
ncpfs 2.2.6-4 Failed 106.589647s NO_SUCH_FILE/GCC_ERROR TODO
nemerle 0.9.3+dfsg-1 Failed 34.934055s NO_SUCH_FILE TODO
nepenthes 0.2.0-2 Failed 41.505138s NO_SUCH_FILE TODO
netatalk 2.0.3-6 Failed 12.951686s APT_GET_FAILED/NO_SUCH_FILE TODO
netdude 0.3.3-4 Failed 106.194954s HEADER_NO_SUCH_FILE/NO_SUCH_FILE/GCC_ERROR TODO
network-manager-openvpn 0.3.2svn2342-1 Failed 263.937493s NO_SUCH_FILE TODO
network-manager-vpnc 0.6.4svn2422-1 Failed 481.935752s NO_SUCH_FILE TODO
nice 0.9.12-2 Failed 7.725581s APT_GET_FAILED/NO_SUCH_FILE TODO
nictools-pci 1.3.8-1 Failed 46.676774s HEADER_NO_SUCH_FILE/NO_SUCH_FILE/GCC_ERROR TODO
nss-updatedb 7-1 Failed 66.003871s LD_ERROR/NO_SUCH_FILE TODO
nyello 0.5.0-1 Failed 92.160783s NO_SUCH_FILE/GCC_ERROR TODO
ocaml-ao 0.1.7.1-3 Failed 144.431034s NO_SUCH_FILE TODO
ocamlcreal 0.7-3 Failed 21.448264s APT_GET_FAILED/NO_SUCH_FILE TODO
ocamldap 2.1.8-2 Failed 24.151283s APT_GET_FAILED/NO_SUCH_FILE TODO
ocamldbi 0.9.13-3 Failed 57.195728s APT_GET_FAILED/NO_SUCH_FILE TODO
ocamldsort 0.14.4-1 Failed 81.928109s NO_SUCH_FILE TODO
ocaml-fileutils 0.3.0-10 Failed 67.264646s NO_SUCH_FILE TODO
ocamlgsl 0.5.2-2 Failed 178.640353s NO_SUCH_FILE TODO
ocaml-http 0.1.3-2 Failed 22.79862s APT_GET_FAILED/NO_SUCH_FILE TODO
ocamlnet 2.2.7-1 Failed 6.871831s APT_GET_FAILED/NO_SUCH_FILE TODO
ocaml-sqlite3 0.21.0-1 Failed 109.802592s NO_SUCH_FILE TODO
ocsigen 0.99.2-1 Failed 7.770554s APT_GET_FAILED/NO_SUCH_FILE TODO
octave2.9-forge 2006.07.09+dfsg1-8 Failed 412.368204s NO_SUCH_FILE/GCC_ERROR TODO
offlineimap 5.99.2 Failed 61.794152s NO_SUCH_FILE TODO
omake 0.9.8.5-3-1 Failed 42.58873s NO_SUCH_FILE TODO
openbios-sparc 1.0~alpha2+20070816-1 Failed 80.433925s NO_SUCH_FILE TODO
openslp-dfsg 1.2.1-7 Failed 138.349082s NO_SUCH_FILE TODO
opensp 1.5.2-3 Failed 308.936873s NO_SUCH_FILE TODO
openvrml 0.15.10-8 Failed 497.08379s HEADER_NO_SUCH_FILE/NO_SUCH_FILE/GCC_ERROR TODO
orpie 1.4.3-1 Failed 48.137636s NO_SUCH_FILE/GCC_ERROR TODO
oscache 2.0.2-1 Failed 23.8244s APT_GET_FAILED/NO_SUCH_FILE TODO
oskit 0.97.20030827savannah-1 Failed 42.267387s NO_SUCH_FILE/GCC_ERROR TODO
ossp-uuid 1.5.1-1 Failed 11.568668s APT_GET_FAILED/NO_SUCH_FILE TODO
otags 3.09.0-5 Failed 68.227026s NO_SUCH_FILE TODO
packit 1.0-1 Failed 65.514184s HEADER_NO_SUCH_FILE/NO_SUCH_FILE/GCC_ERROR TODO
pagodacf 0.8-1 Failed 57.200374s NO_SUCH_FILE TODO
paketto 1.10-6 Failed 143.812681s NO_SUCH_FILE/GCC_ERROR TODO
palo 1.14 Failed 43.274658s BUILDDEP_UNSAT/NO_SUCH_FILE TODO
pam-krb5-migrate 0.0.6-1 Failed 136.113507s NO_SUCH_FILE/GCC_ERROR TODO
pam-pgsql 0.5.2-9.2 Failed 71.084121s NO_SUCH_FILE/GCC_ERROR TODO
pango-graphite 0.9.0-1 Failed 352.449852s HEADER_NO_SUCH_FILE/NO_SUCH_FILE/GCC_ERROR TODO
passepartout 0.6-3.1 Failed 52.070201s NO_SUCH_FILE/GCC_ERROR TODO
pdftk 1.40-2 Failed 36.368771s NO_SUCH_FILE/JAVA_TB TODO
pearpc 0.4.0-3 Failed 110.754472s NO_SUCH_FILE TODO
perdition 1.17-7 Failed 289.315452s LD_ERROR/NO_SUCH_FILE TODO
perl 5.8.8-7 Failed 74.752935s NO_SUCH_FILE TODO
pexts 0.2.0-8 Failed 132.585005s NO_SUCH_FILE/GCC_ERROR TODO
php4-apd 0.4p2-6 Failed 51.640662s APT_GET_FAILED/NO_SUCH_FILE TODO
php4-kadm5 0.2.4-4.1 Failed 50.3641s APT_GET_FAILED/NO_SUCH_FILE TODO
php4-ps 1.3.5-1 Failed 42.128008s APT_GET_FAILED/NO_SUCH_FILE TODO
php-clamavlib 0.12a-4 Failed 12.41615s APT_GET_FAILED/NO_SUCH_FILE TODO
pidgin-blinklight 0.9-1 Failed 237.09505s NO_SUCH_FILE TODO
pidgin-encryption 3.0-1 Failed 303.462461s NO_SUCH_FILE TODO
pidgin-extprefs 0.7-2 Failed 313.77311s NO_SUCH_FILE TODO
pidgin-festival 2.0-1 Failed 174.649763s NO_SUCH_FILE TODO
pidgin-hotkeys 0.2.4-1 Failed 108.718812s NO_SUCH_FILE TODO
pidgin-libnotify 0.12-4 Failed 132.371099s NO_SUCH_FILE TODO
pidgin-librvp 0.9.6-1 Failed 274.210178s NO_SUCH_FILE TODO
pidgin-otr 3.1.0-1 Failed 91.063929s NO_SUCH_FILE TODO
pidgin-sipe 1.2-1 Failed 49.410177s NO_SUCH_FILE TODO
pilot-template 1.31-6 Failed 55.684455s NO_SUCH_FILE TODO
pixie 2.2.1-1 Failed 651.419446s NO_SUCH_FILE TODO
pkspxy 0.5-9 Failed 75.940976s HEADER_NO_SUCH_FILE/NO_SUCH_FILE/GCC_ERROR TODO
planets 0.1.13-1 Failed 77.957186s NO_SUCH_FILE TODO
playmidi 2.4debian-7 Failed 47.991813s HEADER_NO_SUCH_FILE/NO_SUCH_FILE/GCC_ERROR TODO
plplot 5.6.1-11 Failed 443.642802s NO_SUCH_FILE TODO
pnetc 0.6.12-1 Failed 24.150596s APT_GET_FAILED/NO_SUCH_FILE TODO
png-sixlegs 1.2.3-3 Failed 60.217219s APT_GET_FAILED/NO_SUCH_FILE TODO
polyxmass-doc 0.9.1-1 Failed 139.998333s NO_SUCH_FILE TODO
postfix 2.4.5-3 Failed 131.618283s LD_ERROR/NO_SUCH_FILE TODO
postgresql-pljava 1.3.0-1 Failed 70.505058s NO_SUCH_FILE TODO
postman 2.1-2 Failed 57.636487s NO_SUCH_FILE/GCC_ERROR TODO
prj2make-sharp 0.95-3 Failed 10.802804s APT_GET_FAILED/NO_SUCH_FILE TODO
prokyon3 0.9.4-3 Failed 222.988578s NO_SUCH_FILE/GCC_ERROR TODO
pugs 6.2.13-0.1 Failed 112.752888s NO_SUCH_FILE TODO
purelibc 0.2-1 Failed 81.650931s HEADER_NO_SUCH_FILE/NO_SUCH_FILE/GCC_ERROR TODO
purple-plugin-pack 2.0.0-1 Failed 86.428759s NO_SUCH_FILE TODO
pxp 1.1.96-8 Failed 6.625458s APT_GET_FAILED/NO_SUCH_FILE TODO
pykdeextensions 0.4.0-4 Failed 197.337302s PYTHON_TRACEBACK/NO_SUCH_FILE TODO
pyqwt3d 0.1.4-1 Failed 693.097157s HEADER_NO_SUCH_FILE/NO_SUCH_FILE/GCC_ERROR TODO
pyspi 0.6.1-1 Failed 93.845787s NO_SUCH_FILE TODO
python-oss 0.0.0.20010624-3.3 Failed 32.837065s HEADER_NO_SUCH_FILE/NO_SUCH_FILE/GCC_ERROR TODO
qgis 0.8.0-5 Failed 159.87708s NO_SUCH_FILE TODO
rake 0.7.3-1 Failed 60.861144s NO_SUCH_FILE TODO
rate-engine 0.5.5-1 Failed 23.159898s APT_GET_FAILED/NO_SUCH_FILE TODO
realtimebattle 1.0.8-3 Failed 17.074063s APT_GET_FAILED/NO_SUCH_FILE TODO
regexp-pp 1.0.0-3 Failed 42.708266s NO_SUCH_FILE TODO
reprepro 2.2.4-1 Failed 111.641682s NO_SUCH_FILE TODO
retchmail 1:1.0-1 Failed 26.860165s LD_ERROR/NO_SUCH_FILE TODO
rxtx 2.1.7r2-3 Failed 29.478457s APT_GET_FAILED/NO_SUCH_FILE TODO
saods9 4.0b7-1.4 Failed 335.150957s NO_SUCH_FILE TODO
sbm 3.7.1-9 Failed 224.663818s NO_SUCH_FILE/GCC_ERROR TODO
scala 2.5.0-1 Failed 6551.40322s NO_SUCH_FILE TODO
schooltool 0.11.4-3 Failed 19.066559s APT_GET_FAILED/NO_SUCH_FILE TODO
scsi-idle 2.4.23-5 Failed 61.988372s APT_GET_FAILED/NO_SUCH_FILE TODO
scummvm 0.9.1-1 Failed 403.088361s NO_SUCH_FILE/GCC_ERROR TODO
seal 1.07-13 Failed 59.177211s HEADER_NO_SUCH_FILE/NO_SUCH_FILE/GCC_ERROR TODO
sear 0.6.1-1 Failed 7.08001s APT_GET_FAILED/NO_SUCH_FILE TODO
searchandrescue 0.8.2-7 Failed 111.780606s NO_SUCH_FILE/GCC_ERROR TODO
sfftobmp 3.0-7 Failed 113.726231s LD_ERROR/NO_SUCH_FILE TODO
silky 0.5.4-0.1 Failed 6.468929s APT_GET_FAILED/NO_SUCH_FILE TODO
singularity-music 001-1 Failed 33.007916s NO_SUCH_FILE TODO
siproxd 1:0.5.13-1 Failed 94.720425s NO_SUCH_FILE/GCC_ERROR TODO
skksearch 0.0-14 Failed 53.970677s LD_ERROR/NO_SUCH_FILE TODO
skktools 1.2+0.20061004-2 Failed 90.809906s NO_SUCH_FILE/GCC_ERROR TODO
slash 2.2.6-8 Failed 20.213153s APT_GET_FAILED/NO_SUCH_FILE TODO
smail 3.2.0.115-7.1 Failed 73.322931s NO_SUCH_FILE TODO
smarteiffel2 2.2.99.beta3.2.svn8415-1 Failed 263.579876s NO_SUCH_FILE TODO
smtpguard 1.1.3-1.1 Failed 109.619177s NO_SUCH_FILE TODO
sope 4.4rc.2-3.1 Failed 6.189994s APT_GET_FAILED/NO_SUCH_FILE TODO
spplus 1.0-10 Failed 23.071129s APT_GET_FAILED/NO_SUCH_FILE TODO
sqlfairy 0.08-1 Failed 262.33462s NO_SUCH_FILE TODO
squareness 2.3.0-2 Failed 49.739645s APT_GET_FAILED/NO_SUCH_FILE TODO
squidguard 1.2.0-8.2 Failed 132.457385s NO_SUCH_FILE TODO
srtp 1.4.2.dfsg-5 Failed 143.920875s NO_SUCH_FILE TODO
ssldump 0.9b3-2.1 Failed 52.797805s HEADER_NO_SUCH_FILE/NO_SUCH_FILE/GCC_ERROR TODO
starfighter 1.1-6 Failed 195.359395s NO_SUCH_FILE/GCC_ERROR TODO
stlport4.6 4.6.2-3 Failed 137.519098s NO_SUCH_FILE/GCC_ERROR TODO
strongswan 4.1.4-1 Failed 155.219201s NO_SUCH_FILE TODO
suphp 0.6.2-1 Failed 18.087447s APT_GET_FAILED/NO_SUCH_FILE TODO
svk 2.0.1-1 Failed 12.213529s BUILDDEP_UNSAT/NO_SUCH_FILE TODO
swfdec-mozilla 0.5.2-1 Failed 38.488436s NO_SUCH_FILE TODO
syncekonnector 0.3.2-3 Failed 81.501607s NO_SUCH_FILE TODO
syrep 0.9-2 Failed 38.684767s LD_ERROR/NO_SUCH_FILE TODO
syslinux 1:3.51-1 Failed 174.731848s NO_SUCH_FILE/GCC_ERROR TODO
systemimager 3.6.3dfsg1-3 Failed 257.173783s HEADER_NO_SUCH_FILE/NO_SUCH_FILE/GCC_ERROR TODO
tagcolledit 1.3-1 Failed 10.327906s APT_GET_FAILED/NO_SUCH_FILE TODO
tcpslice 1.2a3-2 Failed 53.136358s HEADER_NO_SUCH_FILE/NO_SUCH_FILE/GCC_ERROR TODO
tcptrace 6.6.1-1.3 Failed 68.967612s NO_SUCH_FILE TODO
tesseract 1.02-3 Failed 96.939654s NO_SUCH_FILE/GCC_ERROR TODO
tetex-src 3.0.dfsg.2-1 Failed 16.31673s APT_GET_FAILED/NO_SUCH_FILE TODO
tex4ht 20070821-1 Failed 124.609337s NO_SUCH_FILE TODO
tiemu 2.00-3 Failed 7.058946s APT_GET_FAILED/NO_SUCH_FILE TODO
tilp 6.80-4 Failed 6.558344s APT_GET_FAILED/NO_SUCH_FILE TODO
tkmixer 1.0-15 Failed 109.0997s LD_ERROR/NO_SUCH_FILE TODO
tkusr 0.82 Failed 32.51612s NO_SUCH_FILE TODO
tomboy 0.6.3-1 Failed 1148.396257s COMPIL_FAILED/NO_SUCH_FILE TODO
trang 20030619-5.1 Failed 60.655699s NO_SUCH_FILE/GCC_ERROR TODO
translate 0.6-9 Failed 55.708646s NO_SUCH_FILE TODO
tse3 0.3.1-4 Failed 34.127941s NO_SUCH_FILE/GCC_ERROR TODO
ttf-atarismall 1.0-1 Failed 232.743424s NO_SUCH_FILE TODO
ttt 1.7-3.1 Failed 118.448058s NO_SUCH_FILE/GCC_ERROR TODO
turck-mmcache 2.4.6-14 Failed 31.086881s APT_GET_FAILED/NO_SUCH_FILE TODO
twin 0.5.1-3 Failed 97.357164s HEADER_NO_SUCH_FILE/NO_SUCH_FILE/GCC_ERROR TODO
twinkle 1:1.1-2 Failed 76.371001s NO_SUCH_FILE TODO
twutils 0.2-7.1 Failed 55.838707s APT_GET_FAILED/NO_SUCH_FILE TODO
uclibc 0.9.27-1 Failed 39.56403s NO_SUCH_FILE TODO
uruk 20051129-1 Failed 52.586706s NO_SUCH_FILE TODO
vacation 3.3.0-0.2 Failed 72.506269s LD_ERROR/NO_SUCH_FILE TODO
vdr-plugin-xineliboutput 1.0.0~rc2-7 Failed 27.994528s NO_SUCH_FILE TODO
vecmath1.2 1.14-3 Failed 42.590332s APT_GET_FAILED/NO_SUCH_FILE TODO
velocity 1.4-5 Failed 10.258624s APT_GET_FAILED/NO_SUCH_FILE TODO
verse 0.22.3 Failed 102.785622s NO_SUCH_FILE TODO
vertex 0.1.15-1.2 Failed 91.934474s NO_SUCH_FILE/GCC_ERROR TODO
vgabios 0.6a-2 Failed 80.3164s NO_SUCH_FILE/GCC_ERROR TODO
visualboyadvance 1.8.0-3 Failed 192.720072s NO_SUCH_FILE/GCC_ERROR TODO
vsound 0.6-4.1 Failed 71.43867s NO_SUCH_FILE TODO
wagon 1.0-beta-2-1 Failed 66.73756s NO_SUCH_FILE TODO
waili 19990723-17 Failed 241.093488s NO_SUCH_FILE/GCC_ERROR TODO
werken.xpath 0.9.4-9 Failed 57.449678s APT_GET_FAILED/NO_SUCH_FILE TODO
whitelister 0.8-4 Failed 44.121367s APT_GET_FAILED/NO_SUCH_FILE TODO
why 2.04.dfsg-2 Failed 265.021459s NO_SUCH_FILE TODO
win32-loader 0.6.0~pre1 Failed 153.769595s NO_SUCH_FILE TODO
wmnut 0.62-1 Failed 110.291185s APT_GET_FAILED/NO_SUCH_FILE TODO
workbone 2.40-7 Failed 61.750033s NO_SUCH_FILE/GCC_ERROR TODO
wvdial 1.56-1.2 Failed 29.855879s LD_ERROR/NO_SUCH_FILE TODO
wyrd 1.4.3b-1 Failed 57.469422s NO_SUCH_FILE TODO
wzdftpd 0.8.2-1 Failed 95.769751s NO_SUCH_FILE/GCC_ERROR TODO
xbvl 2.2-5.3 Failed 38.642798s HEADER_NO_SUCH_FILE/NO_SUCH_FILE/GCC_ERROR TODO
xcin 2.5.2.99.pre2+cvs20030224-1.2 Failed 63.208532s NO_SUCH_FILE TODO
xdelta 1.1.3-7 Failed 61.136538s NO_SUCH_FILE TODO
xemacs21 21.4.20-2 Failed 6.598681s APT_GET_FAILED/NO_SUCH_FILE TODO
xen-3.0 3.0.4-1-1 Failed 298.128061s NO_SUCH_FILE TODO
xen-3 3.1.0-1 Failed 883.993607s NO_SUCH_FILE TODO
xen-unstable 3.0-unstable+hg11561-1 Failed 66.893597s APT_GET_FAILED/NO_SUCH_FILE TODO
xkbsel 0.13-13.2 Failed 73.983235s NO_SUCH_FILE TODO
xmakemol 5.15-2 Failed 525.773306s HEADER_NO_SUCH_FILE/NO_SUCH_FILE/GCC_ERROR TODO
xmovie 1.9.12-1.1 Failed 338.839863s TOO_MANY_ARGS/NO_SUCH_FILE/GCC_ERROR TODO
xserver-xorg-input-calcomp 1:1.1.0-1 Failed 45.319284s NO_SUCH_FILE/GCC_ERROR TODO
xserver-xorg-input-citron 1:2.2.0-2 Failed 43.90046s NO_SUCH_FILE/GCC_ERROR TODO
xserver-xorg-input-dmc 1:1.1.0-1 Failed 41.07942s NO_SUCH_FILE/GCC_ERROR TODO
xserver-xorg-input-dynapro 1:1.1.0-1 Failed 52.495023s NO_SUCH_FILE/GCC_ERROR TODO
xserver-xorg-input-elo2300 1:1.1.0-1 Failed 31.981973s NO_SUCH_FILE/GCC_ERROR TODO
xserver-xorg-input-microtouch 1:1.1.0-1 Failed 53.001518s NO_SUCH_FILE/GCC_ERROR TODO
xserver-xorg-input-penmount 1:1.2.0-1 Failed 72.725603s NO_SUCH_FILE/GCC_ERROR TODO
xtla 1.2.1-1 Failed 7.637804s APT_GET_FAILED/NO_SUCH_FILE TODO
xtranslate 0.2-14 Failed 59.202935s NO_SUCH_FILE TODO
xulrunner 1.8.1.6-1 Failed 30.351262s APT_GET_FAILED/NO_SUCH_FILE TODO
zeroc-icee-java 1.2.0-1 Failed 295.976372s NO_SUCH_FILE TODO
zipper.app 1.2-1 Failed 15.409714s APT_GET_FAILED/NO_SUCH_FILE TODO
zsnes 1.510-1 Failed 48.577601s NO_SUCH_FILE/GCC_ERROR TODO
