4g8 1.0-3 Failed [OLD_DEBHELPER] #817344  RECHECK
abinit 7.8.2-3 Failed [UNKNOWN] #835781: abinit: FTBFS: ! LaTeX Error: File `luatex85.sty' not found.  RECHECK
aces3 3.0.8-5 Failed [GCC_ERROR/LD_ERROR] #831164  RECHECK
aconnectgui 0.9.0rc2-1-9 Failed [OLD_DEBHELPER] #817345  RECHECK
aegis 4.24.3-3 Failed [GCC_ERROR] #811888  RECHECK
aewm++ 1.1.2-5 Failed [UNKNOWN] #831257  RECHECK
aiocoap 0.1+9ae36f4-1 Failed [PYTHON_TRACEBACK] #832872: aiocoap: FTBFS: dh_auto_test: pybuild --test -i python{version} -p 3.5 returned exit code 13  RECHECK
alsamixergui 0.9.0rc2-1-9.1 Failed [OLD_DEBHELPER] #817346  RECHECK
ams 2.1.1-1 Failed [GCC_ERROR] #811645  RECHECK
android-tools 5.1.1.r29-2 Failed [GCC_ERROR] #831254  RECHECK
animals 201207131226-1 Failed [BUILDDEPS] #836614
anon-proxy 00.05.38+20081230-3 Failed [OLD_DEBHELPER] #817347  RECHECK
aptsh 0.0.7+nmu2 Failed [OLD_DEBHELPER] #817350  RECHECK
apt-src 0.25.1-0.2 Failed [OLD_DEBHELPER] #817351  RECHECK
apwal 0.4.5-1 Failed [OLD_DEBHELPER] #817352  RECHECK
arc-theme 20160605-2 Failed [CONFIGURE_ERROR] NNN
arora 0.11.0+qt5+git2014-04-06-1 Failed [GCC_ERROR] #803521  RECHECK
array-info 0.16-1 Failed [BUILDDEPS] #836615
aspell-br 0.50-2-6 Failed [OLD_DEBHELPER] #817354  RECHECK
aspell-cy 0.50-3-6 Failed [OLD_DEBHELPER] #817355  RECHECK
aspell-el 0.50-3-6 Failed [OLD_DEBHELPER] #817356  RECHECK
aspell-ga 0.50-4-4 Failed [OLD_DEBHELPER] #817357  RECHECK
aspell-is 0.51-0-4 Failed [OLD_DEBHELPER] #782720  RECHECK
aspell-uz 0.6.0-1 Failed [OLD_DEBHELPER] #817362  RECHECK
asr-manpages 1.3-6 Failed [OLD_DEBHELPER] #817310  RECHECK
assword 0.9-1 Failed [PYTHON_TRACEBACK/PYIMPORT] #825365  RECHECK
asterisk 1:13.10.0~dfsg-1 Failed [BUILDDEPS] #836953
asterisk-chan-capi 1.1.6-1 Failed [GCC_ERROR] #707392  RECHECK
asterisk-prompt-se 1.045-1 Failed [OLD_DEBHELPER] #817365  RECHECK
attal 1.0~rc2-2 Failed [GCC_ERROR] #831094  RECHECK
auctex 11.88-1.1 Failed [BUILDDEPS] #768724  RECHECK
audacity 2.1.2-1 Failed [GCC_ERROR] #811671  RECHECK
audiolink 0.05-1.2 Failed [OLD_DEBHELPER] #817368  RECHECK
audtty 0.1.12-4 Failed [GCC_ERROR] #759825  RECHECK
aufs-tools 1:3.2+20130722-1.1 Failed [GCC_ERROR] #788513  RECHECK
automake-1.15 1:1.15-4 Failed [CONFIGURE_ERROR/TESTS_FAILURES] #827541  RECHECK
avogadro 1.0.3-13.1 Failed [UNKNOWN] #833770  RECHECK
aweather 0.8.1-1 Failed [GCC_ERROR] NNN RECHECK
babel 1.4.0.dfsg-8.2 Failed [UNKNOWN] #759848  RECHECK
ball 1.4.3~beta1-1 Failed [TESTS_FAILURES] #830984  RECHECK
bandwidthcalc 0.2-1 Failed [OLD_DEBHELPER] #817372  RECHECK
basic256 0.9.6.69a-1 Failed [UNKNOWN] #746100  RECHECK
bats 0.4.0-1 Failed [TESTS_FAILURES] #802191  RECHECK
beanbag 1.9.2-1 Failed [UNKNOWN] #804357  RECHECK
bibcursed 2.0.0-6 Failed [OLD_DEBHELPER] #817375  RECHECK
bicyclerepair 0.9-6.1 Failed [OLD_DEBHELPER] #817376  RECHECK
binutils-msp430 2.22~msp20120406-5 Failed [GCC_ERROR] #811954  RECHECK
bookview 3.2.1-1.1 Failed [OLD_DEBHELPER] #817381  RECHECK
boost1.58 1.58.0+dfsg-5.1 Failed [GCC_ERROR] #811651  RECHECK
bootchart 0.10~svn407-4.1 Failed [OLD_DEBHELPER] #817382  RECHECK
botch 0.17-3 Failed [UNKNOWN] #827977  RECHECK
bppsuite 0.8.0-1+build1 Failed [GCC_ERROR] #825443  RECHECK
brag 1.4.1-2 Failed [OLD_DEBHELPER] #817383  RECHECK
brightside 1.4.0-4.1 Failed [OLD_DEBHELPER] #817384  RECHECK
bristol 0.60.11-2 Failed [GCC_ERROR] #834180  RECHECK
brltty 5.3.1-3 Failed [BUILDDEPS] #836617 RECHECK
btfs 2.4-1 Failed [GCC_ERROR] #834250  RECHECK
budgie-desktop 10.2.6-1 Failed [UNKNOWN] #837077
bzr 2.7.0+bzr6619-1 Failed [PYTHON_TRACEBACK/TESTS_FAILURES] NNN
cadabra 1.39-0.2 Failed [GCC_ERROR] #808634  RECHECK
cairo-5c 1.8.1 Failed [UNKNOWN] #708459  RECHECK
calf 0.0.60-3 Failed [GCC_ERROR] #811883  RECHECK
calligra 1:2.8.5+dfsg-1.2 Failed [BUILDDEPS] #818395  RECHECK
cardstories 1.0.6-1.3 Failed [UNKNOWN] #753195  RECHECK
casacore 2.1.0-1 Failed [GCC_ERROR] #831077  RECHECK
ccd2iso 0.3-4 Failed [BUILDDEPS] #836618
cdbackup 0.7.0-5 Failed [OLD_DEBHELPER] #817389  RECHECK
cdcover 0.9.1-11 Failed [BUILDDEPS] #836619
ceph 0.80.11-1 Failed [GCC_ERROR] #811674  RECHECK
cfingerd 1.4.3-3.1 Failed [UNKNOWN] NNN
cheetah 2.4.4-3 Failed [UNKNOWN] NNN RECHECK
chef 12.10.24-1 Failed [RUBY_TEST_FAILED] NNN
chkconfig 11.4.54.60.1debian1 Failed [TESTS_FAILURES] #834666  RECHECK
chordii 4.3+repack-2 Failed [GCC_ERROR] #811594  RECHECK
chromium-bsu 0.9.16-1 Failed [CONFIGURE_ERROR] NNN
chuck 1.2.0.8.dfsg-1.4 Failed [OLD_DEBHELPER] #817390  RECHECK
cimg 1.6.5+dfsg-1 Failed [UNKNOWN] #819606  RECHECK
cl-babel 0.3.0+20091229-1 Failed [UNKNOWN] #823044  RECHECK
clex 3.15-1 Failed [OLD_DEBHELPER] #817392  RECHECK
clipper 2.1.20130601-2 Failed [GCC_ERROR] #811763  RECHECK
clips 6.24-3 Failed [OLD_DEBHELPER] #817394  RECHECK
clips-doc 6.24-2 Failed [OLD_DEBHELPER] #817395  RECHECK
cloud-sptheme 1.6-1 Failed [UNKNOWN] #829230  RECHECK
cl-plplot 0.6.0-5 Failed [UNKNOWN] #759904  RECHECK
cl-postoffice 1.8.2.3-4 Failed [OLD_DEBHELPER] #817397  RECHECK
cl-rsm-mod 1.4 Failed [OLD_DEBHELPER] #817399  RECHECK
cl-salza 0.7.4-1 Failed [OLD_DEBHELPER] #817400  RECHECK
code2html 0.9.1-4 Failed [OLD_DEBHELPER] #817404  RECHECK
compartment 1.1.0-4 Failed [OLD_DEBHELPER] #817406  RECHECK
confetti 20120731-1 Failed [GCC_ERROR] #811578  RECHECK
connect-proxy 1.101-1 Failed [UNKNOWN] #830423: connect-proxy: FTBFS: dpkg-buildpackage: error: dpkg-genchanges gave error exit status 25  RECHECK
conquest-dicom-server 1.4.17d-1 Failed [GCC_ERROR] #831100  RECHECK
consul-migrate 0.1.0-1 Failed [UNKNOWN] #818121  RECHECK
coq-float 1:8.4-5 Failed [UNKNOWN] #813596  RECHECK
couchdb 1.4.0-3 Failed [GCC_ERROR] #746053  RECHECK
cpm 0.32-1.1 Failed [GCC_ERROR/LD_ERROR] #818393  RECHECK
crack 5.0a-9.3 Failed [OLD_DEBHELPER] #817411  RECHECK
cramfsswap 1.4.1-1 Failed [OLD_DEBHELPER] #817412  RECHECK
criticalmass 1:1.0.0-4 Failed [GCC_ERROR] #811816  RECHECK
cross-binutils 0.26 Failed [UNKNOWN] #802859  RECHECK
crrcsim 0.9.12-6.1 Failed [GCC_ERROR] #811818  RECHECK
crypt++el 2.94-1 Failed [OLD_DEBHELPER] #817414  RECHECK
csh 20110502-2.1 Failed [GCC_ERROR] NNN RECHECK
csmash-demosong 1.4 Failed [OLD_DEBHELPER] #817415  RECHECK
csoundqt 0.9.2.1-3 Failed [UNKNOWN] NNN
cthumb 4.2-3 Failed [OLD_DEBHELPER] #800207  RECHECK
cura-engine 14.01-2 Failed [GCC_ERROR] #818140  RECHECK
curlpp 0.7.3-6 Failed [GCC_ERROR] #811959  RECHECK
curtain 0.3-1 Failed [CONFIGURE_ERROR] #747785  RECHECK
cutils 1.6-3.1 Failed [OLD_DEBHELPER] #817417  RECHECK
cutter-testing-framework 1.2.4-1 Failed [UNKNOWN] #765128  RECHECK
cvc3 2.4.1-5 Failed [GCC_ERROR] #811823  RECHECK
cvs2cl 2.73-1 Failed [OLD_DEBHELPER] #817418  RECHECK
cvs-autoreleasedeb 0.12-1 Failed [OLD_DEBHELPER] #817419  RECHECK
cvschangelogbuilder 2.4-1 Failed [OLD_DEBHELPER] #817420  RECHECK
cyclades-serial-client 0.92 Failed [OLD_DEBHELPER] #800212  RECHECK
dancer-xml 0.8.2.1-3 Failed [OLD_DEBHELPER] #817422  RECHECK
dasher 4.11+git20130508.adc653-2 Failed [GCC_ERROR] #811640  RECHECK
datalad 0.2.3-1 Failed [PYTHON_TRACEBACK/TESTS_FAILURES] #835525  RECHECK
datanommer.commands 0.4.6-2 Failed [PYTHON_TRACEBACK] #812650  RECHECK
datanommer.consumer 0.6.1-2 Failed [PYTHON_TRACEBACK] #805660  RECHECK
datanommer.models 0.6.4-2 Failed [PYTHON_TRACEBACK] #804556  RECHECK
debaux 0.1.10-1.1 Failed [OLD_DEBHELPER] #800283  RECHECK
debbugs 2.4.1.1 Failed [OLD_DEBHELPER] #800287  RECHECK
debdry 0.2.1-1 Failed [PYTHON_TRACEBACK/PYIMPORT] #805195  RECHECK
debian-installer-netboot-images 20150422+deb8u4 Failed [UNKNOWN] known FTBFS  RECHECK
denemo 2.0.8-1 Failed [BUILDDEPS] #830347: denemo: FTBFS: build-dependency not installable: lilypond  RECHECK
designate-dashboard 2.0.0-2 Failed [BUILDDEPS] NNN
desmume 0.9.11-1 Failed [GCC_ERROR] #811691  RECHECK
devtodo 0.1.20-6 Failed [GCC_ERROR] #723964  RECHECK
dh-kpatches 0.99.36+nmu2 Failed [OLD_DEBHELPER] #817430  RECHECK
diagnostics 0.3.3-11.1 Failed [TESTS_FAILURES] #812262  RECHECK
dico 2.2-9 Failed [TESTS_FAILURES] #819835  RECHECK
diet 2.8.0-1 Failed [UNKNOWN] #822129  RECHECK
diffpdf 2.1.3-1 Failed [BUILDDEPS] #836621
dimbl 0.12-2 Failed [GCC_ERROR] #833905  RECHECK
din 5.2.1-3 Failed [GCC_ERROR] #811778  RECHECK
distmp3 0.1.9.ds1-4.6 Failed [OLD_DEBHELPER] #817432  RECHECK
ditaa 0.10+ds1-1 Failed [GCC_ERROR] #802065  RECHECK
django-compat 1.0.12-1 Failed [PYTHON_TRACEBACK/PYIMPORT/TESTS_FAILURES] #828645  RECHECK
django-conneg 0.9.4-2 Failed [PYTHON_TRACEBACK/TESTS_FAILURES] #801929  RECHECK
django-floppyforms 1.6.2+dfsg-1 Failed [PYTHON_TRACEBACK/TESTS_FAILURES] #828647  RECHECK
django-hijack 2.0.7-2 Failed [PYTHON_TRACEBACK/PYIMPORT/TESTS_FAILURES] #828648  RECHECK
django-ldapdb 0.2.0-1 Failed [PYTHON_TRACEBACK/PYIMPORT/TESTS_FAILURES] #755601  RECHECK
django-modeltranslation 0.11-1 Failed [PYTHON_TRACEBACK/TESTS_FAILURES] #834667  RECHECK
django-model-utils 2.4-1 Failed [PYTHON_TRACEBACK/TESTS_FAILURES] #828651  RECHECK
django-ratelimit 0.4.0+8+gd58c489-3 Failed [PYTHON_TRACEBACK/PYIMPORT/TESTS_FAILURES] #806355  RECHECK
djangorestframework-gis 0.10.1-1 Failed [PYTHON_TRACEBACK/PYIMPORT/TESTS_FAILURES] #834669  RECHECK
dlz-ldap-enum 1.0.3-1 Failed [GCC_ERROR] #822388  RECHECK
dmtcp 2.3.1-6 Failed [GCC_ERROR] #808644  RECHECK
dns-flood-detector 1.20-2 Failed [BUILDDEPS] #836622
docbook-ebnf 1.2~cr1-5.1 Failed [OLD_DEBHELPER] #817433  RECHECK
docker.io 1.11.2~ds1-6 Failed [UNKNOWN] #835686: docker.io: FTBFS: .gopath/src/github.com/docker/containerd/api/grpc/types/api.pb.go:1137: cannot use _API_CreateContainer_Handler (type func(interface {}, "golang.org/x/net/context".Context, func(interface {}) error) (interface {}, error)) as type grpc.methodHandler in field value  RECHECK
docker-swarm 1.0.1+dfsg-1 Failed [UNKNOWN] #832849: docker-swarm: FTBFS: dh_auto_build: src/github.com/docker/swarm/api/handlers.go:17:2: cannot find package "github.com/docker/docker/pkg/parsers/filters"  RECHECK
doc-linux-pl 2002.06.14-2 Failed [OLD_DEBHELPER] #817436  RECHECK
dogtag-pki 10.2.6+git20160317-2 Failed [GCC_ERROR] #811788  RECHECK
dolphin 4:16.04.2-2 Failed [UNKNOWN] #835752: dolphin: FTBFS: dh_install: missing files, aborting  RECHECK
doscan 0.3.3-1 Failed [GCC_ERROR] #811845  RECHECK
dpkg-sig 0.13.1+nmu2 Failed [OLD_DEBHELPER] #817437  RECHECK
drgeo 1.1.0-10.2 Failed [BUILDDEPS] #745996  RECHECK
drift 2.2.3-2.3 Failed [UNKNOWN] #807966  RECHECK
dsc-statistics 201203250530-2.1 Failed [GCC_ERROR] #811618  RECHECK
dsh 0.25.10-1.1 Failed [OLD_DEBHELPER] #817439  RECHECK
duma 2.5.15-1.1 Failed [GCC_ERROR] #811887  RECHECK
dvi2dvi 2.0alpha-9.2 Failed [OLD_DEBHELPER] #817440  RECHECK
dvidvi 1.0-8etch2 Failed [OLD_DEBHELPER] #817441  RECHECK
eancheck 1.0-1.1 Failed [OLD_DEBHELPER] #830462: eancheck: FTBFS: rm: cannot remove 'eancheck.1.gz': No such file or directory  RECHECK
easyh10 1.5-1 Failed [OLD_DEBHELPER] #817443  RECHECK
echolot 2.1.9-1 Failed [OLD_DEBHELPER] #817444  RECHECK
eclipse 3.8.1-8 Failed [GCC_ERROR] #757536  RECHECK
eclipse-cdt 8.6.0-1 Failed [UNKNOWN] #817880  RECHECK
eclipse-egit 3.7.0-1 Failed [UNKNOWN] #813419  RECHECK
eclipse-emf 2.8.3-1 Failed [UNKNOWN] #831230  RECHECK
eclipse-mylyn 3.12.0-1 Failed [UNKNOWN] #809566  RECHECK
eclipse-mylyn-tasks-github 3.3.0-1 Failed [UNKNOWN] #789988  RECHECK
eclipse-pydev 3.9.2-4 Failed [GCC_ERROR] #808485  RECHECK
eclipse-wtp 3.6.3-1 Failed [UNKNOWN] #787552  RECHECK
eclipse-xsd 2.9.0-1 Failed [UNKNOWN] #832838: eclipse-xsd: FTBFS: Duplicate methods named spliterator with the parameters () and () are inherited from the types List<XSDConcreteComponent> and Collection<XSDConcreteComponent>  RECHECK
efax 1:0.9a-19 Failed [OLD_DEBHELPER] #817447  RECHECK
eficas 6.4.0-1-1.1 Failed [OLD_DEBHELPER] #830424: eficas: FTBFS: dh_listpackages: Compatibility levels before 5 are no longer supported (level 1 requested)  RECHECK
elasticsearch 1.7.5-1 Failed [UNKNOWN] #834080  RECHECK
elixir-lang 1.2.6-1 Failed [UNKNOWN] NNN
elkcode 2.3.22-1 Failed [GCC_ERROR/LD_ERROR] #825934  RECHECK
elmerfem 6.1.0.svn.5396.dfsg2-4 Failed [BUILDDEPS] #754713  RECHECK RECHECK_GUESS
enigma 1.20-dfsg.1-2 Failed [GCC_ERROR] #811826  RECHECK
enscribe 0.1.0-1.1 Failed [OLD_DEBHELPER] #817448  RECHECK
epwutil 1.1-8.1 Failed [OLD_DEBHELPER] #817449  RECHECK
erlang-bear 0.8.2+dfsg-1 Failed [UNKNOWN] NNN
erlang-bitcask 2.0.2+dfsg-1 Failed [UNKNOWN] NNN
erlang-cherly 0.12.8+dfsg-5 Failed [UNKNOWN] NNN
erlang-cowlib 1.3.0-1 Failed [UNKNOWN] NNN
erlang-cuttlefish 2.0.7+dfsg-1 Failed [UNKNOWN] NNN
erlang-folsom 0.8.2+dfsg-1 Failed [UNKNOWN] NNN
erlang-getopt 0.8.2+dfsg-1 Failed [UNKNOWN] NNN
erlang-jiffy 0.14.6+dfsg-1 Failed [UNKNOWN] NNN
erlang-meck 0.8.4+dfsg-1 Failed [UNKNOWN] NNN
etcd 2.3.7+dfsg-4 Failed [UNKNOWN] #835750: etcd: FTBFS: dh_auto_build: go install -v -p 1 github.com/coreos/etcd github.com/coreos/etcd/auth github.com/coreos/etcd/client github.com/coreos/etcd/compactor github.com/coreos/etcd/discovery github.com/coreos/etcd/error github.com/coreos/etcd/etcdctl github.com/coreos/etcd/etcdctl/command github.com/coreos/etcd/etcdmain github.com/coreos/etcd/etcdserver github.com/coreos/etcd/etcdserver/api/v3rpc github.com/coreos/etcd/etcdserver/api/v3rpc/rpctypes github.com/coreos/etcd/etcdserver/auth github.com/coreos/etcd/etcdserver/etcdhttp github.com/coreos/etcd/etcdserver/etcdhttp/httptypes github.com/coreos/etcd/etcdserver/etcdserverpb github.com/coreos/etcd/etcdserver/stats github.com/coreos/etcd/lease github.com/coreos/etcd/lease/leasehttp github.com/coreos/etcd/lease/leasepb github.com/coreos/etcd/pkg/adt github.com/coreos/etcd/pkg/contention github.com/coreos/etcd/pkg/cors github.com/coreos/etcd/pkg/crc github.com/coreos/etcd/pkg/fileutil github.com/coreos/etcd/pkg/flags github.com/coreos/etcd/pkg/httputil github.com/coreos/etcd/pkg/idutil github.com/coreos/etcd/pkg/ioutil github.com/coreos/etcd/pkg/logutil github.com/coreos/etcd/pkg/mock/mockstorage github.com/coreos/etcd/pkg/mock/mockstore github.com/coreos/etcd/pkg/mock/mockwait github.com/coreos/etcd/pkg/netutil github.com/coreos/etcd/pkg/osutil github.com/coreos/etcd/pkg/pathutil github.com/coreos/etcd/pkg/pbutil github.com/coreos/etcd/pkg/runtime github.com/coreos/etcd/pkg/schedule github.com/coreos/etcd/pkg/testutil github.com/coreos/etcd/pkg/transport github.com/coreos/etcd/pkg/types github.com/coreos/etcd/pkg/wait github.com/coreos/etcd/proxy github.com/coreos/etcd/raft github.com/coreos/etcd/raft/raftpb github.com/coreos/etcd/rafthttp github.com/coreos/etcd/snap github.com/coreos/etcd/snap/snappb github.com/coreos/etcd/storage github.com/coreos/etcd/storage/backend github.com/coreos/etcd/storage/storagepb github.com/coreos/etcd/store github.com/coreos/etcd/version github.com/coreos/etcd/wal github.com/coreos/etcd/wal/walpb returned exit code 2  RECHECK
evernote-mode 0.41-3.1 Failed [UNKNOWN] #754009  RECHECK
evil-el 1.2.12-1 Failed [TESTS_FAILURES] #829299  RECHECK
fail2ban 0.9.5-1 Failed [PYTHON_TRACEBACK/TESTS_FAILURES] #835707: fail2ban: FTBFS: Tests failures  RECHECK
fam 2.7.0-17.1 Failed [UNKNOWN] #816995  RECHECK
fauhdlc 20130704-1 Failed [GCC_ERROR] #835106  RECHECK
fb-music-high 0.1.2 Failed [OLD_DEBHELPER] #817450  RECHECK
fbpager 0.1.5~git20090221.1.8e0927e6-1.1 Failed [OLD_DEBHELPER] #817451  RECHECK
fedmsg 0.9.3-2 Failed [TESTS_FAILURES] #808654  RECHECK
fedmsg-meta-fedora-infrastructure 0.2.18-1 Failed [PYTHON_TRACEBACK] #797239  RECHECK
festvox-czech-dita 1.0.0-2 Failed [UNKNOWN] #750344  RECHECK
festvox-czech-krb 1.0.0-2 Failed [UNKNOWN] #753189  RECHECK
festvox-czech-machac 1.0.0-2 Failed [UNKNOWN] #753179  RECHECK
fftw 2.1.5-4 Failed [UNKNOWN] #837055
fityk 1.2.1-0.1 Failed [GCC_ERROR] #811800  RECHECK
flickrfs 1.3.9.1-9.2 Failed [UNKNOWN] #750288  RECHECK
fontmatrix 0.6.0+svn20110930-1.1 Failed [GCC_ERROR] #799311  RECHECK
fookb 3.0-3 Failed [OLD_DEBHELPER] #817456  RECHECK
fprobe-ulog 1.1-7.3 Failed [GCC_ERROR] #785518  RECHECK
fqterm 0.9.6.10-1.1 Failed [GCC_ERROR] #811872  RECHECK
fractalnow 0.8.1-1 Failed [BUILDDEPS] #836626
free42-nologo 1.4.77-1.1 Failed [GCC_ERROR] #811760  RECHECK
freefem3d 1.0pre10-3.3 Failed [OLD_DEBHELPER] #817460  RECHECK
freehdl 0.0.8-2.1 Failed [GCC_ERROR] #811804  RECHECK
freepwing 1.5-1 Failed [OLD_DEBHELPER] #817461  RECHECK
freetable 2.3-4.1 Failed [OLD_DEBHELPER] #817463  RECHECK
freewheeling 0.6-2 Failed [GCC_ERROR] #831163  RECHECK
frog 0.12.20-1 Failed [GCC_ERROR] #834558  RECHECK
fslview 4.0.1-6 Failed [BUILDDEPS] #749531  RECHECK
funny-manpages 1.3-5.1 Failed [OLD_DEBHELPER] #817332  RECHECK
fusesmb 0.8.7-1.3 Failed [OLD_DEBHELPER] #817465  RECHECK
gaim-librvp 0.9.5-3 Failed [OLD_DEBHELPER] #817467  RECHECK
galib 2.4.7-3.1 Failed [GCC_ERROR] #812053  RECHECK
gamin 0.1.10-5 Failed [UNKNOWN] NNN RECHECK
ganv 1.4.2~dfsg0-1.1 Failed [GCC_ERROR] #833969  RECHECK
garlic-doc 1.6-1 Failed [OLD_DEBHELPER] #817468  RECHECK
gauche-gtk 0.6~pre1+git20121223-1 Failed [GCC_ERROR] NNN RECHECK
gav-themes 0.7.3-2 Failed [OLD_DEBHELPER] #817470  RECHECK
gcc-5-cross 24 Failed [UNKNOWN] #835777: gcc-5-cross: FTBFS: patch fails to apply  RECHECK
gcc-5-cross-ports 10 Failed [UNKNOWN] #835692: gcc-5-cross-ports: FTBFS: patches fail to apply  RECHECK
gcc-6-cross 12 Failed [GCC_ERROR/LD_ERROR] #835732: gcc-6-cross: FTBFS: patch fails to apply  RECHECK
gcc-6-cross-ports 9 Failed [GCC_ERROR/LD_ERROR] #835714: gcc-6-cross-ports: FTBFS: patch fails to apply  RECHECK
gcc-arm-none-eabi 15:4.9.3+svn231177-1 Failed [GCC_ERROR] #831142  RECHECK
gcc-avr 1:4.9.2+Atmel3.5.0-1 Failed [GCC_ERROR] #831174  RECHECK
gcc-msp430 4.6.3~mspgcc-20120406-7 Failed [GCC_ERROR] #777863  RECHECK
gco 0.5.0-6.2 Failed [OLD_DEBHELPER] #817471  RECHECK
gcolor2 0.4-2.1 Failed [OLD_DEBHELPER] #817472  RECHECK
gcr 3.20.0-2 Failed [TESTS_FAILURES] #835737: gcr: FTBFS: Tests failures  RECHECK
gdb-msp430 7.2a~mspgcc-20111205-3 Failed [GCC_ERROR] #777867  RECHECK
gdebi 0.9.5.7 Failed [PYTHON_TRACEBACK/TESTS_FAILURES] #820693  RECHECK
gdeskcal 0.57.1-2.2 Failed [OLD_DEBHELPER] #817473  RECHECK
geki3 1.0.3-8 Failed [OLD_DEBHELPER] #817474  RECHECK
gemanx-gtk2 0.1.0.3-2 Failed [GCC_ERROR] #811755  RECHECK
genparse 0.9.1-1 Failed [SEGMENTATION_FAULT] #802190  RECHECK
git-build-recipe 0.3.2 Failed [PYTHON_TRACEBACK/TESTS_FAILURES] #835526  RECHECK
git-remote-hg 0.3-1 Failed [TESTS_FAILURES] #833907  RECHECK
git-repair 1.20151215-1 Failed [UNKNOWN] #826389  RECHECK
gjiten 2.6-2.3 Failed [OLD_DEBHELPER] #817334  RECHECK
gkermit 1.0-9 Failed [OLD_DEBHELPER] #817475  RECHECK
gkrellkam 2.0.0-1.1 Failed [OLD_DEBHELPER] #800215  RECHECK
gkrellm-leds 0.8.0-1.2 Failed [OLD_DEBHELPER] #817476  RECHECK
gkrellm-mailwatch 2.4.3-1 Failed [OLD_DEBHELPER] #817337  RECHECK
gkrellmoon 0.6-5 Failed [OLD_DEBHELPER] #817477  RECHECK
gkrellm-radio 2.0.4-1.1 Failed [OLD_DEBHELPER] #817339  RECHECK
gkrellm-volume 2.1.13-1 Failed [OLD_DEBHELPER] #817340  RECHECK
gkrellmwireless 2.0.3-1 Failed [OLD_DEBHELPER] #817341  RECHECK
gkrellshoot 0.4.4-1 Failed [OLD_DEBHELPER] #817478  RECHECK
gkrellweather 2.0.8-2 Failed [OLD_DEBHELPER] #817479  RECHECK
gkremldk 0.9.7-2.1 Failed [OLD_DEBHELPER] #817480  RECHECK
glob2 0.9.4.4-2.4 Failed [GCC_ERROR] #812167  RECHECK
gmt-tutorial 3.4-1.1 Failed [OLD_DEBHELPER] #817343  RECHECK
gnome-chemistry-utils 0.14.10-2 Failed [GCC_ERROR] #812164  RECHECK
gnome-color-chooser 0.2.5-1 Failed [UNKNOWN] #817295  RECHECK
gnome-python-desktop 2.32.0+dfsg-3 Failed [UNKNOWN] NNN RECHECK
gnudoq 0.94-2.1 Failed [OLD_DEBHELPER] #817484  RECHECK
gnuift 0.1.14-12.1 Failed [GCC_ERROR] #811899  RECHECK
gnumach 2:1.7+git20160809-2 Failed [BUILDDEPS] not on amd64  RECHECK
golang-git2go 0.0~git20150731.0.ed62fda-1 Failed [UNKNOWN] #799454  RECHECK
golang-github-armon-gomdb 0.0~git20150106.0.151f2e0-1 Failed [UNKNOWN] #819638  RECHECK
golang-github-digitalocean-godo 0.9.0-1 Failed [UNKNOWN] #835748: golang-github-digitalocean-godo: FTBFS: dh_auto_test: go test -v -p 1 github.com/digitalocean/godo github.com/digitalocean/godo/util returned exit code 1  RECHECK
golang-github-docker-go 0.0~git20160303.0.d30aec9-1 Failed [UNKNOWN] #835715: golang-github-docker-go: FTBFS: patches fail to apply  RECHECK
golang-github-hashicorp-raft-mdb 0.0~git20150806.0.55f2947-1 Failed [UNKNOWN] #819640  RECHECK
golang-github-jfrazelle-go 0.0~git20150906.0.a8e3e21-1 Failed [UNKNOWN] #835779: golang-github-jfrazelle-go: FTBFS: patches fail to apply  RECHECK
golang-github-jinzhu-gorm 0.0~git20151012.0.20e37a0-1 Failed [UNKNOWN] #819641  RECHECK
golang-gocheck 0.0~bzr20131118+85-2 Failed [UNKNOWN] #789991  RECHECK
golang-golang-x-tools 1:0.0~git20160315.0.f42ec61-2 Failed [TESTS_FAILURES] #835760: golang-golang-x-tools: FTBFS: Tests failures  RECHECK
golang-google-cloud 0.0~git20160413-1 Failed [UNKNOWN] #835742: golang-google-cloud: FTBFS: dh_auto_build: go install -v -p 1 google.golang.org/cloud google.golang.org/cloud/bigquery google.golang.org/cloud/bigtable google.golang.org/cloud/bigtable/bttest google.golang.org/cloud/bigtable/cmd/cbt google.golang.org/cloud/bigtable/cmd/loadtest google.golang.org/cloud/bigtable/internal/cbtrc google.golang.org/cloud/bigtable/internal/cluster_data_proto google.golang.org/cloud/bigtable/internal/cluster_service_proto google.golang.org/cloud/bigtable/internal/data_proto google.golang.org/cloud/bigtable/internal/duration_proto google.golang.org/cloud/bigtable/internal/empty google.golang.org/cloud/bigtable/internal/service_proto google.golang.org/cloud/bigtable/internal/table_data_proto google.golang.org/cloud/bigtable/internal/table_service_proto google.golang.org/cloud/compute/metadata google.golang.org/cloud/container google.golang.org/cloud/datastore google.golang.org/cloud/datastore/internal/proto google.golang.org/cloud/datastore/internal/type_proto google.golang.org/cloud/examples/bigquery/concat_table google.golang.org/cloud/examples/bigquery/load google.golang.org/cloud/examples/bigquery/query google.golang.org/cloud/examples/bigquery/read google.golang.org/cloud/examples/bigtable/bigtable-hello google.golang.org/cloud/examples/bigtable/search google.golang.org/cloud/examples/pubsub/cmdline google.golang.org/cloud/examples/pubsub/consumer google.golang.org/cloud/examples/storage/appengine google.golang.org/cloud/examples/storage/appenginevm google.golang.org/cloud/internal google.golang.org/cloud/internal/opts google.golang.org/cloud/internal/testutil google.golang.org/cloud/internal/transport google.golang.org/cloud/logging google.golang.org/cloud/pubsub google.golang.org/cloud/storage returned exit code 2  RECHECK
golang-go.tools 0.0~hg20140703-4 Failed [UNKNOWN] #835780: golang-go.tools: FTBFS: dh_auto_build: go install -v -p 1 code.google.com/p/go.tools/astutil code.google.com/p/go.tools/blog code.google.com/p/go.tools/blog/atom code.google.com/p/go.tools/cmd/benchcmp code.google.com/p/go.tools/cmd/eg code.google.com/p/go.tools/cmd/godex code.google.com/p/go.tools/cmd/goimports code.google.com/p/go.tools/cmd/gotype code.google.com/p/go.tools/cmd/html2article code.google.com/p/go.tools/cmd/oracle code.google.com/p/go.tools/cmd/present code.google.com/p/go.tools/cmd/ssadump code.google.com/p/go.tools/cmd/vet/whitelist code.google.com/p/go.tools/container/intsets code.google.com/p/go.tools/cover code.google.com/p/go.tools/dashboard/builder code.google.com/p/go.tools/dashboard/updater code.google.com/p/go.tools/go/callgraph code.google.com/p/go.tools/go/exact code.google.com/p/go.tools/go/gccgoimporter code.google.com/p/go.tools/go/gcimporter code.google.com/p/go.tools/go/importer code.google.com/p/go.tools/go/loader code.google.com/p/go.tools/go/pointer code.google.com/p/go.tools/go/ssa code.google.com/p/go.tools/go/ssa/interp code.google.com/p/go.tools/go/ssa/ssautil code.google.com/p/go.tools/go/types code.google.com/p/go.tools/go/types/typeutil code.google.com/p/go.tools/go/vcs code.google.com/p/go.tools/godoc code.google.com/p/go.tools/godoc/analysis code.google.com/p/go.tools/godoc/redirect code.google.com/p/go.tools/godoc/static code.google.com/p/go.tools/godoc/util code.google.com/p/go.tools/godoc/vfs code.google.com/p/go.tools/godoc/vfs/gatefs code.google.com/p/go.tools/godoc/vfs/httpfs code.google.com/p/go.tools/godoc/vfs/mapfs code.google.com/p/go.tools/godoc/vfs/zipfs code.google.com/p/go.tools/imports code.google.com/p/go.tools/oracle code.google.com/p/go.tools/oracle/serial code.google.com/p/go.tools/playground code.google.com/p/go.tools/playground/socket code.google.com/p/go.tools/present code.google.com/p/go.tools/refactor/eg returned exit code 1  RECHECK
golang-go-xdg 0~bzr20140219-1 Failed [UNKNOWN] #830446: golang-go-xdg: FTBFS: dh_auto_test: go test -v launchpad.net/go-xdg/v0 returned exit code 1  RECHECK
golang-goyaml 0.0~bzr50-1 Failed [UNKNOWN] #835613  RECHECK
golang-rrd 0.0~git20131112-1 Failed [GCC_ERROR/LD_ERROR] #830449: golang-rrd: FTBFS: ld: cannot find -lrrd_th  RECHECK
goldencheetah 4.0.0~DEV1607-1 Failed [BUILDDEPS] #835769: goldencheetah: FTBFS: build-dependency not installable: libnss3-1d  RECHECK
golint 0.0+git20150623.7b7f436-1 Failed [UNKNOWN] #835685: golint: FTBFS: dh_auto_test: go test -v -p 1 github.com/golang/lint github.com/golang/lint/golint returned exit code 1  RECHECK
google-auth-library-php 0.6-1 Failed [BUILDDEPS] #817754  RECHECK
gopacket 1.1.11-2 Failed [UNKNOWN] #830433: gopacket: FTBFS: dh_auto_test: go test -v github.com/google/gopacket github.com/google/gopacket/afpacket github.com/google/gopacket/bytediff github.com/google/gopacket/dumpcommand github.com/google/gopacket/ip4defrag github.com/google/gopacket/layers github.com/google/gopacket/macs github.com/google/gopacket/pcap github.com/google/gopacket/pcapgo github.com/google/gopacket/pfring github.com/google/gopacket/routing github.com/google/gopacket/tcpassembly github.com/google/gopacket/tcpassembly/tcpreader returned exit code 1  RECHECK
gotmail 0.9.0-1 Failed [OLD_DEBHELPER] #817486  RECHECK
gpsd 3.16-2 Failed [GCC_ERROR] #830993  RECHECK
gpsshogi 0.6.0-3+nmu2 Failed [GCC_ERROR] #811689  RECHECK
grafana 2.6.0+dfsg-3 Failed [UNKNOWN] #828814  RECHECK
grail 3.1.0-2 Failed [GCC_ERROR] #811588  RECHECK
granule 1.4.0-7-5 Failed [GCC_ERROR] #805203  RECHECK
grap 1.44-1 Failed [BUILDDEPS] #836627
gri 2.12.23-9 Failed [UNKNOWN] #818449  RECHECK
gridengine 8.1.9+dfsg-1 Failed [GCC_ERROR] NNN RECHECK
grpc 0.12.0-1 Failed [GCC_ERROR] #831250  RECHECK
gsmartcontrol 0.8.7-1.1 Failed [BUILDDEPS] #836628
gtest 1.7.0-4 Failed [PYTHON_TRACEBACK/TESTS_FAILURES] #823447  RECHECK
gtk2-engines-wonderland 1.0-10 Failed [UNKNOWN] #818513  RECHECK
gtkimageview 1.6.4+dfsg-1 Failed [GCC_ERROR] #831117  RECHECK
gtkterm 0.99.7~rc1-0.2 Failed [OLD_DEBHELPER] #817489  RECHECK
gts 0.7.6+darcs121130-1.2 Failed [TESTS_FAILURES] #831245  RECHECK
guacamole-client 0.8.3-1.2 Failed [UNKNOWN] #832846: guacamole-client: FTBFS: Could not resolve dependencies for project org.glyptodon.guacamole:guacamole-common:jar:0.8.0  RECHECK
guacamole-server 0.8.3-2 Failed [GCC_ERROR] #827300  RECHECK
guile-gnome-platform 2.16.2-2 Failed [UNKNOWN] #830406: guile-gnome-platform: FTBFS: tests failed  RECHECK
gupnp-igd 0.2.4-1 Failed [UNKNOWN] NNN RECHECK
gurgitate-mail 1.10.0-1 Failed [UNKNOWN] #805158  RECHECK
hashcash 1.21-1.1 Failed [OLD_DEBHELPER] #817490  RECHECK
hebcal 3.5-2 Failed [OLD_DEBHELPER] #817493  RECHECK
hepmc 2.06.09-1 Failed [UNKNOWN] #777901  RECHECK
hg-git 0.8.5-3 Failed [TESTS_FAILURES] #835611  RECHECK
highlight.js 8.2+ds-4 Failed [UNKNOWN] #830189  RECHECK
hmat-oss 1.0.4-2 Failed [GCC_ERROR] #831143  RECHECK
horizon 3:9.0.1-2 Failed [PYTHON_TRACEBACK/PYIMPORT/TESTS_FAILURES] #832338  RECHECK
hp-ppd 0.9-0.2 Failed [OLD_DEBHELPER] #817495  RECHECK
htmlunit 2.8-1 Failed [UNKNOWN] #730965  RECHECK
httpfs2 0.1.4-1 Failed [GCC_ERROR] #818563  RECHECK
hupnp 1.0.0-1 Failed [GCC_ERROR] #811632  RECHECK
hurd 1:0.8.git20160826-1 Failed [BUILDDEPS] not on amd64  RECHECK
hyde 0.8.5a1-4 Failed [PYTHON_TRACEBACK] #832878: hyde: FTBFS: urllib2.URLError: <urlopen error [SSL: CERTIFICATE_VERIFY_FAILED] certificate verify failed (_ssl.c:590)>  RECHECK
hyperrogue 4.2+dfsg-1 Failed [GCC_ERROR] #811991  RECHECK
ifstat 1.1-8 Failed [OLD_DEBHELPER] #817499  RECHECK
iisemulator 0.95-3 Failed [OLD_DEBHELPER] #817500  RECHECK
imagevis3d 3.1.0-4 Failed [GCC_ERROR/LD_ERROR] #835416  RECHECK
imapcopy 1.04-2 Failed [UNKNOWN] #818448  RECHECK
imms 3.1.0~svn301-3.2 Failed [GCC_ERROR] #831101  RECHECK
imview-doc 1.0.1-3 Failed [OLD_DEBHELPER] #817502  RECHECK
influxdb 0.13.0+dfsg1-4 Failed [UNKNOWN] #835336  RECHECK
inn 1:1.7.2q-44.1 Failed [BUILDDEPS] #779745  RECHECK
installation-locale 1.6 Failed [UNKNOWN] NNN RECHECK
ion 3.2.1+dfsg-1 Failed [GCC_ERROR] #811582  RECHECK
ipcheck 0.233-1.1 Failed [OLD_DEBHELPER] #800289  RECHECK
ipython 2.4.1-1 Failed [PYTHON_TRACEBACK/PYIMPORT] #830369: ipython: FTBFS: ImportError: No module named Crypto  RECHECK
ivtools 1.2.11a1-7 Failed [GCC_ERROR] #835747: ivtools: FTBFS: src/Attribute/attrlist.cc:514:35: error: call of overloaded 'abs(unsigned int)' is ambiguous  RECHECK
jablicator 1.0.1 Failed [OLD_DEBHELPER] #817506  RECHECK
jamin 0.97.14~cvs~81203-4 Failed [UNKNOWN] #818390  RECHECK
jasperreports 6.2.2-2 Failed [BUILDDEPS] #835729: jasperreports: FTBFS: build-dependency not installable: libitext-java (>= 2.1.7-11~)  RECHECK
jbofihe 0.38-5.1 Failed [OLD_DEBHELPER] #800254  RECHECK
jfsutils 1.1.15-2.1 Failed [OLD_DEBHELPER] #817508  RECHECK
jitsi 2.5.5313-1 Failed [BUILDDEPS] #831232  RECHECK
jless 382-iso262-3 Failed [OLD_DEBHELPER] #828895  RECHECK
jruby 1.7.22-2 Failed [UNKNOWN] #821181  RECHECK
juke 0.7-4 Failed [OLD_DEBHELPER] #817510  RECHECK
jwchat 1.0+dfsg-1.3 Failed [UNKNOWN] NNN
kadu-mime-tex 2.1-1.1 Failed [BUILDDEPS] #824959  RECHECK
kate 4:16.04.2-1 Failed [UNKNOWN] #835726: kate: FTBFS: dh_install: missing files, aborting  RECHECK
kcollectd 0.9-2.1 Failed [GCC_ERROR] #831129  RECHECK
kdepim 4:16.04.3-1 Failed [UNKNOWN] #835738: kdepim: FTBFS: dh_install: missing files, aborting  RECHECK
kdevelop-python 1.7.3-1 Failed [BUILDDEPS] #820186  RECHECK
kerberos-configs 2.3 Failed [UNKNOWN] NNN RECHECK
keyboards-rg 0.2 Failed [OLD_DEBHELPER] #817511  RECHECK
kfreebsd-10 10.3~svn300087-1 Failed [UNKNOWN] NNN
kftpgrabber 0.8.99~svn1214766-1 Failed [GCC_ERROR] #811874  RECHECK
kgb-bot 1.33-2 Failed [BUILD_TIMEOUT/TESTS_FAILURES] #834597  RECHECK
khmerconverter 1.4-1.1 Failed [PYTHON_TRACEBACK] #817298  RECHECK
kicad 4.0.2+dfsg1-4 Failed [GCC_ERROR] #834246  RECHECK
kido 0.1.0+dfsg-2 Failed [BUILDDEPS] #835734: kido: FTBFS: FCLCollisionNode.cpp:354:5: error: 'boost' has not been declared  RECHECK RECHECK_VERSION
kimwitu 4.6.1-7.1 Failed [OLD_DEBHELPER] #829745  RECHECK
kmess 2.0.6.1-3.1 Failed [GCC_ERROR] #831178  RECHECK
kmflcomp 0.9.8-1.1 Failed [OLD_DEBHELPER] #817512  RECHECK
kon2 0.3.9b-20 Failed [UNKNOWN] #815605  RECHECK
konsole 4:16.04.2-1 Failed [UNKNOWN] #835753: konsole: FTBFS: dh_install: missing files, aborting  RECHECK
konversation 1.6.2-1 Failed [UNKNOWN] #835580  RECHECK
krfb 4:16.04.0-1 Failed [GCC_ERROR] #831090  RECHECK
kterm 6.2.0-46.1 Failed [OLD_DEBHELPER] #817514  RECHECK
ktp-accounts-kcm 15.08.3-2 Failed [UNKNOWN] #830404: ktp-accounts-kcm: FTBFS: dh_install: missing files, aborting  RECHECK
ktp-call-ui 0.9.0-2 Failed [BUILDDEPS] #806917
kvirc 4:4.2.0-2 Failed [GCC_ERROR] #811908  RECHECK
kyotocabinet 1.2.76-4.1 Failed [GCC_ERROR] #811627  RECHECK
kyototycoon 0.9.56-1 Failed [GCC_ERROR] #811628  RECHECK
kytea 0.4.6+dfsg-2 Failed [GCC_ERROR] #804356  RECHECK
lakai 0.1-1 Failed [OLD_DEBHELPER] #817516  RECHECK
ldap2dns 0.3.1-3.1 Failed [OLD_DEBHELPER] #817522  RECHECK
ledger 3.1.1+dfsg1-1 Failed [GCC_ERROR] #833753  RECHECK
le-dico-de-rene-cougnenc 1.3-2.1 Failed [OLD_DEBHELPER] #800206  RECHECK
libapache2-mod-authn-yubikey 1.0-1.1 Failed [UNKNOWN] #725536  RECHECK
libapache2-mod-encoding 20040616-5.2 Failed [OLD_DEBHELPER] #817517  RECHECK
libapache-mod-encoding 0.0.20021209-10 Failed [OLD_DEBHELPER] #817519  RECHECK
libapache-mod-log-sql 1.100-16.2 Failed [BUILDDEPS] #830362: libapache-mod-log-sql: FTBFS: build-dependency not installable: libmysqlclient15-dev  RECHECK
libapache-mod-removeip 1.0b-5.1 Failed [OLD_DEBHELPER] #817521  RECHECK
libaria 2.8.0+repack-1 Failed [GCC_ERROR] #811653  RECHECK
libarray-refelem-perl 1.00-1.1 Failed [OLD_DEBHELPER] #817523  RECHECK
libaudio-scrobbler-perl 0.01-2.1 Failed [OLD_DEBHELPER] #817524  RECHECK
libavg 1.8.1-2.1 Failed [GCC_ERROR] #811836  RECHECK
libblocksruntime 0.4.1-1 Failed [CLANG_ERROR/CONFIGURE_ERROR] #832015  RECHECK
libcgicc 3.2.9-3 Failed [GCC_ERROR] #811988  RECHECK
libcgi-ssi-parser-perl 0.01-1.1 Failed [OLD_DEBHELPER] #817595  RECHECK
libconfig-model-dpkg-perl 2.083 Failed [TESTS_FAILURES] NNN
libconfig-model-itself-perl 2.005-1 Failed [TESTS_FAILURES] #837133
libconfig-record-perl 1.1.2-1 Failed [UNKNOWN] NNN
libcorelinux 0.4.32-7.4 Failed [OLD_DEBHELPER] #800232  RECHECK
libdata-dumpxml-perl 1.06-1 Failed [OLD_DEBHELPER] #817596  RECHECK
libdata-messagepack-stream-perl 0.07-1 Failed [GCC_ERROR] #815433 RECHECK
libdbi-drivers 0.9.0-4 Failed [UNKNOWN] NNN
libdbix-class-perl 0.082840-1 Failed [TESTS_FAILURES] #835731: libdbix-class-perl: FTBFS: Tests failures  RECHECK
libdebian-package-html-perl 0.1-2 Failed [OLD_DEBHELPER] #817597  RECHECK
libdist-zilla-plugins-cjm-perl 4.27-1 Failed [TESTS_FAILURES] #834730  RECHECK
libdshconfig 0.20.13-1.1 Failed [OLD_DEBHELPER] #817526  RECHECK
libevocosm 4.0.2-3 Failed [BUILDDEPS] #836631
libexpect-php5 0.3.1-1 Failed [GCC_ERROR] #755336  RECHECK
libgda5 5.2.4-1 Failed [GCC_ERROR] #811068  RECHECK
libgd-perl 2.53-2.1 Failed [UNKNOWN] #825629  RECHECK
libgedcom-perl 1.19-2 Failed [TESTS_FAILURES] #795206  RECHECK
libgetopt++ 0.0.2-p22-3.1 Failed [GCC_ERROR] #811593  RECHECK
libgnupg-perl 0.19-1 Failed [TESTS_FAILURES] #834522  RECHECK
libgrip 0.3.8-1 Failed [GCC_ERROR] #789940  RECHECK
libgtk3-perl 0.028-1 Failed [TESTS_FAILURES] #837136
libhttp-daemon-ssl-perl 1.04-3 Failed [TESTS_FAILURES] #711628  RECHECK
libical-parser-sax-perl 1.09-3 Failed [UNKNOWN] #806544  RECHECK
libimage-info-perl 1.28-1.2 Failed [UNKNOWN] NNN
libint2 2.1.0-1 Failed [GCC_ERROR] #823803  RECHECK
libjavascript-rpc-perl 0.10-1.2 Failed [OLD_DEBHELPER] #817533  RECHECK
libkmfl 0.9.8-1 Failed [OLD_DEBHELPER] #817535  RECHECK
libkqueue 2.0.3-1.1 Failed [GCC_ERROR] #831076  RECHECK
liblightify 0~git20160607-1 Failed [GCC_ERROR] NNN RECHECK
libmail-gnupg-perl 0.22-1 Failed [UNKNOWN] #835075  RECHECK
libmail-verify-perl 0.02-5 Failed [OLD_DEBHELPER] #817540  RECHECK
libmath-gsl-perl 0.36-2 Failed [GCC_ERROR] #826192  RECHECK
libmemcache 1.4.0.rc2-1.1 Failed [GCC_ERROR] #811891  RECHECK
libmlx4 1.0.6-1 Failed [GCC_ERROR] #819857  RECHECK
libmsn 4.2.1+dfsg-1 Failed [BUILDDEPS] #836634 RECHECK
libnet-finger-perl 1.06-6 Failed [OLD_DEBHELPER] #817542  RECHECK
libnet-jifty-perl 0.14-1 Failed [TESTS_FAILURES] #825608  RECHECK
libnet-nbname-perl 0.26-1.1 Failed [OLD_DEBHELPER] #817543  RECHECK
libopenraw 0.0.9-3.9 Failed [UNKNOWN] #828896  RECHECK
libosl 0.6.0-3.4 Failed [GCC_ERROR] #811692  RECHECK
libpam-mount 2.14-1.1 Failed [BUILDDEPS] #836635
libpam-radius-auth 1.3.16-4.4 Failed [OLD_DEBHELPER] #817544  RECHECK
libphonenumber 7.1.0-4 Failed [GCC_ERROR] #836768 RECHECK
libpoe-api-peek-perl 2.2000-1 Failed [TESTS_FAILURES] #789381  RECHECK
libppd 2:0.10-7.2 Failed [OLD_DEBHELPER] #817545  RECHECK
libproc-syncexec-perl 1.01-1.1 Failed [OLD_DEBHELPER] #800304  RECHECK
libqalculate 0.9.7-9.1 Failed [GCC_ERROR] #811862  RECHECK
librevisa 0.0.20130812-2 Failed [UNKNOWN] #830371: librevisa: FTBFS: dh_auto_test: make -j1 check VERBOSE=1 returned exit code 2  RECHECK
libsigc++-1.2 1.2.7-2 Failed [OLD_DEBHELPER] #817551  RECHECK
libswe-doc 1.80.00.0001-1 Failed [BUILDDEPS] #783936  RECHECK
libsys-info-base-perl 0.7804-1 Failed [UNKNOWN] NNN
libterm-readline-zoid-perl 0.07-2 Failed [OLD_DEBHELPER] #817555  RECHECK
libtest-aggregate-perl 0.374-1 Failed [BUILDDEPS] #832127
libtest-file-perl 1.44-1 Failed [TESTS_FAILURES] NNN
libtkx-perl 1.09-1 Failed [TESTS_FAILURES] #824046  RECHECK
libtruth-java 0.7.0-1 Failed [BUILDDEPS] #761544  RECHECK
libtuxcap 1.4.0.dfsg2-2.2 Failed [GCC_ERROR] #811785  RECHECK
libucimf 2.3.8-7 Failed [GCC_ERROR] #822699  RECHECK
libusbtc08 1.7.2-5 Failed [UNKNOWN] #811980  RECHECK
libv8-3.14 3.14.5.8-10 Failed [GCC_ERROR] #831161  RECHECK
libvisca 1.0.1-1.1 Failed [UNKNOWN] #826671  RECHECK
libweather-com-perl 0.5.3-2 Failed [OLD_DEBHELPER] #817558  RECHECK
libwww-indexparser-perl 0.91-1 Failed [OLD_DEBHELPER] #817561  RECHECK
libxml-dumper-perl 0.81-1.1 Failed [OLD_DEBHELPER] #830410: libxml-dumper-perl: FTBFS: make[1]: *** No rule to make target 'clean'. Stop.  RECHECK
libxml-easyobj-perl 1.12-3 Failed [TESTS_FAILURES] #797289  RECHECK
libxml-validate-perl 1.025-2 Failed [TESTS_FAILURES] #720666  RECHECK
libzypp 15.3.0-1 Failed [GCC_ERROR] #797867  RECHECK
license-reconcile 0.11 Failed [UNKNOWN] #832840: license-reconcile: FTBFS: dh_auto_test: perl Build test --verbose 1 returned exit code 255  RECHECK
lilypond 2.18.2-4.1 Failed [BUILDDEPS] #746005  RECHECK
linbox 1.3.2-1.1 Failed [BUILDDEPS] #811990  RECHECK
linklint 2.3.5-5 Failed [OLD_DEBHELPER] #817566  RECHECK
linthesia 0.4.3-1 Failed [GCC_ERROR] #835117  RECHECK
linuxdcpp 1.1.0-1 Failed [GCC_ERROR] #811868  RECHECK
litecoin 0.10.4.0-1 Failed [GCC_ERROR] #811917  RECHECK
llvm-toolchain-3.5 1:3.5.2-3 Failed [UNKNOWN] #835764: llvm-toolchain-3.5: FTBFS: make[1]: gcc-6.1: Command not found  RECHECK
llvm-toolchain-3.6 1:3.6.2-3 Failed [UNKNOWN] #835582  RECHECK
llvm-toolchain-3.7 1:3.7.1-2 Failed [UNKNOWN] #835709: llvm-toolchain-3.7: FTBFS: make[1]: gcc-6.1: Command not found  RECHECK
logtools 0.13d Failed [OLD_DEBHELPER] #800258  RECHECK
louie 1.1-2 Failed [OLD_DEBHELPER] #829181  RECHECK
lpr 1:2008.05.17.1 Failed [OLD_DEBHELPER] #817569  RECHECK
ltrace 0.7.3-5.1 Failed [GCC_ERROR] NNN RECHECK
macs 2.1.1.20160309-1 Failed [GCC_ERROR] #835674: macs: FTBFS: MACS2/IO/PeakIO.c:1:2: error: #error Do not use this file, it is the result of a failed Cython compilation.  RECHECK
magnum 2.0.0-6 Failed [PYTHON_TRACEBACK/PYIMPORT/TESTS_FAILURES] #835100  RECHECK
mahimahi 0.93-1 Failed [BUILDDEPS] #822380  RECHECK RECHECK_VERSION RECHECK_GUESS
mailavenger 0.8.4-4 Failed [GCC_ERROR] #812137  RECHECK
mail-expire 0.7 Failed [OLD_DEBHELPER] #817572  RECHECK
makepp 2.0.98.5-1 Failed [UNKNOWN] #835192
mako 1.0.4+ds1-1 Failed [UNKNOWN] #830178  RECHECK
maloc 0.2-3 Failed [OLD_DEBHELPER] #817574  RECHECK
manila-ui 2.1.0-2 Failed [BUILDDEPS] NNN
mapsembler2 2.2.3+dfsg-2 Failed [GCC_ERROR/LD_ERROR] #797526  RECHECK
marble 4:16.04.1-3 Failed [UNKNOWN] #835766: marble: FTBFS: dh_makeshlibs: failing due to earlier errors  RECHECK
mate-applets 1.14.1-1 Failed [GCC_ERROR/LD_ERROR] NNN RECHECK
mathcomp 1.5-4 Failed [BUILDDEPS] #832877: mathcomp: FTBFS: build-dependency not installable: libssreflect-coq (>= 1.5)  RECHECK
mathgl 2.3.4-1 Failed [GCC_ERROR] #835680: mathgl: FTBFS: complex_io.cpp:32:18: fatal error: hdf5.h: No such file or directory  RECHECK
mcrl2 201409.0-1 Failed [GCC_ERROR] #811860  RECHECK
mendexk 2.6e-3.2 Failed [OLD_DEBHELPER] #817579  RECHECK
meshlab 1.3.2+dfsg1-2 Failed [GCC_ERROR] #811634  RECHECK
metacity-themes 1.0.11 Failed [UNKNOWN] NNN
mffm-fftw 1.7-3 Failed [OLD_DEBHELPER] #817581  RECHECK
mh-book 200605-1 Failed [OLD_DEBHELPER] #817583  RECHECK
midge 0.2.41-2 Failed [OLD_DEBHELPER] #817584  RECHECK
milter-greylist 4.5.11-1 Failed [GCC_ERROR/LD_ERROR] #830418: milter-greylist: FTBFS: lex.yy.c:1200: undefined reference to `yywrap'  RECHECK
miniupnpd 1.8.20140523-4 Failed [GCC_ERROR] #818413  RECHECK
mldemos 0.5.1-3 Failed [GCC_ERROR] #812032  RECHECK
mlpy 2.2.0~dfsg1-3 Failed [UNKNOWN] #807216  RECHECK
mmpong 0.9.1-3 Failed [UNKNOWN] #811306  RECHECK
mochiweb 2.15.1-1 Failed [TESTS_FAILURES] NNN
mod-gnutls 0.7.5-2 Failed [TESTS_FAILURES] #835770: mod-gnutls: FTBFS: Tests failures  RECHECK
moksha.common 1.2.3-2 Failed [UNKNOWN] #803048  RECHECK
monitoring-plugins 2.1.2-2 Failed [BUILDDEPS] #822337 RECHECK
monkeysphere 0.39-1 Failed [UNKNOWN] #835719: monkeysphere: FTBFS: /<<PKGBUILDDIR>>/tests/../src/share/m/subkey_to_ssh_agent: line 123: agent-transfer: command not found  RECHECK
monogame 2.5.1+dfsg-4 Failed [BUILDDEPS] #765120  RECHECK
mopidy-mpris 1.3.1-1 Failed [UNKNOWN] #815739  RECHECK
mozart 1.4.0-8.1 Failed [BUILDDEPS] not on amd64  RECHECK
mozart-stdlib 20060615-6 Failed [BUILDDEPS] not on amd64  RECHECK
mozjs 1.8.5-1.0.0+dfsg-4.5 Failed [GCC_ERROR] #811665  RECHECK
mp3blaster 1:3.2.5-3 Failed [GCC_ERROR] #811790  RECHECK
mp3rename 0.6-9 Failed [OLD_DEBHELPER] #800274  RECHECK
mp3report 1.0.2-3 Failed [OLD_DEBHELPER] #817588  RECHECK
mpqc 2.3.1-16.1 Failed [GCC_ERROR] #806081  RECHECK
mricron 0.20140804.1~dfsg.1-1 Failed [UNKNOWN] #813718  RECHECK
mrtrix 0.2.12-2 Failed [GCC_ERROR] #816570  RECHECK
mswatch 1.2.0-2.1 Failed [GCC_ERROR] #811699  RECHECK
muddleftpd 1.3.13.1-4.3 Failed [OLD_DEBHELPER] #817590  RECHECK
munin 2.0.25-2 Failed [UNKNOWN] #835206 RECHECK
murano 1:2.0.1-1 Failed [PYTHON_TRACEBACK/PYIMPORT/TESTS_FAILURES] #835101  RECHECK
murano-dashboard 1:2.0.0-5 Failed [BUILDDEPS] NNN
music 1.0.7-1.2 Failed [GCC_ERROR] #811907  RECHECK
myspell 1:3.0+pre3.1-24.1 Failed [OLD_DEBHELPER] #817592  RECHECK
nagios3 3.5.1.dfsg-2.1 Failed [BUILDDEPS] #836638
nagios-plugin-check-multi 0.26-2 Failed [TESTS_FAILURES] #808737  RECHECK
nam 1.15-3.1 Failed [GCC_ERROR] #811737  RECHECK
naspro-core 0.5.1-2 Failed [GCC_ERROR] NNN RECHECK
nast 0.2.0-6 Failed [BUILDDEPS] #836639
nautic 1.5-1.1 Failed [GCC_ERROR] #811740  RECHECK
nbibtex 0.9.18-11 Failed [UNKNOWN] #812704  RECHECK
ncap 1.9.2-2.1 Failed [GCC_ERROR] #811930  RECHECK
ncc 2.8-2 Failed [GCC_ERROR] #811745  RECHECK
ndoutils 1.4b9-1.1 Failed [BUILDDEPS] #790470
nemiver 0.9.6-1 Failed [GCC_ERROR] #822502  RECHECK
neotoma 1.7.3+dfsg-1 Failed [UNKNOWN] NNN
netexpect 0.22-2 Failed [GCC_ERROR] #804369  RECHECK
netmrg 0.20-7 Failed [BUILDDEPS] #790454  RECHECK
netsurf 3.2+dfsg-3 Failed [GCC_ERROR] #812279  RECHECK
newmat 1.10.4-5 Failed [UNKNOWN] #812280  RECHECK
nfstrace 0.4.2-2 Failed [GCC_ERROR] #835644  RECHECK
ng 1.5~beta1-3.1 Failed [OLD_DEBHELPER] #817593  RECHECK
ngetty 1.1-3 Failed [GCC_ERROR] #829550  RECHECK
node-contextify 0.1.6-1 Failed [GCC_ERROR] #802101  RECHECK
node-iconv 2.1.11-1 Failed [TESTS_FAILURES] NNN
node-postgres 0.13.3-1 Failed [GCC_ERROR] #802213  RECHECK
node-redis 0.12.1-2 Failed [TESTS_FAILURES] #830215  RECHECK
node-starttls 1.0.1-1 Failed [TESTS_FAILURES] #819715  RECHECK
node-xmpp 0.3.2-2 Failed [UNKNOWN] #719401  RECHECK
node-zipfile 0.5.0+ds-1 Failed [GCC_ERROR] #802351  RECHECK
node-zlib 1.0.5-1 Failed [UNKNOWN] #719368  RECHECK
notary 0.1~ds1-1 Failed [UNKNOWN] #835782: notary: FTBFS: dh_auto_build: go install -v -p 1 github.com/docker/notary github.com/docker/notary/client github.com/docker/notary/client/changelist github.com/docker/notary/cmd/notary github.com/docker/notary/cmd/notary-server github.com/docker/notary/cryptoservice github.com/docker/notary/errors github.com/docker/notary/keystoremanager github.com/docker/notary/passphrase github.com/docker/notary/proto github.com/docker/notary/server github.com/docker/notary/server/handlers github.com/docker/notary/server/storage github.com/docker/notary/server/timestamp github.com/docker/notary/signer github.com/docker/notary/signer/api github.com/docker/notary/signer/client github.com/docker/notary/signer/keydbstore github.com/docker/notary/signer/keys github.com/docker/notary/trustmanager github.com/docker/notary/trustmanager/yubikey github.com/docker/notary/tuf github.com/docker/notary/tuf/client github.com/docker/notary/tuf/data github.com/docker/notary/tuf/encrypted github.com/docker/notary/tuf/keys github.com/docker/notary/tuf/signed github.com/docker/notary/tuf/store github.com/docker/notary/tuf/testutils github.com/docker/notary/tuf/utils github.com/docker/notary/utils github.com/docker/notary/version returned exit code 1  RECHECK
ns2 2.35+dfsg-2 Failed [GCC_ERROR] #811808  RECHECK
nut 2.7.4-3 Failed [UNKNOWN] #835703: nut: FTBFS: dh_makeshlibs: failing due to earlier errors  RECHECK
nvidia-texture-tools 2.0.8-1+dfsg-8 Failed [GCC_ERROR] #811612  RECHECK
nzb 0.2-1 Failed [GCC_ERROR] #811727  RECHECK
obfsproxy 0.2.13-1 Failed [PYTHON_TRACEBACK/TESTS_FAILURES] NNN
objcryst-fox 1.9.6.0-2.1 Failed [GCC_ERROR] #811919  RECHECK
obnam 1.19.1-1 Failed [PYTHON_TRACEBACK/TESTS_FAILURES] #735809  RECHECK
ocamlduce 3.12.1.0-1 Failed [UNKNOWN] #738423  RECHECK
odin 2.0.2-0.3 Failed [BUILDDEPS] #835746: odin: FTBFS: seqgradspiral.cpp:30:71: error: no matching function for call to 'max(double, float)'  RECHECK RECHECK_GUESS
oidua 0.16.1-7 Failed [OLD_DEBHELPER] #830392: oidua: FTBFS: dh_clean: Please specify the compatibility level in debian/compat  RECHECK
olpc-xo1 0.3 Failed [OLD_DEBHELPER] #817602  RECHECK
oneliner-el 0.3.6-7.1 Failed [UNKNOWN] #712321  RECHECK
ooolib-perl 0.1.9-1 Failed [OLD_DEBHELPER] #817604  RECHECK
opal 3.10.10~dfsg2-2 Failed [GCC_ERROR] #811835  RECHECK
openafs 1.6.18.3-1 Failed [BUILDDEPS] #836642
open-axiom 1.5.0~svn3056+ds-1 Failed [GCC_ERROR] #778041  RECHECK
openbabel 2.3.2+dfsg-2.3 Failed [GCC_ERROR] #834249  RECHECK
opencv 2.4.9.1+dfsg-2 Failed [GCC_ERROR] #828928  RECHECK
open-invaders 0.3-4.1 Failed [GCC_ERROR] #811654  RECHECK
openjade1.3 1.3.2-13 Failed [OLD_DEBHELPER] #800200  RECHECK
openjade 1.4devel1-21.1 Failed [OLD_DEBHELPER] #817606  RECHECK
openjdk-8-jre-dcevm 8u74-1 Failed [GCC_ERROR] #831153  RECHECK
openjfx 8u102-b14-1 Failed [GCC_ERROR] NNN RECHECK
openload 0.1.2-2 Failed [OLD_DEBHELPER] #817607  RECHECK
opensips 2.1.2-2 Failed [BUILDDEPS] #823112
opensurgsim 0.6.0-6 Failed [BUILDDEPS] #831096  RECHECK RECHECK_VERSION RECHECK_GUESS
openwince-include 0.3.2-3.1 Failed [OLD_DEBHELPER] #800192  RECHECK
openwince-jtag 0.5.1-6 Failed [OLD_DEBHELPER] #800197  RECHECK
osdsh 0.7.0-10.1 Failed [OLD_DEBHELPER] #817610  RECHECK
osptoolkit 4.11.3+dfsg-1 Failed [GCC_ERROR] #830444: osptoolkit: FTBFS: src/osptransapi.c:1041:13: error: non-floating-point argument in call to function '__builtin_isnan'  RECHECK
osspsa 1.2.6-1 Failed [OLD_DEBHELPER] #817611  RECHECK
outguess 1:0.2-7 Failed [OLD_DEBHELPER] #817613  RECHECK
packup 0.6-2 Failed [GCC_ERROR] #811793  RECHECK
pagekite 0.5.8e-1 Failed [PYTHON_TRACEBACK] NNN
paps 0.6.8-7 Failed [GCC_ERROR] #825787  RECHECK
parcimonie 0.10.2-1 Failed [TESTS_FAILURES] #835774: parcimonie: FTBFS: Tests failures  RECHECK
passepartout 0.7.1-1.1 Failed [GCC_ERROR] #805217  RECHECK
passwordmaker-cli 1.5+dfsg-3 Failed [BUILDDEPS] #836644
pearpc 0.5.dfsg-2.1 Failed [GCC_ERROR] #811946  RECHECK
percona-xtrabackup 2.2.3-2.1 Failed [GCC_ERROR] #811896  RECHECK
perforate 1.2-5 Failed [OLD_DEBHELPER] #829187  RECHECK
perlpanel 1:0.9.1+cvs20051225-2 Failed [OLD_DEBHELPER] #817616  RECHECK
petris 1.0.1-8 Failed [OLD_DEBHELPER] #817617  RECHECK
phalanx 22+d051004-13.1 Failed [GCC_ERROR] #811584  RECHECK
photoprint 0.4.2~pre2-2.4 Failed [GCC_ERROR] #811806  RECHECK
php-arc 2.2.5-2 Failed [TESTS_FAILURES] #825542  RECHECK
php-crypt-gpg 1.4.1-1 Failed [TESTS_FAILURES] #835592  RECHECK
php-guzzle 3.9.3+dfsg-6 Failed [UNKNOWN] #821698  RECHECK
php-guzzlehttp-ringphp 1.1.0-2 Failed [UNKNOWN] #829059  RECHECK
php-mongo 1.6.10-1 Failed [BUILDDEPS] #819146  RECHECK
php-ps 1.3.7-1 Failed [BUILDDEPS] #791838
php-suhosin 0.9.33-3 Failed [GCC_ERROR] #718145  RECHECK
pidgin 2.11.0-1 Failed [BUILDDEPS] #836645 RECHECK
pidgin-hotkeys 0.2.4-1.2 Failed [OLD_DEBHELPER] #817618  RECHECK
pinot 1.05-1.1 Failed [GCC_ERROR] #812165  RECHECK
pion 5.0.6+dfsg-1 Failed [GCC_ERROR] #811849  RECHECK
piwi 0.8+20041206-3 Failed [OLD_DEBHELPER] #817619  RECHECK
pjproject 2.5.1~dfsg-2 Failed [UNKNOWN] #831179  RECHECK
planner-el 3.43~20140112-2 Failed [BUILDDEPS] #754024  RECHECK
plasma-widget-adjustableclock 4.1.4-1 Failed [BUILDDEPS] #831238  RECHECK
plasma-widget-yawp 0.4.2-1 Failed [BUILDDEPS] #831281  RECHECK
ploop 1.15-1 Failed [BUILDDEPS] #836646
plplot 5.10.0+dfsg2-0.3 Failed [TESTS_FAILURES] #835708: plplot: FTBFS: Tests failures  RECHECK
plv8 1:1.4.8.ds-1 Failed [GCC_ERROR] #831190  RECHECK
poc-streamer 0.4.2-3 Failed [OLD_DEBHELPER] #817623  RECHECK
poker-engine 1.3.6-1.2 Failed [UNKNOWN] #821727  RECHECK
poker-eval 138.0-1 Failed [OLD_DEBHELPER] #817624  RECHECK
polygraph 4.3.2-3 Failed [GCC_ERROR] #831125  RECHECK
polyorb 2.11~20140418-3 Failed [BUILDDEPS] #831255  RECHECK
poppassd 1.8.5-4 Failed [OLD_DEBHELPER] #817626  RECHECK
poster 1:20050907-1 Failed [OLD_DEBHELPER] #817627  RECHECK
ppl 1:1.1-7.2 Failed [GCC_ERROR] #811825  RECHECK
prelude-manager 1.0.1-5.1 Failed [BUILDDEPS] #836648
pretzel 2.0n-2-0.3 Failed [OLD_DEBHELPER] #800198  RECHECK
proj-ps-doc 4.3.3-4 Failed [OLD_DEBHELPER] #817628  RECHECK
proll 18-6 Failed [BUILDDEPS] #810133  RECHECK
prophet 0.750-1 Failed [TESTS_FAILURES] #720794  RECHECK
psignifit 2.5.6-3 Failed [OLD_DEBHELPER] #817631  RECHECK
ptex-base 1:2.5-2.1 Failed [OLD_DEBHELPER] #817632  RECHECK
ptex-buildsupport 3.0-3 Failed [OLD_DEBHELPER] #817633  RECHECK
ptlib 2.10.11~dfsg-2 Failed [GCC_ERROR] #811996  RECHECK
pulseview 0.2.0-1.1 Failed [GCC_ERROR] #811960  RECHECK
pyabiword 0.8.0-11 Failed [BUILDDEPS] #727084  RECHECK
pyasn1 0.1.9-1 Failed [UNKNOWN] NNN RECHECK
pycairo 1.8.8-2 Failed [UNKNOWN] #830364: pycairo: FTBFS: /bin/sh: 3: pythonpython2.7-dbg: not found  RECHECK
pycmail 0.1.4 Failed [OLD_DEBHELPER] #817636  RECHECK
pycountry 1.8+ds1-0.1 Failed [UNKNOWN] #821892  RECHECK
pyexcelerator 0.6.4.1-2 Failed [UNKNOWN] #825815  RECHECK
pyfltk 1.3.0-1 Failed [GCC_ERROR] #759824  RECHECK
pyformex 0.8.6-4 Failed [UNKNOWN] #750351  RECHECK
pyg 0.9.8 Failed [UNKNOWN] #713183  RECHECK
pygdchart2 0.beta1-3.6 Failed [OLD_DEBHELPER] #817637  RECHECK
pygpgme 0.3-1.1 Failed [PYTHON_TRACEBACK] #835174  RECHECK
pygtksourceview 2.10.1-2 Failed [UNKNOWN] NNN
pyjunitxml 0.6-1.1 Failed [PYTHON_TRACEBACK/TESTS_FAILURES] #802124  RECHECK
pyode 1.2.0-4+cvs20090320.1 Failed [OLD_DEBHELPER] #817638  RECHECK
pypoker-eval 138.0-1.2 Failed [OLD_DEBHELPER] #817697  RECHECK
pypuppetdb 0.1.1+git080614-1 Failed [TESTS_FAILURES] #815393  RECHECK
pyqwt3d 0.1.7~cvs20090625-13 Failed [GCC_ERROR] #812138  RECHECK
pysdl2 0.9.3+dfsg2-1 Failed [PYTHON_TRACEBACK/TESTS_FAILURES] #792197  RECHECK
pytest-mock 1.1-1 Failed [TESTS_FAILURES] #835241
python-aiohttp 0.22.4-1 Failed [BUILD_TIMEOUT] #830567
python-app-catalog-ui 1.0.0-1 Failed [BUILDDEPS] NNN
python-astropy 1.2.1-1 Failed [UNKNOWN] NNN RECHECK
python-axiom 0.7.5-1 Failed [UNKNOWN] NNN
python-casacore 2.1.2-1 Failed [SEGMENTATION_FAULT] #831175
python-cddb 1.4-5.2 Failed [OLD_DEBHELPER] #817640  RECHECK
python-ceres 0.10.0~git20150525-1 Failed [PYTHON_TRACEBACK/PYIMPORT] #805297  RECHECK
python-cogent 1.5.3-10 Failed [PYTHON_TRACEBACK/TESTS_FAILURES] #835213  RECHECK
python-django-extensions 1.6.7-3 Failed [PYTHON_TRACEBACK/TESTS_FAILURES] #828665  RECHECK
python-django-feincms 1.11.4-1 Failed [PYTHON_TRACEBACK/TESTS_FAILURES] #828666  RECHECK
python-django-mptt 0.8.5-0.1 Failed [PYTHON_TRACEBACK/TESTS_FAILURES] #828669
python-django-openstack-auth 2.2.1-1 Failed [PYTHON_TRACEBACK/TESTS_FAILURES] #835756: python-django-openstack-auth: FTBFS: Tests failures  RECHECK
python-django-tagging 1:0.4.1-1 Failed [PYTHON_TRACEBACK/TESTS_FAILURES] #828673  RECHECK
python-django-threadedcomments 0.9.0-1 Failed [TESTS_FAILURES] #801935  RECHECK
python-django-treebeard 4.0.1+dfsg-1 Failed [PYIMPORT] #828674  RECHECK
python-django-voting 0.2-1 Failed [PYTHON_TRACEBACK/PYIMPORT/TESTS_FAILURES] #755632  RECHECK
python-enable 4.5.1-2 Failed [GCC_ERROR] #804584  RECHECK
python-expyriment 0.7.0+git34-g55a4e7e-3.1 Failed [PYTHON_TRACEBACK/PYIMPORT] #830381: python-expyriment: FTBFS: ! LaTeX Error: File `iftex.sty' not found.  RECHECK
python-future 0.15.2-3 Failed [UNKNOWN] #835243
python-glpk 0.4.52-1.1 Failed [BUILDDEPS] #750228  RECHECK
python-jedi 0.9.0-1 Failed [PYTHON_TRACEBACK/PYIMPORT] #830399: python-jedi: FTBFS: dh_auto_test: pybuild --test -i python{version} -p 2.7 returned exit code 13  RECHECK
python-libpcap 0.6.4-1 Failed [GCC_ERROR] #804429  RECHECK
python-llfuse 1.1.1+dfsg-2 Failed [UNKNOWN] NNN
python-memory-profiler 0.31+git20141019-1 Failed [PYTHON_TRACEBACK/PYIMPORT] #804442  RECHECK
python-mhash 1.4-1.1 Failed [UNKNOWN] #828936  RECHECK
python-mne 0.12+dfsg-2 Failed [BUILDDEPS] NNN
python-mzml 0.7.4-dfsg-3 Failed [UNKNOWN] #830331  RECHECK
python-pbr 1.8.0-4.1 Failed [PYTHON_TRACEBACK/TESTS_FAILURES] #834684 RECHECK
python-pqueue 0.2-7.2 Failed [OLD_DEBHELPER] #817644  RECHECK
python-protobuf.socketrpc 1.3.2-3 Failed [PYTHON_TRACEBACK] #835694: python-protobuf.socketrpc: FTBFS: dh_auto_test: pybuild --test -i python{version} -p 2.7 returned exit code 13  RECHECK
python-pytc 0.8-2 Failed [UNKNOWN] #827832  RECHECK
python-reno 1.3.0-3 Failed [PYTHON_TRACEBACK/TESTS_FAILURES] #834685
python-riemann-client 6.3.0-1 Failed [PYTHON_TRACEBACK] #835688: python-riemann-client: FTBFS: dh_auto_test: pybuild --test -i python{version} -p 2.7 returned exit code 13  RECHECK
python-rply 0.7.4-1 Failed [UNKNOWN] NNN
python-socketpool 0.5.3-2 Failed [PYTHON_TRACEBACK] #835682: python-socketpool: FTBFS: UnicodeDecodeError: 'ascii' codec can't decode byte 0xc3 in position 3249: ordinal not in range(128)  RECHECK
python-tackerclient 0.4.0-1 Failed [BUILDDEPS] NNN
python-tcpwrap 0.2-2.2 Failed [OLD_DEBHELPER] #817639  RECHECK
python-tidylib 0.2.4~dfsg-2 Failed [UNKNOWN] #828900  RECHECK
python-traits 4.5.0-1 Failed [PYTHON_TRACEBACK] #830377: python-traits: FTBFS: dh_auto_test: pybuild --test -i python{version} -p 2.7 returned exit code 13  RECHECK
python-utmp 0.8.2 Failed [BUILDDEPS] #836649
python-websockets 3.0-1 Failed [PYTHON_TRACEBACK] #829726  RECHECK
python-whoosh 2.7.0-1 Failed [PYTHON_TRACEBACK] #812768  RECHECK
python-wrapt 1.8.0-5 Failed [TESTS_FAILURES] #835247
python-xklavier 0.4-4 Failed [UNKNOWN] NNN
pytone 3.0.0-1.1 Failed [OLD_DEBHELPER] #817641  RECHECK
pyviennacl 1.0.2+dfsg-1 Failed [GCC_ERROR] #813083  RECHECK
pywebkitgtk 1.1.8-3.1 Failed [UNKNOWN] #790218
qct 1.7-3 Failed [PYTHON_TRACEBACK] #827165  RECHECK
qd 2.3.11.dfsg-2.3 Failed [GCC_ERROR] #818542  RECHECK
qemu-launcher 1.7.4-1 Failed [UNKNOWN] #817305  RECHECK
qingy 0.9.7-2 Failed [OLD_DEBHELPER] #817643  RECHECK
qmc 0.94-3 Failed [OLD_DEBHELPER] #817645  RECHECK
qmmp 1.0.5-1.1 Failed [GCC_ERROR] #835079  RECHECK
qpid-cpp 0.16-9 Failed [GCC_ERROR] #811302  RECHECK
qqwing 1.3.4-1 Failed [UNKNOWN] #811981  RECHECK
qt4-perl 4.8.4-1.2 Failed [GCC_ERROR] #811672  RECHECK
qterm 1:0.5.12-1.1 Failed [GCC_ERROR] #831093  RECHECK
qtwebkit 2.3.4.dfsg-8.1 Failed [UNKNOWN] #812160  RECHECK
quickfix 1.13.3+dfsg-9 Failed [UNKNOWN] #831128  RECHECK
qwtplot3d 0.2.7+svn191-10 Failed [UNKNOWN] #811986  RECHECK
rabbitmq-server 3.5.7-1 Failed [UNKNOWN] NNN
ragel 6.9-1 Failed [GCC_ERROR] #811741  RECHECK
rat 4.2.22-2.2 Failed [OLD_DEBHELPER] #817648  RECHECK
r-bioc-deseq2 1.12.3-2 Failed [BUILDDEPS] NNN
r-cran-htmlwidgets 0.6-1 Failed [BUILDDEPS] NNN
r-cran-knitr 1.12.3-1 Failed [BUILDDEPS] NNN
r-cran-rglwidget 0.1.1434-1 Failed [BUILDDEPS] NNN
r-cran-scatterd3 0.6.2+dfsg-1 Failed [BUILDDEPS] NNN
r-cran-sem 3.1.7-3 Failed [UNKNOWN] #836070
r-cran-treescape 1.9.17-1 Failed [BUILDDEPS] NNN
r-cran-yaml 2.1.13-4 Failed [BUILDDEPS] NNN
rcs-blame 1.3.1-4 Failed [GCC_ERROR/LD_ERROR] #778101  RECHECK
rdkit 201503-3 Failed [UNKNOWN] #831264  RECHECK
re 0.1-6 Failed [GCC_ERROR] #811750  RECHECK
rebar 2.6.2-2 Failed [UNKNOWN] NNN
redet 8.26-1.1 Failed [OLD_DEBHELPER] #817649  RECHECK
refdb 1.0.2-3 Failed [UNKNOWN] #823546  RECHECK
refind 0.10.3-1 Failed [GCC_ERROR] #831258  RECHECK
remctl 3.12-1 Failed [UNKNOWN] #835677: remctl: FTBFS: dh_auto_test: make -j1 check VERBOSE=1 returned exit code 2  RECHECK
repsnapper 2.4a0-1 Failed [GCC_ERROR] #831081  RECHECK
request-tracker4 4.2.13-1 Failed [TESTS_FAILURES] #835536  RECHECK
rgl 0.96.0-1 Failed [BUILDDEPS] NNN
rlpr 2.05-4 Failed [OLD_DEBHELPER] #817653  RECHECK
rnc-mode 1.0b3-1 Failed [OLD_DEBHELPER] #817654  RECHECK
roboptim-core 2.0-7.1 Failed [GCC_ERROR] #808455  RECHECK
rocs 4:16.04.1-1 Failed [UNKNOWN] #835282  RECHECK
root-tail 1.2-3 Failed [OLD_DEBHELPER] #817656  RECHECK
routeplanner 0.19+nmu1 Failed [OLD_DEBHELPER] #817657  RECHECK
rsrce 0.2.2 Failed [OLD_DEBHELPER] #817659  RECHECK
rss2irc 1.0.6-3 Failed [BUILDDEPS] #797283  RECHECK
rt-app 0.2~alpha2.20140716-2.2 Failed [GCC_ERROR] #821080  RECHECK
rt-authen-externalauth 0.25-1 Failed [BUILDDEPS] NNN
rt-extension-calendar 1.00-1 Failed [BUILDDEPS] NNN
rt-extension-jsgantt 1.03-1 Failed [BUILDDEPS] NNN
rt-extension-nagios 1.01-1 Failed [BUILDDEPS] NNN
rt-extension-smsnotify 1.04-1 Failed [BUILDDEPS] NNN
rtpproxy 1.2.1-2.1 Failed [BUILDDEPS] #836652
ruby-activerecord-deprecated-finders 1.0.4-1 Failed [RUBY_TEST_FAILED] #835749: ruby-activerecord-deprecated-finders: FTBFS: ERROR: Test "ruby2.3" failed.  RECHECK
ruby-bluecloth 2.2.0-6 Failed [RUBY_TEST_FAILED] #822506  RECHECK
ruby-cheffish 2.0.4-1 Failed [RUBY_TEST_FAILED] NNN
ruby-crb-blast 0.6.4-1 Failed [RUBY_TEST_FAILED] #822702  RECHECK
ruby-eventmachine 1.0.7-3 Failed [BUILD_TIMEOUT] #831244  RECHECK
ruby-gitlab-emoji 0.3.1-2 Failed [RUBY_TEST_FAILED] #836437
ruby-rails-autolink 1.1.6-1 Failed [RUBY_TEST_FAILED] #808517  RECHECK
ruby-sys-filesystem 1.1.7-1 Failed [RUBY_TEST_FAILED] #836825
rumor 1.0.5-2 Failed [GCC_ERROR] #831185  RECHECK
sagan 1.0.1-0.3 Failed [CONFIGURE_ERROR] #835763: sagan: FTBFS: configure: error: Package requirements (lognorm >= 1.0.0) were not met  RECHECK
sahara-dashboard 4.0.0-1 Failed [BUILDDEPS] NNN
salmon 0.4.2+ds1-3 Failed [GCC_ERROR] #835720: salmon: FTBFS: BAMQueue.tpp:88:29: error: no matching function for call to 'spdlog::logger::warn()'  RECHECK
sapphire 0.15.8-9 Failed [UNKNOWN] #817306  RECHECK
sawfish-merlin-ugliness 1.3.1-1 Failed [OLD_DEBHELPER] #800278  RECHECK
scalapack-doc 1.5-10 Failed [OLD_DEBHELPER] #829420  RECHECK
scanlogd 2.2.5-3.2 Failed [OLD_DEBHELPER] #827810  RECHECK
scheme2c 2012.10.14-1 Failed [UNKNOWN] #778111  RECHECK
scim-kmfl-imengine 0.9.8-1.1 Failed [OLD_DEBHELPER] #817661  RECHECK
scim-unikey 0.3.1+debian-3.1 Failed [GCC_ERROR] #831158  RECHECK
sciplot 1.36-16 Failed [UNKNOWN] #830363: sciplot: FTBFS: dh_install: missing files, aborting  RECHECK
scmxx 0.9.0-2.3 Failed [OLD_DEBHELPER] #817662  RECHECK
sd 0.75-1 Failed [TESTS_FAILURES] #713493  RECHECK
sdate 0.4 Failed [UNKNOWN] #818443  RECHECK
seaborn 0.6.0-1 Failed [PYTHON_TRACEBACK/TESTS_FAILURES] #802412  RECHECK
seahorse-nautilus 3.11.92-1 Failed [GCC_ERROR] #835675: seahorse-nautilus: FTBFS: conftest.c:11:28: fatal error: ac_nonexistent.h: No such file or directory  RECHECK
search-ccsb 0.5-3 Failed [OLD_DEBHELPER] #817665  RECHECK
search-citeseer 0.3-1 Failed [UNKNOWN] #815610  RECHECK
sensors-applet 3.0.0+git5-0.1 Failed [UNKNOWN] #803059  RECHECK
sentinella 0.9.2-5 Failed [BUILDDEPS] #797942  RECHECK
seq24 0.9.3-1 Failed [GCC_ERROR] #822394  RECHECK
shadow 1:4.2-3.1 Failed [BUILDDEPS] #836653 RECHECK
shelxle 1.0.748-1 Failed [GCC_ERROR] #811906  RECHECK
shogun 3.2.0-7.3 Failed [GCC_ERROR] #809290  RECHECK
siege 4.0.2-1 Failed [BUILDDEPS] #836654
signond 8.57+20150423-3 Failed [UNKNOWN] #827811  RECHECK
sigviewer 0.5.1+svn556-4 Failed [GCC_ERROR] #812028  RECHECK
sigx 2.0.2-5 Failed [GCC_ERROR] #811325  RECHECK
simpleparse 2.1.0a1-7 Failed [PYTHON_TRACEBACK/PYIMPORT] #824738  RECHECK
sineshaper 0.4.2-8 Failed [GCC_ERROR] #805683  RECHECK
singular 4.0.3-p1+ds-3 Failed [GCC_ERROR] NNN RECHECK
sipxtapi 3.3.0~test17-1 Failed [GCC_ERROR] #811725  RECHECK
slic3r 1.2.9+dfsg-3 Failed [GCC_ERROR] #811700  RECHECK
slmon 0.5.13-2.3 Failed [OLD_DEBHELPER] #817670  RECHECK
slt 0.0.git20140301-1 Failed [BUILDDEPS] #832850: slt: FTBFS: build-dependency not installable: golang-goyaml-dev  RECHECK
smlnj 110.79-1 Failed [UNKNOWN] NNN
smokeqt 4:4.14.3-1 Failed [GCC_ERROR] #812002  RECHECK
smpeg 0.4.5+cvs20030824-7.1 Failed [GCC_ERROR] #811742  RECHECK
snapd 2.0.8+1 Failed [BUILDDEPS] #832876: snapd: FTBFS: build-dependency not installable: golang-pb-dev  RECHECK
sndobj 2.6.6.1-5 Failed [GCC_ERROR] #811743  RECHECK
socnetv 1.9-1.1 Failed [GCC_ERROR] #831085  RECHECK
sogo 2.2.17a-1.1 Failed [UNKNOWN] #827812  RECHECK
solarwolf 1.5-2.1 Failed [OLD_DEBHELPER] #817672  RECHECK
sooperlooper 1.7.3~dfsg0-2 Failed [GCC_ERROR] #819790  RECHECK
sorl-thumbnail 12.3-3 Failed [TESTS_FAILURES] #834678  RECHECK
spacearyarya 1.0.2-7 Failed [OLD_DEBHELPER] #817674  RECHECK
sredird 2.2.1-1.1 Failed [OLD_DEBHELPER] #817677  RECHECK
ssm 1.3-2.1 Failed [UNKNOWN] #811973  RECHECK
ssreflect 1.5-3 Failed [UNKNOWN] #813820  RECHECK
stardict 3.0.1-9.2 Failed [GCC_ERROR] #805236  RECHECK
starplot 0.95.5-8.1 Failed [GCC_ERROR] #811655  RECHECK
statserial 1.1-22 Failed [OLD_DEBHELPER] #817679  RECHECK
statsmodels 0.6.1-8 Failed [PYTHON_TRACEBACK] NNN
stopmotion 0.8.1-1 Failed [GCC_ERROR] #800059  RECHECK
strace 4.12-3 Failed [GCC_ERROR] NNN RECHECK
suede 0.2.5-1 Failed [OLD_DEBHELPER] #817682  RECHECK
sugar 0.106.1-1 Failed [UNKNOWN] #836889
sugar-base-0.88 0.88.0-4 Failed [UNKNOWN] NNN
sugar-base 0.98.0-5 Failed [UNKNOWN] NNN
sugar-datastore 0.106.0-1 Failed [UNKNOWN] NNN
sugar-datastore-0.88 0.88.0-4 Failed [UNKNOWN] NNN
sugar-presence-service-0.88 0.88.0-3.1 Failed [UNKNOWN] NNN
sugar-presence-service 0.90.2-5 Failed [UNKNOWN] NNN
sugar-toolkit-0.88 0.88.1-4 Failed [UNKNOWN] NNN
sugar-toolkit 0.98.1-7 Failed [UNKNOWN] NNN
sugar-toolkit-gtk3 0.106.1-1 Failed [UNKNOWN] NNN
svgwrite 1.1.8-1 Failed [PYTHON_TRACEBACK/PYIMPORT] #829415  RECHECK
swift-im 2.0+dev6-1 Failed [GCC_ERROR] #797279  RECHECK
swiginac 1.5.1.1-2 Failed [GCC_ERROR] #829173  RECHECK
swish++ 6.1.5-3 Failed [OLD_DEBHELPER] #817683  RECHECK
switchsh 0~20070801-3.2 Failed [BUILDDEPS] #836657
symfony 2.8.7+dfsg-1 Failed [TESTS_FAILURES] #832858: symfony: FTBFS: Tests failures  RECHECK
synaptic 0.83 Failed [GCC_ERROR] #831268  RECHECK
syncthing 0.14.4+dfsg1-1 Failed [UNKNOWN] #835684: syncthing: FTBFS: dh_auto_test: go test -v -p 1 github.com/syncthing/syncthing/cmd/stbench github.com/syncthing/syncthing/cmd/stcompdirs github.com/syncthing/syncthing/cmd/stdisco github.com/syncthing/syncthing/cmd/stdiscosrv github.com/syncthing/syncthing/cmd/stevents github.com/syncthing/syncthing/cmd/stfileinfo github.com/syncthing/syncthing/cmd/stfinddevice github.com/syncthing/syncthing/cmd/stgenfiles github.com/syncthing/syncthing/cmd/stindex github.com/syncthing/syncthing/cmd/strelaysrv github.com/syncthing/syncthing/cmd/strelaysrv/testutil github.com/syncthing/syncthing/cmd/stsigtool github.com/syncthing/syncthing/cmd/stvanity github.com/syncthing/syncthing/cmd/stwatchfile github.com/syncthing/syncthing/cmd/syncthing github.com/syncthing/syncthing/lib/auto github.com/syncthing/syncthing/lib/beacon github.com/syncthing/syncthing/lib/config github.com/syncthing/syncthing/lib/connections github.com/syncthing/syncthing/lib/db github.com/syncthing/syncthing/lib/dialer github.com/syncthing/syncthing/lib/discover github.com/syncthing/syncthing/lib/events github.com/syncthing/syncthing/lib/fs github.com/syncthing/syncthing/lib/ignore github.com/syncthing/syncthing/lib/logger github.com/syncthing/syncthing/lib/model github.com/syncthing/syncthing/lib/nat github.com/syncthing/syncthing/lib/osutil github.com/syncthing/syncthing/lib/pmp github.com/syncthing/syncthing/lib/protocol github.com/syncthing/syncthing/lib/rand github.com/syncthing/syncthing/lib/rc github.com/syncthing/syncthing/lib/relay/client github.com/syncthing/syncthing/lib/relay/protocol github.com/syncthing/syncthing/lib/scanner github.com/syncthing/syncthing/lib/signature github.com/syncthing/syncthing/lib/stats github.com/syncthing/syncthing/lib/symlinks github.com/syncthing/syncthing/lib/sync github.com/syncthing/syncthing/lib/tlsutil github.com/syncthing/syncthing/lib/upgrade github.com/syncthing/syncthing/lib/upnp github.com/syncthing/syncthing/lib/util github.com/syncthing/syncthing/lib/versioner returned exit code 1  RECHECK
synergy 1.4.16-1 Failed [SEGMENTATION_FAULT/TESTS_FAILURES] #812303  RECHECK
syrep 0.9-4.2 Failed [OLD_DEBHELPER] #817684  RECHECK
sysbench 0.4.12-1.1 Failed [BUILDDEPS] #790475
tacacs+ 4.0.4.27a-1 Failed [BUILDDEPS] #836658
tachyon 0.99~b6+dsx-5 Failed [GCC_ERROR/LD_ERROR] NNN RECHECK
tagcoll2 2.0.14-1 Failed [GCC_ERROR] #811863  RECHECK
tamil-gtk2im 2.2-4.5 Failed [OLD_DEBHELPER] #817685  RECHECK
tcm 2.20+TSQD-4.4 Failed [OLD_DEBHELPER] #817686  RECHECK
tcpcopy 0.6.3-2.1 Failed [GCC_ERROR] #835591  RECHECK
tcsh 6.18.01-5 Failed [GCC_ERROR] NNN RECHECK
tdfsb 0.0.10-1.1 Failed [OLD_DEBHELPER] #817687  RECHECK
telepathy-haze 0.8.0-2 Failed [GCC_ERROR] #824739  RECHECK
telepathy-logger-qt 15.04.0-1 Failed [UNKNOWN] #811971  RECHECK
telepathy-python 0.15.19-2.1 Failed [UNKNOWN] #832865: telepathy-python: FTBFS: will not overwrite just-created '/«PKGBUILDDIR»/debian/python-telepathy//usr/lib/python2.7/dist-packages/telepathy/_generated/errors.py' with '_generated/errors.py'  RECHECK
templayer 1.5.1-2 Failed [UNKNOWN] #830350: templayer: FTBFS: chmod: cannot access 'debian/python-templayer/usr/lib/python*/site-packages/templayer.py': No such file or directory  RECHECK
tessa 0.3.1-6.1 Failed [OLD_DEBHELPER] #817690  RECHECK
tk-brief 5.9-1.1 Failed [UNKNOWN] #733433  RECHECK
tora 2.1.3-2 Failed [GCC_ERROR] #811663  RECHECK
torch3 3.1-2.1 Failed [OLD_DEBHELPER] #817698  RECHECK
toulbar2 0.9.8-1 Failed [GCC_ERROR] #831148  RECHECK
tpb 0.6.4-8 Failed [UNKNOWN] #830376: tpb: FTBFS: dpkg-buildpackage: error: dpkg-source -b tpb-0.6.4 gave error exit status 2  RECHECK
tpm-tools 1.3.8-2 Failed [GCC_ERROR] #811576  RECHECK
trackballs 1.1.4-4.2 Failed [GCC_ERROR] #831119  RECHECK
travis 151107-1 Failed [GCC_ERROR] #831114  RECHECK
trivial-features 0.6-1 Failed [UNKNOWN] #821786  RECHECK
trove-dashboard 6.0.0-1 Failed [BUILDDEPS] NNN
tse3 0.3.1-4.3 Failed [OLD_DEBHELPER] #817699  RECHECK
tsocks 1.8beta5-9.4 Failed [UNKNOWN] #815611  RECHECK
tvtime 1.0.2-14 Failed [GCC_ERROR] #811894  RECHECK
ucimf-openvanilla 2.10.11-2 Failed [GCC_ERROR] #811945  RECHECK
uclmmbase 1.2.16.0-1 Failed [OLD_DEBHELPER] #817704  RECHECK
ucommon 7.0.0-6 Failed [UNKNOWN] #831211  RECHECK
ucto 0.8.0-2 Failed [GCC_ERROR] #833714  RECHECK RECHECK_GUESS
umbrello 4:16.04.2-1 Failed [UNKNOWN] #835705: umbrello: FTBFS: dh_install: missing files, aborting  RECHECK
underscore.logger 0.3.0~20111114-1 Failed [GCC_ERROR] #669541  RECHECK
undertaker 1.6.1-2 Failed [GCC_ERROR] #833780  RECHECK
units-filter 3.7-1 Failed [BUILDDEPS] #836659
unittest++ 1.4.0-3 Failed [UNKNOWN] #812270  RECHECK
urdfdom 0.4.1-1 Failed [UNKNOWN] #835284  RECHECK
usbguard 0.5.14+ds1-1 Failed [CONFIGURE_ERROR] #836713
utopia-documents 2.4.4-2.1 Failed [BUILDDEPS] #804807  RECHECK
uwsgi 2.0.12-7 Failed [GCC_ERROR] #828785  RECHECK RECHECK_GUESS
varnish-agent 2.2~git20130708-1 Failed [UNKNOWN] #724479  RECHECK
vdk2 2.4.0-5.3 Failed [OLD_DEBHELPER] #817712  RECHECK
vdk2-tutorial 1.1-3 Failed [OLD_DEBHELPER] #817713  RECHECK
vdk-doc 1.2.4-4 Failed [OLD_DEBHELPER] #817714  RECHECK
vdr-plugin-vcd 0.9-25 Failed [GCC_ERROR] #812025  RECHECK
verbiste 0.1.43-1 Failed [GCC_ERROR] #828800  RECHECK
visolate 2.1.6~svn8+dfsg1-1 Failed [GCC_ERROR] #791866  RECHECK
vmmlib 1.0-2 Failed [GCC_ERROR] #834472  RECHECK
vnc4 4.1.1+X4.3.0-39 Failed [GCC_ERROR] #811783  RECHECK
vtgrab 0.1.8-3 Failed [OLD_DEBHELPER] #817717  RECHECK
vxl 1.17.0.dfsg2-4 Failed [GCC_ERROR] #831126  RECHECK
vzctl 4.9.4-2 Failed [BUILDDEPS] #836660
vzquota 3.1-1 Failed [BUILDDEPS] #836661
wayv 0.3-5 Failed [OLD_DEBHELPER] #817718  RECHECK
weathermap4rrd 1.1.999+1.2rc3-2 Failed [OLD_DEBHELPER] #817719  RECHECK
webcamd 0.7.6-5 Failed [OLD_DEBHELPER] #817720  RECHECK
whereami 0.3.34-0.3 Failed [OLD_DEBHELPER] #817722  RECHECK
why 2.34-4 Failed [BUILDDEPS] #815684  RECHECK
witty 3.3.5+dfsg-1 Failed [BUILDDEPS] #836663
wmix 3.1-5 Failed [OLD_DEBHELPER] #817723  RECHECK
wmressel 0.8-5.1 Failed [OLD_DEBHELPER] #817724  RECHECK
wmxres 1.2-10 Failed [OLD_DEBHELPER] #817726  RECHECK
wsjt 9.7.r3639+dfsg-1.1 Failed [CLANG_ERROR] #804672  RECHECK
wsjtx 1.1.r3496-3 Failed [BUILDDEPS] #836664
wysihtml 0.13-5.2 Failed [OLD_DEBHELPER] #817729  RECHECK
xautolock 1:2.2-5 Failed [GCC_ERROR] #833971 RECHECK
xbase64 3.1.2-6 Failed [GCC_ERROR] #811846  RECHECK
xemacs21 21.4.24-2 Failed [UNKNOWN] NNN
xen 4.6.0-1+nmu2 Failed [GCC_ERROR] #812166  RECHECK
xevil 2.02r2-10 Failed [GCC_ERROR] #831104  RECHECK
xfce4-radio-plugin 0.5.1-3 Failed [GCC_ERROR] NNN RECHECK
xfonts-wqy 1.0.0~rc1-1 Failed [UNKNOWN] #808850  RECHECK
xfsprogs 4.3.0+nmu1 Failed [GCC_ERROR] #822369  RECHECK
xipmsg 0.8088-2.1 Failed [OLD_DEBHELPER] #817732  RECHECK
xkbset 0.5-5.1 Failed [OLD_DEBHELPER] #817733  RECHECK
xmacro 0.3pre-20000911-6 Failed [GCC_ERROR] #831195  RECHECK
xmlstarlet 1.6.1-1 Failed [UNKNOWN] #832864: xmlstarlet: FTBFS: dh_auto_test: make -j1 check VERBOSE=1 returned exit code 2  RECHECK
xpaint 2.9.1.4-3.1 Failed [BUILDDEPS] #836665
xpilot-extra 4.7.2+nmu1 Failed [OLD_DEBHELPER] #817735  RECHECK
xsok 1.02-17 Failed [OLD_DEBHELPER] #817738  RECHECK
xtell 2.10.7 Failed [OLD_DEBHELPER] #817739  RECHECK
xview 3.2p1.4-28.1 Failed [GCC_ERROR] #818821  RECHECK
yahoo2mbox 0.24-1 Failed [OLD_DEBHELPER] #817741  RECHECK
yapps2 2.1.1-17.3 Failed [OLD_DEBHELPER] #817771  RECHECK
yaret 2.1.0-5 Failed [OLD_DEBHELPER] #817742  RECHECK
yate 5.4.0-1-1 Failed [GCC_ERROR] #811649  RECHECK
yosys 0.6-6 Failed [UNKNOWN] #835678: yosys: FTBFS: latex errors  RECHECK
z3 4.4.1-0.2 Failed [GCC_ERROR] #835743: z3: FTBFS: ../src/util/mpz.cpp:137:8: error: call of overloaded 'set(mpz&, long unsigned int)' is ambiguous  RECHECK
zemberek-ooo 1.0~rc2-10.4 Failed [UNKNOWN] #802416  RECHECK
zeroc-icee 1.2.0-6.2 Failed [OLD_DEBHELPER] #817743  RECHECK
zeroc-icee-java 1.2.0-3 Failed [OLD_DEBHELPER] #817744  RECHECK
zeroc-icee-translators 1.2.0-6.1 Failed [OLD_DEBHELPER] #817745  RECHECK
zeroinstall-injector 2.10-2 Failed [TESTS_FAILURES] NNN
zivot 20013101-3 Failed [OLD_DEBHELPER] #817747  RECHECK
zthreads 2.3.2-7.2 Failed [GCC_ERROR] #812027  RECHECK
